G04 #@! TF.GenerationSoftware,KiCad,Pcbnew,(5.1.6)-1*
G04 #@! TF.CreationDate,2020-07-29T11:20:29+10:00*
G04 #@! TF.ProjectId,Module PCB,4d6f6475-6c65-4205-9043-422e6b696361,2*
G04 #@! TF.SameCoordinates,Original*
G04 #@! TF.FileFunction,Copper,L2,Bot*
G04 #@! TF.FilePolarity,Positive*
%FSLAX46Y46*%
G04 Gerber Fmt 4.6, Leading zero omitted, Abs format (unit mm)*
G04 Created by KiCad (PCBNEW (5.1.6)-1) date 2020-07-29 11:20:29*
%MOMM*%
%LPD*%
G01*
G04 APERTURE LIST*
G04 #@! TA.AperFunction,ComponentPad*
%ADD10R,1.508000X1.508000*%
G04 #@! TD*
G04 #@! TA.AperFunction,ComponentPad*
%ADD11C,1.508000*%
G04 #@! TD*
G04 #@! TA.AperFunction,ComponentPad*
%ADD12O,1.700000X1.700000*%
G04 #@! TD*
G04 #@! TA.AperFunction,ComponentPad*
%ADD13R,1.700000X1.700000*%
G04 #@! TD*
G04 #@! TA.AperFunction,SMDPad,CuDef*
%ADD14R,7.340000X6.350000*%
G04 #@! TD*
G04 #@! TA.AperFunction,ViaPad*
%ADD15C,0.600000*%
G04 #@! TD*
G04 #@! TA.AperFunction,ViaPad*
%ADD16C,0.400000*%
G04 #@! TD*
G04 #@! TA.AperFunction,ViaPad*
%ADD17C,0.500000*%
G04 #@! TD*
G04 #@! TA.AperFunction,ViaPad*
%ADD18C,0.800000*%
G04 #@! TD*
G04 #@! TA.AperFunction,Conductor*
%ADD19C,0.500000*%
G04 #@! TD*
G04 #@! TA.AperFunction,Conductor*
%ADD20C,1.000000*%
G04 #@! TD*
G04 #@! TA.AperFunction,Conductor*
%ADD21C,0.700000*%
G04 #@! TD*
G04 #@! TA.AperFunction,Conductor*
%ADD22C,0.350000*%
G04 #@! TD*
G04 #@! TA.AperFunction,Conductor*
%ADD23C,0.400000*%
G04 #@! TD*
G04 #@! TA.AperFunction,Conductor*
%ADD24C,0.800000*%
G04 #@! TD*
G04 #@! TA.AperFunction,Conductor*
%ADD25C,1.500000*%
G04 #@! TD*
G04 #@! TA.AperFunction,Conductor*
%ADD26C,0.900000*%
G04 #@! TD*
G04 #@! TA.AperFunction,Conductor*
%ADD27C,0.600000*%
G04 #@! TD*
G04 #@! TA.AperFunction,Conductor*
%ADD28C,1.200000*%
G04 #@! TD*
G04 #@! TA.AperFunction,Conductor*
%ADD29C,0.254000*%
G04 #@! TD*
G04 APERTURE END LIST*
D10*
X115140000Y-103850000D03*
D11*
X117680000Y-103850000D03*
X120220000Y-103850000D03*
X122760000Y-103850000D03*
D12*
X182820000Y-76250000D03*
X180280000Y-76250000D03*
X177740000Y-76250000D03*
D13*
X175200000Y-76250000D03*
D12*
X152425000Y-104000000D03*
X149885000Y-104000000D03*
X147345000Y-104000000D03*
X144805000Y-104000000D03*
X142265000Y-104000000D03*
D13*
X139725000Y-104000000D03*
D12*
X152400000Y-77750000D03*
X149860000Y-77750000D03*
X147320000Y-77750000D03*
X144780000Y-77750000D03*
X142240000Y-77750000D03*
D13*
X139700000Y-77750000D03*
D14*
X185280000Y-91000000D03*
X106620000Y-91000000D03*
D15*
X144950000Y-89040110D03*
X148200000Y-85000000D03*
D16*
X137250000Y-88400000D03*
D15*
X147050000Y-80300000D03*
D16*
X137200000Y-81750000D03*
D15*
X144700000Y-93000000D03*
X148200000Y-97500000D03*
D17*
X130200000Y-79500000D03*
X134450000Y-85749988D03*
D16*
X137250000Y-93600000D03*
X137300000Y-100250000D03*
D15*
X147150000Y-102000000D03*
D17*
X127700000Y-79250000D03*
X135769756Y-84383388D03*
D16*
X170150000Y-92700000D03*
X166150000Y-91400004D03*
D15*
X119700000Y-77500000D03*
X158200000Y-74250000D03*
D18*
X126200000Y-99500000D03*
X126200000Y-82500000D03*
X123450000Y-91000000D03*
D17*
X158700000Y-89750000D03*
D15*
X120700000Y-85750000D03*
X124700000Y-88200000D03*
D16*
X165750000Y-90700000D03*
D17*
X135950000Y-97600000D03*
X127750000Y-102600000D03*
X130150000Y-102400000D03*
X135950000Y-96200000D03*
X166224998Y-86525002D03*
D16*
X173449998Y-86200000D03*
D15*
X176950000Y-93600000D03*
D17*
X164929696Y-92630221D03*
D16*
X128250000Y-91900000D03*
D15*
X183700000Y-89500000D03*
X185200000Y-89500000D03*
X186700000Y-89500000D03*
X183700000Y-91000000D03*
X185200000Y-91000000D03*
X186700000Y-91000000D03*
X183700000Y-92500000D03*
X185200000Y-92500000D03*
X186700000Y-92500000D03*
D17*
X132700000Y-96250000D03*
D18*
X132200000Y-86000000D03*
D15*
X132950000Y-103250000D03*
D18*
X156950000Y-90500000D03*
X161700000Y-85000000D03*
X122150000Y-80100000D03*
X129050000Y-77000000D03*
X124850000Y-79800000D03*
X123700000Y-84500000D03*
X127950000Y-87500000D03*
D15*
X155950000Y-92500000D03*
X157450000Y-99250000D03*
X155950000Y-98750000D03*
X157450000Y-98000000D03*
X166650000Y-99300000D03*
X172137500Y-103812500D03*
X179700000Y-102250000D03*
X123700000Y-92750000D03*
X118450000Y-89500000D03*
D16*
X188450000Y-86100000D03*
D15*
X168175000Y-85534890D03*
D16*
X169550000Y-98800000D03*
D15*
X141950000Y-107750000D03*
D18*
X113700000Y-86750000D03*
X114325000Y-94225000D03*
D15*
X134950000Y-91750000D03*
X134950000Y-86749990D03*
X135609903Y-94924997D03*
D18*
X111200000Y-91000000D03*
D16*
X164950000Y-86900000D03*
X164250000Y-86800000D03*
X169150000Y-86800000D03*
X181950000Y-83200000D03*
D19*
X148200000Y-85790110D02*
X148200000Y-85000000D01*
X144950000Y-89040110D02*
X148200000Y-85790110D01*
D20*
X144780000Y-77750000D02*
X144800000Y-77750000D01*
X144780000Y-77750000D02*
X144780000Y-78030000D01*
X144780000Y-78030000D02*
X147050000Y-80300000D01*
D21*
X137250000Y-81800000D02*
X137200000Y-81750000D01*
X137250000Y-88400000D02*
X137250000Y-81800000D01*
D19*
X148200000Y-96500000D02*
X144700000Y-93000000D01*
X148200000Y-97500000D02*
X148200000Y-96500000D01*
D22*
X130200000Y-79500000D02*
X130200000Y-81499988D01*
X130200000Y-81499988D02*
X134450000Y-85749988D01*
D20*
X144805000Y-104000000D02*
X145150000Y-104000000D01*
X145150000Y-104000000D02*
X147150000Y-102000000D01*
D21*
X137250000Y-100200000D02*
X137300000Y-100250000D01*
X137250000Y-93600000D02*
X137250000Y-100200000D01*
D22*
X135769756Y-83419756D02*
X135769756Y-84383388D01*
X130850000Y-78500000D02*
X135769756Y-83419756D01*
X127700000Y-79250000D02*
X128450000Y-78500000D01*
X128450000Y-78500000D02*
X130850000Y-78500000D01*
D23*
X166150004Y-91400000D02*
X166150000Y-91400004D01*
X170150000Y-92700000D02*
X168850000Y-91400000D01*
X168850000Y-91400000D02*
X166150004Y-91400000D01*
D24*
X119700000Y-77500000D02*
X122950000Y-74250000D01*
X122950000Y-74250000D02*
X158200000Y-74250000D01*
D25*
X126200000Y-91000000D02*
X126200000Y-82500000D01*
D26*
X126200000Y-91000000D02*
X123450000Y-91000000D01*
D25*
X126200000Y-99500000D02*
X126200000Y-91000000D01*
D23*
X122250000Y-85750000D02*
X124700000Y-88200000D01*
X120700000Y-85750000D02*
X122250000Y-85750000D01*
X158700000Y-89750000D02*
X164800000Y-89750000D01*
X164800000Y-89750000D02*
X165750000Y-90700000D01*
D22*
X128140101Y-102990101D02*
X127750000Y-102600000D01*
X131759899Y-102990101D02*
X128140101Y-102990101D01*
X135950000Y-97600000D02*
X135950000Y-98800000D01*
X135950000Y-98800000D02*
X131759899Y-102990101D01*
X134550000Y-96200000D02*
X135950000Y-96200000D01*
X130150000Y-102400000D02*
X130150000Y-100600000D01*
X130150000Y-100600000D02*
X134550000Y-96200000D01*
D23*
X166550000Y-86200000D02*
X173449998Y-86200000D01*
X166224998Y-86525002D02*
X166550000Y-86200000D01*
X176950000Y-93600000D02*
X165899475Y-93600000D01*
X165899475Y-93600000D02*
X164929696Y-92630221D01*
D25*
X156950000Y-89750000D02*
X156950000Y-90500000D01*
X161700000Y-85000000D02*
X156950000Y-89750000D01*
D23*
X118450000Y-91500000D02*
X118450000Y-89500000D01*
X123700000Y-92750000D02*
X119700000Y-92750000D01*
X119700000Y-92750000D02*
X118450000Y-91500000D01*
D25*
X142265000Y-77775000D02*
X142240000Y-77750000D01*
X142265000Y-104000000D02*
X142265000Y-77775000D01*
X139725000Y-77775000D02*
X139700000Y-77750000D01*
X139725000Y-104000000D02*
X139725000Y-77775000D01*
D27*
X139700000Y-106700000D02*
X139700000Y-104025000D01*
X141950000Y-107750000D02*
X140750000Y-107750000D01*
X139700000Y-104025000D02*
X139725000Y-104000000D01*
X140750000Y-107750000D02*
X139700000Y-106700000D01*
D25*
X114265000Y-94225000D02*
X113700000Y-93660000D01*
X113700000Y-93660000D02*
X113700000Y-86750000D01*
D24*
X134950000Y-86749990D02*
X134950000Y-94265094D01*
X134950000Y-94265094D02*
X135609903Y-94924997D01*
D28*
X149885000Y-77775000D02*
X149860000Y-77750000D01*
X149885000Y-104000000D02*
X149885000Y-77775000D01*
X152425000Y-77775000D02*
X152400000Y-77750000D01*
X152425000Y-104000000D02*
X152425000Y-77775000D01*
D25*
X106620000Y-91000000D02*
X111200000Y-91000000D01*
D23*
X175190000Y-78800000D02*
X177740000Y-76250000D01*
X164950000Y-86900000D02*
X173050000Y-78800000D01*
X173050000Y-78800000D02*
X175190000Y-78800000D01*
X174800000Y-76250000D02*
X175200000Y-76250000D01*
X164250000Y-86800000D02*
X174800000Y-76250000D01*
X169150000Y-86800000D02*
X178350000Y-86800000D01*
X178350000Y-86800000D02*
X181950000Y-83200000D01*
D29*
G36*
X185428786Y-73950776D02*
G01*
X186386074Y-74167388D01*
X187300826Y-74523115D01*
X188152954Y-75010147D01*
X188923731Y-75617778D01*
X189596230Y-76332665D01*
X190155673Y-77139098D01*
X190589775Y-78019369D01*
X190888994Y-78954130D01*
X191047692Y-79928572D01*
X191073000Y-80508222D01*
X191073001Y-101486002D01*
X190999224Y-102478786D01*
X190782612Y-103436074D01*
X190426884Y-104350829D01*
X189939853Y-105202954D01*
X189332222Y-105973731D01*
X188617335Y-106646230D01*
X187810898Y-107205675D01*
X186930629Y-107639775D01*
X185995870Y-107938994D01*
X185021429Y-108097692D01*
X184441778Y-108123000D01*
X154677000Y-108123000D01*
X154677000Y-98797896D01*
X171498000Y-98797896D01*
X171498000Y-99202104D01*
X171576857Y-99598546D01*
X171731541Y-99971987D01*
X171956107Y-100308074D01*
X172241926Y-100593893D01*
X172578013Y-100818459D01*
X172951454Y-100973143D01*
X173347896Y-101052000D01*
X173752104Y-101052000D01*
X174148546Y-100973143D01*
X174521987Y-100818459D01*
X174858074Y-100593893D01*
X175143893Y-100308074D01*
X175368459Y-99971987D01*
X175523143Y-99598546D01*
X175602000Y-99202104D01*
X175602000Y-98797896D01*
X175523143Y-98401454D01*
X175368459Y-98028013D01*
X175143893Y-97691926D01*
X174858074Y-97406107D01*
X174521987Y-97181541D01*
X174148546Y-97026857D01*
X173752104Y-96948000D01*
X173347896Y-96948000D01*
X172951454Y-97026857D01*
X172578013Y-97181541D01*
X172241926Y-97406107D01*
X171956107Y-97691926D01*
X171731541Y-98028013D01*
X171576857Y-98401454D01*
X171498000Y-98797896D01*
X154677000Y-98797896D01*
X154677000Y-89750000D01*
X155867789Y-89750000D01*
X155873000Y-89802907D01*
X155873000Y-90552909D01*
X155888583Y-90711129D01*
X155950168Y-90914144D01*
X156050175Y-91101244D01*
X156184762Y-91265239D01*
X156348757Y-91399826D01*
X156535857Y-91499833D01*
X156738872Y-91561417D01*
X156950000Y-91582211D01*
X157161129Y-91561417D01*
X157364144Y-91499833D01*
X157551244Y-91399826D01*
X157715239Y-91265239D01*
X157849826Y-91101244D01*
X157949833Y-90914144D01*
X158011417Y-90711128D01*
X158027000Y-90552908D01*
X158027000Y-90196107D01*
X158193126Y-90029982D01*
X158251815Y-90117816D01*
X158332184Y-90198185D01*
X158426688Y-90261331D01*
X158531695Y-90304826D01*
X158643170Y-90327000D01*
X158756830Y-90327000D01*
X158868305Y-90304826D01*
X158935483Y-90277000D01*
X164581711Y-90277000D01*
X165340650Y-91035940D01*
X165340652Y-91035943D01*
X165414057Y-91109348D01*
X165435697Y-91123807D01*
X165455798Y-91140304D01*
X165478735Y-91152564D01*
X165500372Y-91167021D01*
X165524418Y-91176981D01*
X165547351Y-91189239D01*
X165572231Y-91196787D01*
X165596280Y-91206748D01*
X165621807Y-91211825D01*
X165646690Y-91219374D01*
X165653867Y-91220081D01*
X165653214Y-91222235D01*
X165643252Y-91246284D01*
X165638174Y-91271813D01*
X165630626Y-91296695D01*
X165628077Y-91322574D01*
X165623000Y-91348099D01*
X165623000Y-91374123D01*
X165620451Y-91400004D01*
X165623000Y-91425885D01*
X165623000Y-91451909D01*
X165628077Y-91477434D01*
X165630626Y-91503313D01*
X165638174Y-91528195D01*
X165643252Y-91553724D01*
X165653214Y-91577773D01*
X165660761Y-91602653D01*
X165673018Y-91625585D01*
X165682979Y-91649632D01*
X165697438Y-91671272D01*
X165709696Y-91694205D01*
X165726190Y-91714303D01*
X165740652Y-91735947D01*
X165759062Y-91754357D01*
X165775553Y-91774451D01*
X165795647Y-91790942D01*
X165814057Y-91809352D01*
X165835701Y-91823814D01*
X165855799Y-91840308D01*
X165878732Y-91852566D01*
X165900372Y-91867025D01*
X165924419Y-91876986D01*
X165947351Y-91889243D01*
X165972231Y-91896790D01*
X165996280Y-91906752D01*
X166021809Y-91911830D01*
X166046691Y-91919378D01*
X166072570Y-91921927D01*
X166098095Y-91927004D01*
X166124119Y-91927004D01*
X166150000Y-91929553D01*
X166175881Y-91927004D01*
X166201905Y-91927004D01*
X166201925Y-91927000D01*
X168631711Y-91927000D01*
X169740652Y-93035943D01*
X169777709Y-93073000D01*
X166117766Y-93073000D01*
X165468854Y-92424089D01*
X165441027Y-92356909D01*
X165377881Y-92262405D01*
X165297512Y-92182036D01*
X165203008Y-92118890D01*
X165098001Y-92075395D01*
X164986526Y-92053221D01*
X164872866Y-92053221D01*
X164761391Y-92075395D01*
X164656384Y-92118890D01*
X164561880Y-92182036D01*
X164481511Y-92262405D01*
X164418365Y-92356909D01*
X164374870Y-92461916D01*
X164352696Y-92573391D01*
X164352696Y-92687051D01*
X164374870Y-92798526D01*
X164418365Y-92903533D01*
X164481511Y-92998037D01*
X164561880Y-93078406D01*
X164656384Y-93141552D01*
X164723564Y-93169379D01*
X165508528Y-93954344D01*
X165525027Y-93974448D01*
X165605273Y-94040304D01*
X165696825Y-94089239D01*
X165796165Y-94119374D01*
X165899475Y-94129549D01*
X165925356Y-94127000D01*
X176610141Y-94127000D01*
X176653004Y-94155640D01*
X176767111Y-94202905D01*
X176888246Y-94227000D01*
X177011754Y-94227000D01*
X177132889Y-94202905D01*
X177246996Y-94155640D01*
X177349689Y-94087023D01*
X177437023Y-93999689D01*
X177505640Y-93896996D01*
X177552905Y-93782889D01*
X177577000Y-93661754D01*
X177577000Y-93538246D01*
X177552905Y-93417111D01*
X177505640Y-93303004D01*
X177437023Y-93200311D01*
X177349689Y-93112977D01*
X177246996Y-93044360D01*
X177132889Y-92997095D01*
X177011754Y-92973000D01*
X176888246Y-92973000D01*
X176767111Y-92997095D01*
X176653004Y-93044360D01*
X176610141Y-93073000D01*
X170525635Y-93073000D01*
X170540938Y-93054353D01*
X170559348Y-93035943D01*
X170573810Y-93014299D01*
X170590304Y-92994201D01*
X170602562Y-92971268D01*
X170617021Y-92949628D01*
X170626982Y-92925581D01*
X170639239Y-92902649D01*
X170646786Y-92877769D01*
X170656748Y-92853720D01*
X170661826Y-92828191D01*
X170669374Y-92803309D01*
X170671923Y-92777430D01*
X170677000Y-92751905D01*
X170677000Y-92725881D01*
X170679549Y-92700000D01*
X170677000Y-92674119D01*
X170677000Y-92648095D01*
X170671923Y-92622571D01*
X170669374Y-92596690D01*
X170661825Y-92571807D01*
X170656748Y-92546280D01*
X170646787Y-92522231D01*
X170639239Y-92497351D01*
X170626981Y-92474418D01*
X170617021Y-92450372D01*
X170602564Y-92428735D01*
X170590304Y-92405798D01*
X170573805Y-92385694D01*
X170559348Y-92364057D01*
X170485943Y-92290652D01*
X169240955Y-91045666D01*
X169224448Y-91025552D01*
X169144202Y-90959696D01*
X169052650Y-90910761D01*
X168953310Y-90880626D01*
X168875881Y-90873000D01*
X168850000Y-90870451D01*
X168824119Y-90873000D01*
X166248762Y-90873000D01*
X166256748Y-90853720D01*
X166261826Y-90828191D01*
X166269374Y-90803309D01*
X166271923Y-90777430D01*
X166277000Y-90751905D01*
X166277000Y-90725881D01*
X166279549Y-90700000D01*
X166277000Y-90674119D01*
X166277000Y-90648095D01*
X166271923Y-90622571D01*
X166269374Y-90596690D01*
X166261825Y-90571807D01*
X166256748Y-90546280D01*
X166246787Y-90522231D01*
X166239239Y-90497351D01*
X166226981Y-90474418D01*
X166217021Y-90450372D01*
X166202564Y-90428735D01*
X166190304Y-90405798D01*
X166173807Y-90385697D01*
X166159348Y-90364057D01*
X166085943Y-90290652D01*
X166085940Y-90290650D01*
X165190955Y-89395666D01*
X165174448Y-89375552D01*
X165094202Y-89309696D01*
X165002650Y-89260761D01*
X164903310Y-89230626D01*
X164825881Y-89223000D01*
X164800000Y-89220451D01*
X164774119Y-89223000D01*
X159000107Y-89223000D01*
X160398107Y-87825000D01*
X181281418Y-87825000D01*
X181281418Y-94175000D01*
X181287732Y-94239103D01*
X181306430Y-94300743D01*
X181336794Y-94357550D01*
X181377657Y-94407343D01*
X181427450Y-94448206D01*
X181484257Y-94478570D01*
X181545897Y-94497268D01*
X181610000Y-94503582D01*
X188950000Y-94503582D01*
X189014103Y-94497268D01*
X189075743Y-94478570D01*
X189132550Y-94448206D01*
X189182343Y-94407343D01*
X189223206Y-94357550D01*
X189253570Y-94300743D01*
X189272268Y-94239103D01*
X189278582Y-94175000D01*
X189278582Y-87825000D01*
X189272268Y-87760897D01*
X189253570Y-87699257D01*
X189223206Y-87642450D01*
X189182343Y-87592657D01*
X189132550Y-87551794D01*
X189075743Y-87521430D01*
X189014103Y-87502732D01*
X188950000Y-87496418D01*
X181610000Y-87496418D01*
X181545897Y-87502732D01*
X181484257Y-87521430D01*
X181427450Y-87551794D01*
X181377657Y-87592657D01*
X181336794Y-87642450D01*
X181306430Y-87699257D01*
X181287732Y-87760897D01*
X181281418Y-87825000D01*
X160398107Y-87825000D01*
X161423107Y-86800000D01*
X163720451Y-86800000D01*
X163723000Y-86825881D01*
X163723000Y-86851905D01*
X163728077Y-86877430D01*
X163730626Y-86903309D01*
X163738174Y-86928191D01*
X163743252Y-86953720D01*
X163753214Y-86977769D01*
X163760761Y-87002649D01*
X163773018Y-87025581D01*
X163782979Y-87049628D01*
X163797438Y-87071268D01*
X163809696Y-87094201D01*
X163826190Y-87114299D01*
X163840652Y-87135943D01*
X163859062Y-87154353D01*
X163875553Y-87174447D01*
X163895647Y-87190938D01*
X163914057Y-87209348D01*
X163935701Y-87223810D01*
X163955799Y-87240304D01*
X163978732Y-87252562D01*
X164000372Y-87267021D01*
X164024419Y-87276982D01*
X164047351Y-87289239D01*
X164072231Y-87296786D01*
X164096280Y-87306748D01*
X164121809Y-87311826D01*
X164146691Y-87319374D01*
X164172570Y-87321923D01*
X164198095Y-87327000D01*
X164224119Y-87327000D01*
X164250000Y-87329549D01*
X164275881Y-87327000D01*
X164301905Y-87327000D01*
X164327430Y-87321923D01*
X164353309Y-87319374D01*
X164378191Y-87311826D01*
X164403720Y-87306748D01*
X164427769Y-87296786D01*
X164452649Y-87289239D01*
X164475581Y-87276982D01*
X164499628Y-87267021D01*
X164521268Y-87252562D01*
X164544201Y-87240304D01*
X164544647Y-87239938D01*
X164559062Y-87254353D01*
X164575553Y-87274447D01*
X164595647Y-87290938D01*
X164614057Y-87309348D01*
X164635701Y-87323810D01*
X164655799Y-87340304D01*
X164678732Y-87352562D01*
X164700372Y-87367021D01*
X164724419Y-87376982D01*
X164747351Y-87389239D01*
X164772231Y-87396786D01*
X164796280Y-87406748D01*
X164821809Y-87411826D01*
X164846691Y-87419374D01*
X164872570Y-87421923D01*
X164898095Y-87427000D01*
X164924119Y-87427000D01*
X164950000Y-87429549D01*
X164975881Y-87427000D01*
X165001905Y-87427000D01*
X165027430Y-87421923D01*
X165053309Y-87419374D01*
X165078191Y-87411826D01*
X165103720Y-87406748D01*
X165127769Y-87396786D01*
X165152649Y-87389239D01*
X165175581Y-87376982D01*
X165199628Y-87367021D01*
X165221268Y-87352562D01*
X165244201Y-87340304D01*
X165264298Y-87323811D01*
X165285943Y-87309348D01*
X165359348Y-87235943D01*
X165359352Y-87235937D01*
X165747036Y-86848253D01*
X165776813Y-86892818D01*
X165857182Y-86973187D01*
X165951686Y-87036333D01*
X166056693Y-87079828D01*
X166168168Y-87102002D01*
X166281828Y-87102002D01*
X166393303Y-87079828D01*
X166498310Y-87036333D01*
X166592814Y-86973187D01*
X166673183Y-86892818D01*
X166736329Y-86798314D01*
X166764156Y-86731133D01*
X166768289Y-86727000D01*
X168627196Y-86727000D01*
X168623000Y-86748095D01*
X168623000Y-86774119D01*
X168620451Y-86800000D01*
X168623000Y-86825881D01*
X168623000Y-86851905D01*
X168628077Y-86877429D01*
X168630626Y-86903310D01*
X168638175Y-86928194D01*
X168643252Y-86953720D01*
X168653213Y-86977766D01*
X168660761Y-87002650D01*
X168673020Y-87025585D01*
X168682979Y-87049628D01*
X168697436Y-87071264D01*
X168709696Y-87094202D01*
X168726195Y-87114306D01*
X168740652Y-87135943D01*
X168759054Y-87154345D01*
X168775552Y-87174448D01*
X168795654Y-87190945D01*
X168814057Y-87209348D01*
X168835694Y-87223805D01*
X168855798Y-87240304D01*
X168878736Y-87252564D01*
X168900372Y-87267021D01*
X168924415Y-87276980D01*
X168947350Y-87289239D01*
X168972234Y-87296787D01*
X168996280Y-87306748D01*
X169021806Y-87311825D01*
X169046690Y-87319374D01*
X169072571Y-87321923D01*
X169098095Y-87327000D01*
X178324119Y-87327000D01*
X178350000Y-87329549D01*
X178375881Y-87327000D01*
X178453310Y-87319374D01*
X178552650Y-87289239D01*
X178644202Y-87240304D01*
X178724448Y-87174448D01*
X178740955Y-87154334D01*
X182340946Y-83554345D01*
X182359348Y-83535943D01*
X182373805Y-83514306D01*
X182390304Y-83494202D01*
X182402564Y-83471265D01*
X182417021Y-83449628D01*
X182426981Y-83425582D01*
X182439239Y-83402649D01*
X182446787Y-83377769D01*
X182456748Y-83353720D01*
X182461825Y-83328193D01*
X182469374Y-83303310D01*
X182471923Y-83277429D01*
X182477000Y-83251905D01*
X182477000Y-83225881D01*
X182479549Y-83200000D01*
X182477000Y-83174119D01*
X182477000Y-83148095D01*
X182471923Y-83122570D01*
X182469374Y-83096691D01*
X182461826Y-83071809D01*
X182456748Y-83046280D01*
X182446786Y-83022231D01*
X182439239Y-82997351D01*
X182426982Y-82974419D01*
X182417021Y-82950372D01*
X182402562Y-82928732D01*
X182390304Y-82905799D01*
X182373810Y-82885701D01*
X182359348Y-82864057D01*
X182340938Y-82845647D01*
X182324447Y-82825553D01*
X182304353Y-82809062D01*
X182285943Y-82790652D01*
X182264299Y-82776190D01*
X182244201Y-82759696D01*
X182221268Y-82747438D01*
X182199628Y-82732979D01*
X182175581Y-82723018D01*
X182152649Y-82710761D01*
X182127769Y-82703214D01*
X182103720Y-82693252D01*
X182078191Y-82688174D01*
X182053309Y-82680626D01*
X182027430Y-82678077D01*
X182001905Y-82673000D01*
X181975881Y-82673000D01*
X181950000Y-82670451D01*
X181924119Y-82673000D01*
X181898095Y-82673000D01*
X181872571Y-82678077D01*
X181846690Y-82680626D01*
X181821807Y-82688175D01*
X181796280Y-82693252D01*
X181772231Y-82703213D01*
X181747351Y-82710761D01*
X181724418Y-82723019D01*
X181700372Y-82732979D01*
X181678735Y-82747436D01*
X181655798Y-82759696D01*
X181635694Y-82776195D01*
X181614057Y-82790652D01*
X181595655Y-82809054D01*
X178131711Y-86273000D01*
X173972802Y-86273000D01*
X173976998Y-86251905D01*
X173976998Y-86225881D01*
X173979547Y-86200000D01*
X173976998Y-86174119D01*
X173976998Y-86148095D01*
X173971921Y-86122571D01*
X173969372Y-86096690D01*
X173961823Y-86071806D01*
X173956746Y-86046280D01*
X173946785Y-86022234D01*
X173939237Y-85997350D01*
X173926978Y-85974415D01*
X173917019Y-85950372D01*
X173902562Y-85928736D01*
X173890302Y-85905798D01*
X173873803Y-85885694D01*
X173859346Y-85864057D01*
X173840944Y-85845655D01*
X173824446Y-85825552D01*
X173804343Y-85809054D01*
X173785941Y-85790652D01*
X173764304Y-85776195D01*
X173744200Y-85759696D01*
X173721262Y-85747436D01*
X173699626Y-85732979D01*
X173675583Y-85723020D01*
X173652648Y-85710761D01*
X173627764Y-85703213D01*
X173603718Y-85693252D01*
X173578192Y-85688175D01*
X173553308Y-85680626D01*
X173527427Y-85678077D01*
X173501903Y-85673000D01*
X166922289Y-85673000D01*
X173268291Y-79327000D01*
X175164119Y-79327000D01*
X175190000Y-79329549D01*
X175215881Y-79327000D01*
X175293310Y-79319374D01*
X175392650Y-79289239D01*
X175484202Y-79240304D01*
X175564448Y-79174448D01*
X175580955Y-79154334D01*
X177366163Y-77369128D01*
X177396682Y-77381769D01*
X177624076Y-77427000D01*
X177855924Y-77427000D01*
X178083318Y-77381769D01*
X178297519Y-77293044D01*
X178490294Y-77164236D01*
X178654236Y-77000294D01*
X178783044Y-76807519D01*
X178871769Y-76593318D01*
X178917000Y-76365924D01*
X178917000Y-76134076D01*
X179103000Y-76134076D01*
X179103000Y-76365924D01*
X179148231Y-76593318D01*
X179236956Y-76807519D01*
X179365764Y-77000294D01*
X179529706Y-77164236D01*
X179722481Y-77293044D01*
X179936682Y-77381769D01*
X180164076Y-77427000D01*
X180395924Y-77427000D01*
X180623318Y-77381769D01*
X180837519Y-77293044D01*
X181030294Y-77164236D01*
X181194236Y-77000294D01*
X181323044Y-76807519D01*
X181391264Y-76642821D01*
X181475843Y-76881252D01*
X181624822Y-77131355D01*
X181819731Y-77347588D01*
X182053080Y-77521641D01*
X182315901Y-77646825D01*
X182463110Y-77691476D01*
X182693000Y-77570155D01*
X182693000Y-76377000D01*
X182947000Y-76377000D01*
X182947000Y-77570155D01*
X183176890Y-77691476D01*
X183324099Y-77646825D01*
X183586920Y-77521641D01*
X183820269Y-77347588D01*
X184015178Y-77131355D01*
X184164157Y-76881252D01*
X184261481Y-76606891D01*
X184140814Y-76377000D01*
X182947000Y-76377000D01*
X182693000Y-76377000D01*
X182673000Y-76377000D01*
X182673000Y-76123000D01*
X182693000Y-76123000D01*
X182693000Y-74929845D01*
X182947000Y-74929845D01*
X182947000Y-76123000D01*
X184140814Y-76123000D01*
X184261481Y-75893109D01*
X184164157Y-75618748D01*
X184015178Y-75368645D01*
X183820269Y-75152412D01*
X183586920Y-74978359D01*
X183324099Y-74853175D01*
X183176890Y-74808524D01*
X182947000Y-74929845D01*
X182693000Y-74929845D01*
X182463110Y-74808524D01*
X182315901Y-74853175D01*
X182053080Y-74978359D01*
X181819731Y-75152412D01*
X181624822Y-75368645D01*
X181475843Y-75618748D01*
X181391264Y-75857179D01*
X181323044Y-75692481D01*
X181194236Y-75499706D01*
X181030294Y-75335764D01*
X180837519Y-75206956D01*
X180623318Y-75118231D01*
X180395924Y-75073000D01*
X180164076Y-75073000D01*
X179936682Y-75118231D01*
X179722481Y-75206956D01*
X179529706Y-75335764D01*
X179365764Y-75499706D01*
X179236956Y-75692481D01*
X179148231Y-75906682D01*
X179103000Y-76134076D01*
X178917000Y-76134076D01*
X178871769Y-75906682D01*
X178783044Y-75692481D01*
X178654236Y-75499706D01*
X178490294Y-75335764D01*
X178297519Y-75206956D01*
X178083318Y-75118231D01*
X177855924Y-75073000D01*
X177624076Y-75073000D01*
X177396682Y-75118231D01*
X177182481Y-75206956D01*
X176989706Y-75335764D01*
X176825764Y-75499706D01*
X176696956Y-75692481D01*
X176608231Y-75906682D01*
X176563000Y-76134076D01*
X176563000Y-76365924D01*
X176608231Y-76593318D01*
X176620872Y-76623837D01*
X176378582Y-76866128D01*
X176378582Y-75400000D01*
X176372268Y-75335897D01*
X176353570Y-75274257D01*
X176323206Y-75217450D01*
X176282343Y-75167657D01*
X176232550Y-75126794D01*
X176175743Y-75096430D01*
X176114103Y-75077732D01*
X176050000Y-75071418D01*
X174350000Y-75071418D01*
X174285897Y-75077732D01*
X174224257Y-75096430D01*
X174167450Y-75126794D01*
X174117657Y-75167657D01*
X174076794Y-75217450D01*
X174046430Y-75274257D01*
X174027732Y-75335897D01*
X174021418Y-75400000D01*
X174021418Y-76283292D01*
X163914063Y-86390648D01*
X163914057Y-86390652D01*
X163840652Y-86464057D01*
X163826189Y-86485702D01*
X163809696Y-86505799D01*
X163797438Y-86528732D01*
X163782979Y-86550372D01*
X163773018Y-86574419D01*
X163760761Y-86597351D01*
X163753214Y-86622231D01*
X163743252Y-86646280D01*
X163738174Y-86671809D01*
X163730626Y-86696691D01*
X163728077Y-86722570D01*
X163723000Y-86748095D01*
X163723000Y-86774119D01*
X163720451Y-86800000D01*
X161423107Y-86800000D01*
X162498966Y-85724142D01*
X162599825Y-85601245D01*
X162699832Y-85414145D01*
X162761416Y-85211130D01*
X162782211Y-85000001D01*
X162761416Y-84788871D01*
X162699832Y-84585856D01*
X162599825Y-84398756D01*
X162465238Y-84234762D01*
X162301244Y-84100175D01*
X162114144Y-84000168D01*
X161911129Y-83938584D01*
X161699999Y-83917789D01*
X161488870Y-83938584D01*
X161285855Y-84000168D01*
X161098755Y-84100175D01*
X160975858Y-84201034D01*
X156225866Y-88951027D01*
X156184761Y-88984761D01*
X156050174Y-89148756D01*
X155950167Y-89335857D01*
X155888583Y-89538872D01*
X155877964Y-89646690D01*
X155867789Y-89750000D01*
X154677000Y-89750000D01*
X154677000Y-74977000D01*
X158235708Y-74977000D01*
X158342517Y-74966480D01*
X158479557Y-74924910D01*
X158605853Y-74857403D01*
X158716554Y-74766554D01*
X158807403Y-74655853D01*
X158874910Y-74529557D01*
X158916480Y-74392517D01*
X158930517Y-74250000D01*
X158916480Y-74107483D01*
X158874910Y-73970443D01*
X158824963Y-73877000D01*
X184436016Y-73877000D01*
X185428786Y-73950776D01*
G37*
X185428786Y-73950776D02*
X186386074Y-74167388D01*
X187300826Y-74523115D01*
X188152954Y-75010147D01*
X188923731Y-75617778D01*
X189596230Y-76332665D01*
X190155673Y-77139098D01*
X190589775Y-78019369D01*
X190888994Y-78954130D01*
X191047692Y-79928572D01*
X191073000Y-80508222D01*
X191073001Y-101486002D01*
X190999224Y-102478786D01*
X190782612Y-103436074D01*
X190426884Y-104350829D01*
X189939853Y-105202954D01*
X189332222Y-105973731D01*
X188617335Y-106646230D01*
X187810898Y-107205675D01*
X186930629Y-107639775D01*
X185995870Y-107938994D01*
X185021429Y-108097692D01*
X184441778Y-108123000D01*
X154677000Y-108123000D01*
X154677000Y-98797896D01*
X171498000Y-98797896D01*
X171498000Y-99202104D01*
X171576857Y-99598546D01*
X171731541Y-99971987D01*
X171956107Y-100308074D01*
X172241926Y-100593893D01*
X172578013Y-100818459D01*
X172951454Y-100973143D01*
X173347896Y-101052000D01*
X173752104Y-101052000D01*
X174148546Y-100973143D01*
X174521987Y-100818459D01*
X174858074Y-100593893D01*
X175143893Y-100308074D01*
X175368459Y-99971987D01*
X175523143Y-99598546D01*
X175602000Y-99202104D01*
X175602000Y-98797896D01*
X175523143Y-98401454D01*
X175368459Y-98028013D01*
X175143893Y-97691926D01*
X174858074Y-97406107D01*
X174521987Y-97181541D01*
X174148546Y-97026857D01*
X173752104Y-96948000D01*
X173347896Y-96948000D01*
X172951454Y-97026857D01*
X172578013Y-97181541D01*
X172241926Y-97406107D01*
X171956107Y-97691926D01*
X171731541Y-98028013D01*
X171576857Y-98401454D01*
X171498000Y-98797896D01*
X154677000Y-98797896D01*
X154677000Y-89750000D01*
X155867789Y-89750000D01*
X155873000Y-89802907D01*
X155873000Y-90552909D01*
X155888583Y-90711129D01*
X155950168Y-90914144D01*
X156050175Y-91101244D01*
X156184762Y-91265239D01*
X156348757Y-91399826D01*
X156535857Y-91499833D01*
X156738872Y-91561417D01*
X156950000Y-91582211D01*
X157161129Y-91561417D01*
X157364144Y-91499833D01*
X157551244Y-91399826D01*
X157715239Y-91265239D01*
X157849826Y-91101244D01*
X157949833Y-90914144D01*
X158011417Y-90711128D01*
X158027000Y-90552908D01*
X158027000Y-90196107D01*
X158193126Y-90029982D01*
X158251815Y-90117816D01*
X158332184Y-90198185D01*
X158426688Y-90261331D01*
X158531695Y-90304826D01*
X158643170Y-90327000D01*
X158756830Y-90327000D01*
X158868305Y-90304826D01*
X158935483Y-90277000D01*
X164581711Y-90277000D01*
X165340650Y-91035940D01*
X165340652Y-91035943D01*
X165414057Y-91109348D01*
X165435697Y-91123807D01*
X165455798Y-91140304D01*
X165478735Y-91152564D01*
X165500372Y-91167021D01*
X165524418Y-91176981D01*
X165547351Y-91189239D01*
X165572231Y-91196787D01*
X165596280Y-91206748D01*
X165621807Y-91211825D01*
X165646690Y-91219374D01*
X165653867Y-91220081D01*
X165653214Y-91222235D01*
X165643252Y-91246284D01*
X165638174Y-91271813D01*
X165630626Y-91296695D01*
X165628077Y-91322574D01*
X165623000Y-91348099D01*
X165623000Y-91374123D01*
X165620451Y-91400004D01*
X165623000Y-91425885D01*
X165623000Y-91451909D01*
X165628077Y-91477434D01*
X165630626Y-91503313D01*
X165638174Y-91528195D01*
X165643252Y-91553724D01*
X165653214Y-91577773D01*
X165660761Y-91602653D01*
X165673018Y-91625585D01*
X165682979Y-91649632D01*
X165697438Y-91671272D01*
X165709696Y-91694205D01*
X165726190Y-91714303D01*
X165740652Y-91735947D01*
X165759062Y-91754357D01*
X165775553Y-91774451D01*
X165795647Y-91790942D01*
X165814057Y-91809352D01*
X165835701Y-91823814D01*
X165855799Y-91840308D01*
X165878732Y-91852566D01*
X165900372Y-91867025D01*
X165924419Y-91876986D01*
X165947351Y-91889243D01*
X165972231Y-91896790D01*
X165996280Y-91906752D01*
X166021809Y-91911830D01*
X166046691Y-91919378D01*
X166072570Y-91921927D01*
X166098095Y-91927004D01*
X166124119Y-91927004D01*
X166150000Y-91929553D01*
X166175881Y-91927004D01*
X166201905Y-91927004D01*
X166201925Y-91927000D01*
X168631711Y-91927000D01*
X169740652Y-93035943D01*
X169777709Y-93073000D01*
X166117766Y-93073000D01*
X165468854Y-92424089D01*
X165441027Y-92356909D01*
X165377881Y-92262405D01*
X165297512Y-92182036D01*
X165203008Y-92118890D01*
X165098001Y-92075395D01*
X164986526Y-92053221D01*
X164872866Y-92053221D01*
X164761391Y-92075395D01*
X164656384Y-92118890D01*
X164561880Y-92182036D01*
X164481511Y-92262405D01*
X164418365Y-92356909D01*
X164374870Y-92461916D01*
X164352696Y-92573391D01*
X164352696Y-92687051D01*
X164374870Y-92798526D01*
X164418365Y-92903533D01*
X164481511Y-92998037D01*
X164561880Y-93078406D01*
X164656384Y-93141552D01*
X164723564Y-93169379D01*
X165508528Y-93954344D01*
X165525027Y-93974448D01*
X165605273Y-94040304D01*
X165696825Y-94089239D01*
X165796165Y-94119374D01*
X165899475Y-94129549D01*
X165925356Y-94127000D01*
X176610141Y-94127000D01*
X176653004Y-94155640D01*
X176767111Y-94202905D01*
X176888246Y-94227000D01*
X177011754Y-94227000D01*
X177132889Y-94202905D01*
X177246996Y-94155640D01*
X177349689Y-94087023D01*
X177437023Y-93999689D01*
X177505640Y-93896996D01*
X177552905Y-93782889D01*
X177577000Y-93661754D01*
X177577000Y-93538246D01*
X177552905Y-93417111D01*
X177505640Y-93303004D01*
X177437023Y-93200311D01*
X177349689Y-93112977D01*
X177246996Y-93044360D01*
X177132889Y-92997095D01*
X177011754Y-92973000D01*
X176888246Y-92973000D01*
X176767111Y-92997095D01*
X176653004Y-93044360D01*
X176610141Y-93073000D01*
X170525635Y-93073000D01*
X170540938Y-93054353D01*
X170559348Y-93035943D01*
X170573810Y-93014299D01*
X170590304Y-92994201D01*
X170602562Y-92971268D01*
X170617021Y-92949628D01*
X170626982Y-92925581D01*
X170639239Y-92902649D01*
X170646786Y-92877769D01*
X170656748Y-92853720D01*
X170661826Y-92828191D01*
X170669374Y-92803309D01*
X170671923Y-92777430D01*
X170677000Y-92751905D01*
X170677000Y-92725881D01*
X170679549Y-92700000D01*
X170677000Y-92674119D01*
X170677000Y-92648095D01*
X170671923Y-92622571D01*
X170669374Y-92596690D01*
X170661825Y-92571807D01*
X170656748Y-92546280D01*
X170646787Y-92522231D01*
X170639239Y-92497351D01*
X170626981Y-92474418D01*
X170617021Y-92450372D01*
X170602564Y-92428735D01*
X170590304Y-92405798D01*
X170573805Y-92385694D01*
X170559348Y-92364057D01*
X170485943Y-92290652D01*
X169240955Y-91045666D01*
X169224448Y-91025552D01*
X169144202Y-90959696D01*
X169052650Y-90910761D01*
X168953310Y-90880626D01*
X168875881Y-90873000D01*
X168850000Y-90870451D01*
X168824119Y-90873000D01*
X166248762Y-90873000D01*
X166256748Y-90853720D01*
X166261826Y-90828191D01*
X166269374Y-90803309D01*
X166271923Y-90777430D01*
X166277000Y-90751905D01*
X166277000Y-90725881D01*
X166279549Y-90700000D01*
X166277000Y-90674119D01*
X166277000Y-90648095D01*
X166271923Y-90622571D01*
X166269374Y-90596690D01*
X166261825Y-90571807D01*
X166256748Y-90546280D01*
X166246787Y-90522231D01*
X166239239Y-90497351D01*
X166226981Y-90474418D01*
X166217021Y-90450372D01*
X166202564Y-90428735D01*
X166190304Y-90405798D01*
X166173807Y-90385697D01*
X166159348Y-90364057D01*
X166085943Y-90290652D01*
X166085940Y-90290650D01*
X165190955Y-89395666D01*
X165174448Y-89375552D01*
X165094202Y-89309696D01*
X165002650Y-89260761D01*
X164903310Y-89230626D01*
X164825881Y-89223000D01*
X164800000Y-89220451D01*
X164774119Y-89223000D01*
X159000107Y-89223000D01*
X160398107Y-87825000D01*
X181281418Y-87825000D01*
X181281418Y-94175000D01*
X181287732Y-94239103D01*
X181306430Y-94300743D01*
X181336794Y-94357550D01*
X181377657Y-94407343D01*
X181427450Y-94448206D01*
X181484257Y-94478570D01*
X181545897Y-94497268D01*
X181610000Y-94503582D01*
X188950000Y-94503582D01*
X189014103Y-94497268D01*
X189075743Y-94478570D01*
X189132550Y-94448206D01*
X189182343Y-94407343D01*
X189223206Y-94357550D01*
X189253570Y-94300743D01*
X189272268Y-94239103D01*
X189278582Y-94175000D01*
X189278582Y-87825000D01*
X189272268Y-87760897D01*
X189253570Y-87699257D01*
X189223206Y-87642450D01*
X189182343Y-87592657D01*
X189132550Y-87551794D01*
X189075743Y-87521430D01*
X189014103Y-87502732D01*
X188950000Y-87496418D01*
X181610000Y-87496418D01*
X181545897Y-87502732D01*
X181484257Y-87521430D01*
X181427450Y-87551794D01*
X181377657Y-87592657D01*
X181336794Y-87642450D01*
X181306430Y-87699257D01*
X181287732Y-87760897D01*
X181281418Y-87825000D01*
X160398107Y-87825000D01*
X161423107Y-86800000D01*
X163720451Y-86800000D01*
X163723000Y-86825881D01*
X163723000Y-86851905D01*
X163728077Y-86877430D01*
X163730626Y-86903309D01*
X163738174Y-86928191D01*
X163743252Y-86953720D01*
X163753214Y-86977769D01*
X163760761Y-87002649D01*
X163773018Y-87025581D01*
X163782979Y-87049628D01*
X163797438Y-87071268D01*
X163809696Y-87094201D01*
X163826190Y-87114299D01*
X163840652Y-87135943D01*
X163859062Y-87154353D01*
X163875553Y-87174447D01*
X163895647Y-87190938D01*
X163914057Y-87209348D01*
X163935701Y-87223810D01*
X163955799Y-87240304D01*
X163978732Y-87252562D01*
X164000372Y-87267021D01*
X164024419Y-87276982D01*
X164047351Y-87289239D01*
X164072231Y-87296786D01*
X164096280Y-87306748D01*
X164121809Y-87311826D01*
X164146691Y-87319374D01*
X164172570Y-87321923D01*
X164198095Y-87327000D01*
X164224119Y-87327000D01*
X164250000Y-87329549D01*
X164275881Y-87327000D01*
X164301905Y-87327000D01*
X164327430Y-87321923D01*
X164353309Y-87319374D01*
X164378191Y-87311826D01*
X164403720Y-87306748D01*
X164427769Y-87296786D01*
X164452649Y-87289239D01*
X164475581Y-87276982D01*
X164499628Y-87267021D01*
X164521268Y-87252562D01*
X164544201Y-87240304D01*
X164544647Y-87239938D01*
X164559062Y-87254353D01*
X164575553Y-87274447D01*
X164595647Y-87290938D01*
X164614057Y-87309348D01*
X164635701Y-87323810D01*
X164655799Y-87340304D01*
X164678732Y-87352562D01*
X164700372Y-87367021D01*
X164724419Y-87376982D01*
X164747351Y-87389239D01*
X164772231Y-87396786D01*
X164796280Y-87406748D01*
X164821809Y-87411826D01*
X164846691Y-87419374D01*
X164872570Y-87421923D01*
X164898095Y-87427000D01*
X164924119Y-87427000D01*
X164950000Y-87429549D01*
X164975881Y-87427000D01*
X165001905Y-87427000D01*
X165027430Y-87421923D01*
X165053309Y-87419374D01*
X165078191Y-87411826D01*
X165103720Y-87406748D01*
X165127769Y-87396786D01*
X165152649Y-87389239D01*
X165175581Y-87376982D01*
X165199628Y-87367021D01*
X165221268Y-87352562D01*
X165244201Y-87340304D01*
X165264298Y-87323811D01*
X165285943Y-87309348D01*
X165359348Y-87235943D01*
X165359352Y-87235937D01*
X165747036Y-86848253D01*
X165776813Y-86892818D01*
X165857182Y-86973187D01*
X165951686Y-87036333D01*
X166056693Y-87079828D01*
X166168168Y-87102002D01*
X166281828Y-87102002D01*
X166393303Y-87079828D01*
X166498310Y-87036333D01*
X166592814Y-86973187D01*
X166673183Y-86892818D01*
X166736329Y-86798314D01*
X166764156Y-86731133D01*
X166768289Y-86727000D01*
X168627196Y-86727000D01*
X168623000Y-86748095D01*
X168623000Y-86774119D01*
X168620451Y-86800000D01*
X168623000Y-86825881D01*
X168623000Y-86851905D01*
X168628077Y-86877429D01*
X168630626Y-86903310D01*
X168638175Y-86928194D01*
X168643252Y-86953720D01*
X168653213Y-86977766D01*
X168660761Y-87002650D01*
X168673020Y-87025585D01*
X168682979Y-87049628D01*
X168697436Y-87071264D01*
X168709696Y-87094202D01*
X168726195Y-87114306D01*
X168740652Y-87135943D01*
X168759054Y-87154345D01*
X168775552Y-87174448D01*
X168795654Y-87190945D01*
X168814057Y-87209348D01*
X168835694Y-87223805D01*
X168855798Y-87240304D01*
X168878736Y-87252564D01*
X168900372Y-87267021D01*
X168924415Y-87276980D01*
X168947350Y-87289239D01*
X168972234Y-87296787D01*
X168996280Y-87306748D01*
X169021806Y-87311825D01*
X169046690Y-87319374D01*
X169072571Y-87321923D01*
X169098095Y-87327000D01*
X178324119Y-87327000D01*
X178350000Y-87329549D01*
X178375881Y-87327000D01*
X178453310Y-87319374D01*
X178552650Y-87289239D01*
X178644202Y-87240304D01*
X178724448Y-87174448D01*
X178740955Y-87154334D01*
X182340946Y-83554345D01*
X182359348Y-83535943D01*
X182373805Y-83514306D01*
X182390304Y-83494202D01*
X182402564Y-83471265D01*
X182417021Y-83449628D01*
X182426981Y-83425582D01*
X182439239Y-83402649D01*
X182446787Y-83377769D01*
X182456748Y-83353720D01*
X182461825Y-83328193D01*
X182469374Y-83303310D01*
X182471923Y-83277429D01*
X182477000Y-83251905D01*
X182477000Y-83225881D01*
X182479549Y-83200000D01*
X182477000Y-83174119D01*
X182477000Y-83148095D01*
X182471923Y-83122570D01*
X182469374Y-83096691D01*
X182461826Y-83071809D01*
X182456748Y-83046280D01*
X182446786Y-83022231D01*
X182439239Y-82997351D01*
X182426982Y-82974419D01*
X182417021Y-82950372D01*
X182402562Y-82928732D01*
X182390304Y-82905799D01*
X182373810Y-82885701D01*
X182359348Y-82864057D01*
X182340938Y-82845647D01*
X182324447Y-82825553D01*
X182304353Y-82809062D01*
X182285943Y-82790652D01*
X182264299Y-82776190D01*
X182244201Y-82759696D01*
X182221268Y-82747438D01*
X182199628Y-82732979D01*
X182175581Y-82723018D01*
X182152649Y-82710761D01*
X182127769Y-82703214D01*
X182103720Y-82693252D01*
X182078191Y-82688174D01*
X182053309Y-82680626D01*
X182027430Y-82678077D01*
X182001905Y-82673000D01*
X181975881Y-82673000D01*
X181950000Y-82670451D01*
X181924119Y-82673000D01*
X181898095Y-82673000D01*
X181872571Y-82678077D01*
X181846690Y-82680626D01*
X181821807Y-82688175D01*
X181796280Y-82693252D01*
X181772231Y-82703213D01*
X181747351Y-82710761D01*
X181724418Y-82723019D01*
X181700372Y-82732979D01*
X181678735Y-82747436D01*
X181655798Y-82759696D01*
X181635694Y-82776195D01*
X181614057Y-82790652D01*
X181595655Y-82809054D01*
X178131711Y-86273000D01*
X173972802Y-86273000D01*
X173976998Y-86251905D01*
X173976998Y-86225881D01*
X173979547Y-86200000D01*
X173976998Y-86174119D01*
X173976998Y-86148095D01*
X173971921Y-86122571D01*
X173969372Y-86096690D01*
X173961823Y-86071806D01*
X173956746Y-86046280D01*
X173946785Y-86022234D01*
X173939237Y-85997350D01*
X173926978Y-85974415D01*
X173917019Y-85950372D01*
X173902562Y-85928736D01*
X173890302Y-85905798D01*
X173873803Y-85885694D01*
X173859346Y-85864057D01*
X173840944Y-85845655D01*
X173824446Y-85825552D01*
X173804343Y-85809054D01*
X173785941Y-85790652D01*
X173764304Y-85776195D01*
X173744200Y-85759696D01*
X173721262Y-85747436D01*
X173699626Y-85732979D01*
X173675583Y-85723020D01*
X173652648Y-85710761D01*
X173627764Y-85703213D01*
X173603718Y-85693252D01*
X173578192Y-85688175D01*
X173553308Y-85680626D01*
X173527427Y-85678077D01*
X173501903Y-85673000D01*
X166922289Y-85673000D01*
X173268291Y-79327000D01*
X175164119Y-79327000D01*
X175190000Y-79329549D01*
X175215881Y-79327000D01*
X175293310Y-79319374D01*
X175392650Y-79289239D01*
X175484202Y-79240304D01*
X175564448Y-79174448D01*
X175580955Y-79154334D01*
X177366163Y-77369128D01*
X177396682Y-77381769D01*
X177624076Y-77427000D01*
X177855924Y-77427000D01*
X178083318Y-77381769D01*
X178297519Y-77293044D01*
X178490294Y-77164236D01*
X178654236Y-77000294D01*
X178783044Y-76807519D01*
X178871769Y-76593318D01*
X178917000Y-76365924D01*
X178917000Y-76134076D01*
X179103000Y-76134076D01*
X179103000Y-76365924D01*
X179148231Y-76593318D01*
X179236956Y-76807519D01*
X179365764Y-77000294D01*
X179529706Y-77164236D01*
X179722481Y-77293044D01*
X179936682Y-77381769D01*
X180164076Y-77427000D01*
X180395924Y-77427000D01*
X180623318Y-77381769D01*
X180837519Y-77293044D01*
X181030294Y-77164236D01*
X181194236Y-77000294D01*
X181323044Y-76807519D01*
X181391264Y-76642821D01*
X181475843Y-76881252D01*
X181624822Y-77131355D01*
X181819731Y-77347588D01*
X182053080Y-77521641D01*
X182315901Y-77646825D01*
X182463110Y-77691476D01*
X182693000Y-77570155D01*
X182693000Y-76377000D01*
X182947000Y-76377000D01*
X182947000Y-77570155D01*
X183176890Y-77691476D01*
X183324099Y-77646825D01*
X183586920Y-77521641D01*
X183820269Y-77347588D01*
X184015178Y-77131355D01*
X184164157Y-76881252D01*
X184261481Y-76606891D01*
X184140814Y-76377000D01*
X182947000Y-76377000D01*
X182693000Y-76377000D01*
X182673000Y-76377000D01*
X182673000Y-76123000D01*
X182693000Y-76123000D01*
X182693000Y-74929845D01*
X182947000Y-74929845D01*
X182947000Y-76123000D01*
X184140814Y-76123000D01*
X184261481Y-75893109D01*
X184164157Y-75618748D01*
X184015178Y-75368645D01*
X183820269Y-75152412D01*
X183586920Y-74978359D01*
X183324099Y-74853175D01*
X183176890Y-74808524D01*
X182947000Y-74929845D01*
X182693000Y-74929845D01*
X182463110Y-74808524D01*
X182315901Y-74853175D01*
X182053080Y-74978359D01*
X181819731Y-75152412D01*
X181624822Y-75368645D01*
X181475843Y-75618748D01*
X181391264Y-75857179D01*
X181323044Y-75692481D01*
X181194236Y-75499706D01*
X181030294Y-75335764D01*
X180837519Y-75206956D01*
X180623318Y-75118231D01*
X180395924Y-75073000D01*
X180164076Y-75073000D01*
X179936682Y-75118231D01*
X179722481Y-75206956D01*
X179529706Y-75335764D01*
X179365764Y-75499706D01*
X179236956Y-75692481D01*
X179148231Y-75906682D01*
X179103000Y-76134076D01*
X178917000Y-76134076D01*
X178871769Y-75906682D01*
X178783044Y-75692481D01*
X178654236Y-75499706D01*
X178490294Y-75335764D01*
X178297519Y-75206956D01*
X178083318Y-75118231D01*
X177855924Y-75073000D01*
X177624076Y-75073000D01*
X177396682Y-75118231D01*
X177182481Y-75206956D01*
X176989706Y-75335764D01*
X176825764Y-75499706D01*
X176696956Y-75692481D01*
X176608231Y-75906682D01*
X176563000Y-76134076D01*
X176563000Y-76365924D01*
X176608231Y-76593318D01*
X176620872Y-76623837D01*
X176378582Y-76866128D01*
X176378582Y-75400000D01*
X176372268Y-75335897D01*
X176353570Y-75274257D01*
X176323206Y-75217450D01*
X176282343Y-75167657D01*
X176232550Y-75126794D01*
X176175743Y-75096430D01*
X176114103Y-75077732D01*
X176050000Y-75071418D01*
X174350000Y-75071418D01*
X174285897Y-75077732D01*
X174224257Y-75096430D01*
X174167450Y-75126794D01*
X174117657Y-75167657D01*
X174076794Y-75217450D01*
X174046430Y-75274257D01*
X174027732Y-75335897D01*
X174021418Y-75400000D01*
X174021418Y-76283292D01*
X163914063Y-86390648D01*
X163914057Y-86390652D01*
X163840652Y-86464057D01*
X163826189Y-86485702D01*
X163809696Y-86505799D01*
X163797438Y-86528732D01*
X163782979Y-86550372D01*
X163773018Y-86574419D01*
X163760761Y-86597351D01*
X163753214Y-86622231D01*
X163743252Y-86646280D01*
X163738174Y-86671809D01*
X163730626Y-86696691D01*
X163728077Y-86722570D01*
X163723000Y-86748095D01*
X163723000Y-86774119D01*
X163720451Y-86800000D01*
X161423107Y-86800000D01*
X162498966Y-85724142D01*
X162599825Y-85601245D01*
X162699832Y-85414145D01*
X162761416Y-85211130D01*
X162782211Y-85000001D01*
X162761416Y-84788871D01*
X162699832Y-84585856D01*
X162599825Y-84398756D01*
X162465238Y-84234762D01*
X162301244Y-84100175D01*
X162114144Y-84000168D01*
X161911129Y-83938584D01*
X161699999Y-83917789D01*
X161488870Y-83938584D01*
X161285855Y-84000168D01*
X161098755Y-84100175D01*
X160975858Y-84201034D01*
X156225866Y-88951027D01*
X156184761Y-88984761D01*
X156050174Y-89148756D01*
X155950167Y-89335857D01*
X155888583Y-89538872D01*
X155877964Y-89646690D01*
X155867789Y-89750000D01*
X154677000Y-89750000D01*
X154677000Y-74977000D01*
X158235708Y-74977000D01*
X158342517Y-74966480D01*
X158479557Y-74924910D01*
X158605853Y-74857403D01*
X158716554Y-74766554D01*
X158807403Y-74655853D01*
X158874910Y-74529557D01*
X158916480Y-74392517D01*
X158930517Y-74250000D01*
X158916480Y-74107483D01*
X158874910Y-73970443D01*
X158824963Y-73877000D01*
X184436016Y-73877000D01*
X185428786Y-73950776D01*
G36*
X133250896Y-79766698D02*
G01*
X131444960Y-77960762D01*
X131419843Y-77930157D01*
X131297723Y-77829935D01*
X131158397Y-77755464D01*
X131007219Y-77709605D01*
X130889394Y-77698000D01*
X130889386Y-77698000D01*
X130850000Y-77694121D01*
X130810614Y-77698000D01*
X128489385Y-77698000D01*
X128449999Y-77694121D01*
X128410613Y-77698000D01*
X128410606Y-77698000D01*
X128307471Y-77708158D01*
X128292780Y-77709605D01*
X128257595Y-77720279D01*
X128141603Y-77755464D01*
X128002277Y-77829935D01*
X127880157Y-77930157D01*
X127855044Y-77960757D01*
X127384286Y-78431516D01*
X127284585Y-78472813D01*
X127140945Y-78568790D01*
X127018790Y-78690945D01*
X126922813Y-78834585D01*
X126856703Y-78994189D01*
X126823000Y-79163623D01*
X126823000Y-79336377D01*
X126856703Y-79505811D01*
X126922813Y-79665415D01*
X127018790Y-79809055D01*
X127140945Y-79931210D01*
X127284585Y-80027187D01*
X127444189Y-80093297D01*
X127613623Y-80127000D01*
X127786377Y-80127000D01*
X127955811Y-80093297D01*
X128115415Y-80027187D01*
X128259055Y-79931210D01*
X128381210Y-79809055D01*
X128477187Y-79665415D01*
X128518484Y-79565714D01*
X128782199Y-79302000D01*
X129345204Y-79302000D01*
X129323000Y-79413623D01*
X129323000Y-79586377D01*
X129356703Y-79755811D01*
X129398000Y-79855511D01*
X129398001Y-81460592D01*
X129394121Y-81499988D01*
X129409605Y-81657207D01*
X129455464Y-81808384D01*
X129455465Y-81808385D01*
X129529936Y-81947711D01*
X129630158Y-82069831D01*
X129660758Y-82094944D01*
X133287886Y-85722073D01*
X133353354Y-96262447D01*
X129610758Y-100005044D01*
X129580158Y-100030157D01*
X129555045Y-100060757D01*
X129479936Y-100152277D01*
X129405464Y-100291604D01*
X129359605Y-100442781D01*
X129344121Y-100600000D01*
X129348001Y-100639396D01*
X129348000Y-102044489D01*
X129306703Y-102144189D01*
X129297968Y-102188101D01*
X128528643Y-102188101D01*
X128527187Y-102184585D01*
X128431210Y-102040945D01*
X128309055Y-101918790D01*
X128165415Y-101822813D01*
X128005811Y-101756703D01*
X127836377Y-101723000D01*
X127663623Y-101723000D01*
X127494189Y-101756703D01*
X127334585Y-101822813D01*
X127190945Y-101918790D01*
X127068790Y-102040945D01*
X126972813Y-102184585D01*
X126906703Y-102344189D01*
X126873000Y-102513623D01*
X126873000Y-102686377D01*
X126906703Y-102855811D01*
X126972813Y-103015415D01*
X127068790Y-103159055D01*
X127190945Y-103281210D01*
X127334585Y-103377187D01*
X127434287Y-103418485D01*
X127545141Y-103529339D01*
X127570258Y-103559944D01*
X127692378Y-103660166D01*
X127831704Y-103734637D01*
X127947696Y-103769822D01*
X127982881Y-103780496D01*
X127997572Y-103781943D01*
X128100707Y-103792101D01*
X128100714Y-103792101D01*
X128140100Y-103795980D01*
X128179486Y-103792101D01*
X131720513Y-103792101D01*
X131759899Y-103795980D01*
X131799285Y-103792101D01*
X131799293Y-103792101D01*
X131917118Y-103780496D01*
X132068296Y-103734637D01*
X132207622Y-103660166D01*
X132329742Y-103559944D01*
X132354859Y-103529339D01*
X133392048Y-102492150D01*
X133425159Y-107823000D01*
X119277000Y-107823000D01*
X119277000Y-104879978D01*
X119497263Y-105100241D01*
X119649795Y-104947709D01*
X119731217Y-105157336D01*
X119995658Y-105227573D01*
X120268720Y-105244870D01*
X120539909Y-105208563D01*
X120708783Y-105157336D01*
X120790206Y-104947708D01*
X120220000Y-104377502D01*
X120205858Y-104391644D01*
X119678356Y-103864142D01*
X119692498Y-103850000D01*
X120747502Y-103850000D01*
X121317708Y-104420206D01*
X121475945Y-104358744D01*
X121536174Y-104504149D01*
X121687307Y-104730336D01*
X121879664Y-104922693D01*
X122105851Y-105073826D01*
X122357177Y-105177929D01*
X122623983Y-105231000D01*
X122896017Y-105231000D01*
X123162823Y-105177929D01*
X123414149Y-105073826D01*
X123640336Y-104922693D01*
X123832693Y-104730336D01*
X123983826Y-104504149D01*
X124087929Y-104252823D01*
X124141000Y-103986017D01*
X124141000Y-103713983D01*
X124087929Y-103447177D01*
X123983826Y-103195851D01*
X123832693Y-102969664D01*
X123640336Y-102777307D01*
X123414149Y-102626174D01*
X123162823Y-102522071D01*
X122896017Y-102469000D01*
X122623983Y-102469000D01*
X122357177Y-102522071D01*
X122105851Y-102626174D01*
X121879664Y-102777307D01*
X121687307Y-102969664D01*
X121536174Y-103195851D01*
X121475945Y-103341256D01*
X121317708Y-103279794D01*
X120747502Y-103850000D01*
X119692498Y-103850000D01*
X119678356Y-103835858D01*
X120205858Y-103308356D01*
X120220000Y-103322498D01*
X120790206Y-102752292D01*
X120708783Y-102542664D01*
X120444342Y-102472427D01*
X120171280Y-102455130D01*
X119900091Y-102491437D01*
X119731217Y-102542664D01*
X119649795Y-102752291D01*
X119497263Y-102599759D01*
X119277000Y-102820022D01*
X119277000Y-96967340D01*
X119276995Y-96966238D01*
X119276694Y-96931561D01*
X119276680Y-96930461D01*
X119215848Y-93422510D01*
X119238320Y-93440952D01*
X119315113Y-93481998D01*
X119381990Y-93517745D01*
X119537880Y-93565034D01*
X119659376Y-93577000D01*
X119659386Y-93577000D01*
X119700000Y-93581000D01*
X119740614Y-93577000D01*
X123274189Y-93577000D01*
X123429604Y-93641376D01*
X123608699Y-93677000D01*
X123791301Y-93677000D01*
X123970396Y-93641376D01*
X124139099Y-93571496D01*
X124290928Y-93470048D01*
X124420048Y-93340928D01*
X124521496Y-93189099D01*
X124591376Y-93020396D01*
X124627000Y-92841301D01*
X124627000Y-92658699D01*
X124591376Y-92479604D01*
X124521496Y-92310901D01*
X124420048Y-92159072D01*
X124337976Y-92077000D01*
X124823001Y-92077000D01*
X124823000Y-99567639D01*
X124842925Y-99769938D01*
X124921663Y-100029504D01*
X125049527Y-100268720D01*
X125221603Y-100478396D01*
X125431279Y-100650473D01*
X125670495Y-100778337D01*
X125930061Y-100857075D01*
X126200000Y-100883662D01*
X126469938Y-100857075D01*
X126729504Y-100778337D01*
X126968720Y-100650473D01*
X127178396Y-100478397D01*
X127350473Y-100268721D01*
X127478337Y-100029505D01*
X127557075Y-99769939D01*
X127577000Y-99567640D01*
X127577000Y-82432360D01*
X127557075Y-82230061D01*
X127478337Y-81970495D01*
X127350473Y-81731279D01*
X127178397Y-81521603D01*
X126968721Y-81349527D01*
X126729505Y-81221663D01*
X126469939Y-81142925D01*
X126200000Y-81116338D01*
X125930062Y-81142925D01*
X125670496Y-81221663D01*
X125431280Y-81349527D01*
X125221604Y-81521603D01*
X125049528Y-81731279D01*
X124921664Y-81970495D01*
X124842926Y-82230061D01*
X124823001Y-82432360D01*
X124823000Y-87153447D01*
X122863505Y-85193952D01*
X122837606Y-85162394D01*
X122711679Y-85059048D01*
X122568010Y-84982255D01*
X122412120Y-84934966D01*
X122290624Y-84923000D01*
X122290614Y-84923000D01*
X122250000Y-84919000D01*
X122209386Y-84923000D01*
X121125811Y-84923000D01*
X120970396Y-84858624D01*
X120791301Y-84823000D01*
X120608699Y-84823000D01*
X120429604Y-84858624D01*
X120260901Y-84928504D01*
X120109072Y-85029952D01*
X119979952Y-85159072D01*
X119878504Y-85310901D01*
X119808624Y-85479604D01*
X119773000Y-85658699D01*
X119773000Y-85841301D01*
X119808624Y-86020396D01*
X119878504Y-86189099D01*
X119979952Y-86340928D01*
X120109072Y-86470048D01*
X120260901Y-86571496D01*
X120429604Y-86641376D01*
X120608699Y-86677000D01*
X120791301Y-86677000D01*
X120970396Y-86641376D01*
X121125811Y-86577000D01*
X121907447Y-86577000D01*
X123814127Y-88483681D01*
X123878504Y-88639099D01*
X123979952Y-88790928D01*
X124109072Y-88920048D01*
X124260901Y-89021496D01*
X124429604Y-89091376D01*
X124608699Y-89127000D01*
X124791301Y-89127000D01*
X124823000Y-89120695D01*
X124823000Y-89923000D01*
X123397091Y-89923000D01*
X123238871Y-89938583D01*
X123035856Y-90000167D01*
X122848756Y-90100174D01*
X122684761Y-90234761D01*
X122550174Y-90398756D01*
X122450167Y-90585856D01*
X122388583Y-90788871D01*
X122367789Y-91000000D01*
X122388583Y-91211129D01*
X122450167Y-91414144D01*
X122550174Y-91601244D01*
X122684761Y-91765239D01*
X122848756Y-91899826D01*
X122892112Y-91923000D01*
X120042554Y-91923000D01*
X119277000Y-91157447D01*
X119277000Y-89925811D01*
X119341376Y-89770396D01*
X119377000Y-89591301D01*
X119377000Y-89408699D01*
X119341376Y-89229604D01*
X119271496Y-89060901D01*
X119170048Y-88909072D01*
X119137008Y-88876032D01*
X119074057Y-85245872D01*
X119464090Y-85084315D01*
X119849312Y-84826917D01*
X120176917Y-84499312D01*
X120434315Y-84114090D01*
X120611614Y-83686053D01*
X120702000Y-83231652D01*
X120702000Y-82768348D01*
X120611614Y-82313947D01*
X120434315Y-81885910D01*
X120176917Y-81500688D01*
X119849312Y-81173083D01*
X119464090Y-80915685D01*
X119036053Y-80738386D01*
X118995754Y-80730370D01*
X118952003Y-78207432D01*
X118970288Y-78229712D01*
X119126669Y-78358050D01*
X119305083Y-78453414D01*
X119498673Y-78512139D01*
X119700000Y-78531968D01*
X119901327Y-78512139D01*
X120094917Y-78453414D01*
X120273331Y-78358050D01*
X120390524Y-78261872D01*
X123375397Y-75277000D01*
X133223010Y-75277000D01*
X133250896Y-79766698D01*
G37*
X133250896Y-79766698D02*
X131444960Y-77960762D01*
X131419843Y-77930157D01*
X131297723Y-77829935D01*
X131158397Y-77755464D01*
X131007219Y-77709605D01*
X130889394Y-77698000D01*
X130889386Y-77698000D01*
X130850000Y-77694121D01*
X130810614Y-77698000D01*
X128489385Y-77698000D01*
X128449999Y-77694121D01*
X128410613Y-77698000D01*
X128410606Y-77698000D01*
X128307471Y-77708158D01*
X128292780Y-77709605D01*
X128257595Y-77720279D01*
X128141603Y-77755464D01*
X128002277Y-77829935D01*
X127880157Y-77930157D01*
X127855044Y-77960757D01*
X127384286Y-78431516D01*
X127284585Y-78472813D01*
X127140945Y-78568790D01*
X127018790Y-78690945D01*
X126922813Y-78834585D01*
X126856703Y-78994189D01*
X126823000Y-79163623D01*
X126823000Y-79336377D01*
X126856703Y-79505811D01*
X126922813Y-79665415D01*
X127018790Y-79809055D01*
X127140945Y-79931210D01*
X127284585Y-80027187D01*
X127444189Y-80093297D01*
X127613623Y-80127000D01*
X127786377Y-80127000D01*
X127955811Y-80093297D01*
X128115415Y-80027187D01*
X128259055Y-79931210D01*
X128381210Y-79809055D01*
X128477187Y-79665415D01*
X128518484Y-79565714D01*
X128782199Y-79302000D01*
X129345204Y-79302000D01*
X129323000Y-79413623D01*
X129323000Y-79586377D01*
X129356703Y-79755811D01*
X129398000Y-79855511D01*
X129398001Y-81460592D01*
X129394121Y-81499988D01*
X129409605Y-81657207D01*
X129455464Y-81808384D01*
X129455465Y-81808385D01*
X129529936Y-81947711D01*
X129630158Y-82069831D01*
X129660758Y-82094944D01*
X133287886Y-85722073D01*
X133353354Y-96262447D01*
X129610758Y-100005044D01*
X129580158Y-100030157D01*
X129555045Y-100060757D01*
X129479936Y-100152277D01*
X129405464Y-100291604D01*
X129359605Y-100442781D01*
X129344121Y-100600000D01*
X129348001Y-100639396D01*
X129348000Y-102044489D01*
X129306703Y-102144189D01*
X129297968Y-102188101D01*
X128528643Y-102188101D01*
X128527187Y-102184585D01*
X128431210Y-102040945D01*
X128309055Y-101918790D01*
X128165415Y-101822813D01*
X128005811Y-101756703D01*
X127836377Y-101723000D01*
X127663623Y-101723000D01*
X127494189Y-101756703D01*
X127334585Y-101822813D01*
X127190945Y-101918790D01*
X127068790Y-102040945D01*
X126972813Y-102184585D01*
X126906703Y-102344189D01*
X126873000Y-102513623D01*
X126873000Y-102686377D01*
X126906703Y-102855811D01*
X126972813Y-103015415D01*
X127068790Y-103159055D01*
X127190945Y-103281210D01*
X127334585Y-103377187D01*
X127434287Y-103418485D01*
X127545141Y-103529339D01*
X127570258Y-103559944D01*
X127692378Y-103660166D01*
X127831704Y-103734637D01*
X127947696Y-103769822D01*
X127982881Y-103780496D01*
X127997572Y-103781943D01*
X128100707Y-103792101D01*
X128100714Y-103792101D01*
X128140100Y-103795980D01*
X128179486Y-103792101D01*
X131720513Y-103792101D01*
X131759899Y-103795980D01*
X131799285Y-103792101D01*
X131799293Y-103792101D01*
X131917118Y-103780496D01*
X132068296Y-103734637D01*
X132207622Y-103660166D01*
X132329742Y-103559944D01*
X132354859Y-103529339D01*
X133392048Y-102492150D01*
X133425159Y-107823000D01*
X119277000Y-107823000D01*
X119277000Y-104879978D01*
X119497263Y-105100241D01*
X119649795Y-104947709D01*
X119731217Y-105157336D01*
X119995658Y-105227573D01*
X120268720Y-105244870D01*
X120539909Y-105208563D01*
X120708783Y-105157336D01*
X120790206Y-104947708D01*
X120220000Y-104377502D01*
X120205858Y-104391644D01*
X119678356Y-103864142D01*
X119692498Y-103850000D01*
X120747502Y-103850000D01*
X121317708Y-104420206D01*
X121475945Y-104358744D01*
X121536174Y-104504149D01*
X121687307Y-104730336D01*
X121879664Y-104922693D01*
X122105851Y-105073826D01*
X122357177Y-105177929D01*
X122623983Y-105231000D01*
X122896017Y-105231000D01*
X123162823Y-105177929D01*
X123414149Y-105073826D01*
X123640336Y-104922693D01*
X123832693Y-104730336D01*
X123983826Y-104504149D01*
X124087929Y-104252823D01*
X124141000Y-103986017D01*
X124141000Y-103713983D01*
X124087929Y-103447177D01*
X123983826Y-103195851D01*
X123832693Y-102969664D01*
X123640336Y-102777307D01*
X123414149Y-102626174D01*
X123162823Y-102522071D01*
X122896017Y-102469000D01*
X122623983Y-102469000D01*
X122357177Y-102522071D01*
X122105851Y-102626174D01*
X121879664Y-102777307D01*
X121687307Y-102969664D01*
X121536174Y-103195851D01*
X121475945Y-103341256D01*
X121317708Y-103279794D01*
X120747502Y-103850000D01*
X119692498Y-103850000D01*
X119678356Y-103835858D01*
X120205858Y-103308356D01*
X120220000Y-103322498D01*
X120790206Y-102752292D01*
X120708783Y-102542664D01*
X120444342Y-102472427D01*
X120171280Y-102455130D01*
X119900091Y-102491437D01*
X119731217Y-102542664D01*
X119649795Y-102752291D01*
X119497263Y-102599759D01*
X119277000Y-102820022D01*
X119277000Y-96967340D01*
X119276995Y-96966238D01*
X119276694Y-96931561D01*
X119276680Y-96930461D01*
X119215848Y-93422510D01*
X119238320Y-93440952D01*
X119315113Y-93481998D01*
X119381990Y-93517745D01*
X119537880Y-93565034D01*
X119659376Y-93577000D01*
X119659386Y-93577000D01*
X119700000Y-93581000D01*
X119740614Y-93577000D01*
X123274189Y-93577000D01*
X123429604Y-93641376D01*
X123608699Y-93677000D01*
X123791301Y-93677000D01*
X123970396Y-93641376D01*
X124139099Y-93571496D01*
X124290928Y-93470048D01*
X124420048Y-93340928D01*
X124521496Y-93189099D01*
X124591376Y-93020396D01*
X124627000Y-92841301D01*
X124627000Y-92658699D01*
X124591376Y-92479604D01*
X124521496Y-92310901D01*
X124420048Y-92159072D01*
X124337976Y-92077000D01*
X124823001Y-92077000D01*
X124823000Y-99567639D01*
X124842925Y-99769938D01*
X124921663Y-100029504D01*
X125049527Y-100268720D01*
X125221603Y-100478396D01*
X125431279Y-100650473D01*
X125670495Y-100778337D01*
X125930061Y-100857075D01*
X126200000Y-100883662D01*
X126469938Y-100857075D01*
X126729504Y-100778337D01*
X126968720Y-100650473D01*
X127178396Y-100478397D01*
X127350473Y-100268721D01*
X127478337Y-100029505D01*
X127557075Y-99769939D01*
X127577000Y-99567640D01*
X127577000Y-82432360D01*
X127557075Y-82230061D01*
X127478337Y-81970495D01*
X127350473Y-81731279D01*
X127178397Y-81521603D01*
X126968721Y-81349527D01*
X126729505Y-81221663D01*
X126469939Y-81142925D01*
X126200000Y-81116338D01*
X125930062Y-81142925D01*
X125670496Y-81221663D01*
X125431280Y-81349527D01*
X125221604Y-81521603D01*
X125049528Y-81731279D01*
X124921664Y-81970495D01*
X124842926Y-82230061D01*
X124823001Y-82432360D01*
X124823000Y-87153447D01*
X122863505Y-85193952D01*
X122837606Y-85162394D01*
X122711679Y-85059048D01*
X122568010Y-84982255D01*
X122412120Y-84934966D01*
X122290624Y-84923000D01*
X122290614Y-84923000D01*
X122250000Y-84919000D01*
X122209386Y-84923000D01*
X121125811Y-84923000D01*
X120970396Y-84858624D01*
X120791301Y-84823000D01*
X120608699Y-84823000D01*
X120429604Y-84858624D01*
X120260901Y-84928504D01*
X120109072Y-85029952D01*
X119979952Y-85159072D01*
X119878504Y-85310901D01*
X119808624Y-85479604D01*
X119773000Y-85658699D01*
X119773000Y-85841301D01*
X119808624Y-86020396D01*
X119878504Y-86189099D01*
X119979952Y-86340928D01*
X120109072Y-86470048D01*
X120260901Y-86571496D01*
X120429604Y-86641376D01*
X120608699Y-86677000D01*
X120791301Y-86677000D01*
X120970396Y-86641376D01*
X121125811Y-86577000D01*
X121907447Y-86577000D01*
X123814127Y-88483681D01*
X123878504Y-88639099D01*
X123979952Y-88790928D01*
X124109072Y-88920048D01*
X124260901Y-89021496D01*
X124429604Y-89091376D01*
X124608699Y-89127000D01*
X124791301Y-89127000D01*
X124823000Y-89120695D01*
X124823000Y-89923000D01*
X123397091Y-89923000D01*
X123238871Y-89938583D01*
X123035856Y-90000167D01*
X122848756Y-90100174D01*
X122684761Y-90234761D01*
X122550174Y-90398756D01*
X122450167Y-90585856D01*
X122388583Y-90788871D01*
X122367789Y-91000000D01*
X122388583Y-91211129D01*
X122450167Y-91414144D01*
X122550174Y-91601244D01*
X122684761Y-91765239D01*
X122848756Y-91899826D01*
X122892112Y-91923000D01*
X120042554Y-91923000D01*
X119277000Y-91157447D01*
X119277000Y-89925811D01*
X119341376Y-89770396D01*
X119377000Y-89591301D01*
X119377000Y-89408699D01*
X119341376Y-89229604D01*
X119271496Y-89060901D01*
X119170048Y-88909072D01*
X119137008Y-88876032D01*
X119074057Y-85245872D01*
X119464090Y-85084315D01*
X119849312Y-84826917D01*
X120176917Y-84499312D01*
X120434315Y-84114090D01*
X120611614Y-83686053D01*
X120702000Y-83231652D01*
X120702000Y-82768348D01*
X120611614Y-82313947D01*
X120434315Y-81885910D01*
X120176917Y-81500688D01*
X119849312Y-81173083D01*
X119464090Y-80915685D01*
X119036053Y-80738386D01*
X118995754Y-80730370D01*
X118952003Y-78207432D01*
X118970288Y-78229712D01*
X119126669Y-78358050D01*
X119305083Y-78453414D01*
X119498673Y-78512139D01*
X119700000Y-78531968D01*
X119901327Y-78512139D01*
X120094917Y-78453414D01*
X120273331Y-78358050D01*
X120390524Y-78261872D01*
X123375397Y-75277000D01*
X133223010Y-75277000D01*
X133250896Y-79766698D01*
M02*
