M48
INCH,TZ
T1C0.0118
T2C0.0157
T3C0.0197
T4C0.0394
%
G90
G05
T1
X50276Y-31201
X50295Y-40394
X50492Y-36181
X51240Y-40315
X51260Y-31299
X52244Y-37894
X52933Y-33760
X53453Y-33222
X53524Y-37874
X53524Y-38425
X54016Y-32185
X54035Y-34803
X54035Y-36850
X54055Y-39469
X62480Y-35335
X64665Y-34173
X64933Y-36469
X64941Y-34213
X65256Y-35709
X65413Y-35984
X65443Y-34065
X66594Y-34173
X66752Y-38898
X66988Y-36496
X68287Y-33937
X71634Y-32756
X74193Y-33898
T2
X46634Y-35236
X47126Y-30512
X47520Y-33760
X48701Y-36516
X49094Y-34724
X52343Y-40650
X53130Y-34154
X53130Y-36122
X53390Y-37372
X55886Y-42421
X56969Y-36614
X57067Y-35055
X57894Y-31614
X57933Y-40157
X58346Y-33465
X58346Y-38386
X61398Y-36417
X61398Y-38878
X61988Y-38583
X61988Y-39075
X62283Y-29232
X65610Y-39094
X66211Y-33675
X67771Y-40871
X69665Y-36850
X70748Y-40256
X72323Y-35236
X72323Y-35827
X72323Y-36417
X72913Y-35236
X72913Y-35827
X72913Y-36417
X73504Y-35236
X73504Y-35827
X73504Y-36417
T3
X43780Y-35827
X44764Y-34154
X45010Y-37096
X48091Y-31535
X48602Y-35827
X48701Y-33268
X49154Y-31417
X49685Y-32480
X49685Y-39173
X50374Y-34449
X50807Y-30315
X52047Y-33858
X61791Y-35630
X63661Y-33465
T4
X68976Y-30020
X69976Y-30020
X70976Y-30020
X71976Y-30020
X55000Y-30610
X56000Y-30610
X57000Y-30610
X58000Y-30610
X59000Y-30610
X60000Y-30610
X45331Y-40886
X46331Y-40886
X47331Y-40886
X48331Y-40886
X55010Y-40945
X56010Y-40945
X57010Y-40945
X58010Y-40945
X59010Y-40945
X60010Y-40945
T0
M30
