(module QRCode (layer F.Cu) (tedit 0)
  (fp_text reference G*** (at 0 0) (layer F.SilkS) hide
    (effects (font (size 1.524 1.524) (thickness 0.3)))
  )
  (fp_text value LOGO (at 0.75 0) (layer F.SilkS) hide
    (effects (font (size 1.524 1.524) (thickness 0.3)))
  )
  (fp_poly (pts (xy -1.47066 2.55778) (xy -2.55524 2.55778) (xy -2.55524 1.6383) (xy -2.39014 1.6383)
    (xy -2.39014 2.39268) (xy -1.63576 2.39268) (xy -1.63576 1.6383) (xy -2.39014 1.6383)
    (xy -2.55524 1.6383) (xy -2.55524 1.4732) (xy -1.47066 1.4732) (xy -1.47066 2.55778)) (layer F.SilkS) (width 0.01))
  (fp_poly (pts (xy -1.16078 2.55778) (xy -1.31572 2.55778) (xy -1.31572 2.40284) (xy -1.16078 2.40284)
    (xy -1.16078 2.55778)) (layer F.SilkS) (width 0.01))
  (fp_poly (pts (xy -2.55524 -1.16078) (xy -2.55524 -1.31572) (xy -2.4003 -1.31572) (xy -2.4003 -1.16078)
    (xy -2.55524 -1.16078)) (layer F.SilkS) (width 0.01))
  (fp_poly (pts (xy -0.69596 0.6985) (xy -0.8509 0.6985) (xy -0.8509 0.85344) (xy -1.00584 0.85344)
    (xy -1.00584 0.54356) (xy -0.8509 0.54356) (xy -0.8509 0.38862) (xy -0.69596 0.38862)
    (xy -0.69596 0.6985)) (layer F.SilkS) (width 0.01))
  (fp_poly (pts (xy 2.40284 0.6985) (xy 2.2479 0.6985) (xy 2.2479 0.54356) (xy 2.40284 0.54356)
    (xy 2.40284 0.6985)) (layer F.SilkS) (width 0.01))
  (fp_poly (pts (xy -2.24536 0.38862) (xy -2.4003 0.38862) (xy -2.4003 1.16332) (xy -2.24536 1.16332)
    (xy -2.24536 1.31826) (xy -2.55524 1.31826) (xy -2.55524 0.07874) (xy -2.24536 0.07874)
    (xy -2.24536 0.38862)) (layer F.SilkS) (width 0.01))
  (fp_poly (pts (xy -2.4003 -0.69596) (xy -2.24536 -0.69596) (xy -2.24536 -0.54102) (xy -2.55524 -0.54102)
    (xy -2.55524 -0.8509) (xy -2.4003 -0.8509) (xy -2.4003 -0.69596)) (layer F.SilkS) (width 0.01))
  (fp_poly (pts (xy -2.24536 -1.16078) (xy -2.24536 -0.8509) (xy -2.4003 -0.8509) (xy -2.4003 -1.16078)
    (xy -2.24536 -1.16078)) (layer F.SilkS) (width 0.01))
  (fp_poly (pts (xy -1.16078 -1.00584) (xy -0.8509 -1.00584) (xy -0.8509 -0.69596) (xy -1.00584 -0.69596)
    (xy -1.00584 -0.54102) (xy -1.16078 -0.54102) (xy -1.16078 -1.00584)) (layer F.SilkS) (width 0.01))
  (fp_poly (pts (xy -1.31572 -0.38608) (xy -1.31572 -0.54102) (xy -1.16078 -0.54102) (xy -1.16078 -0.38608)
    (xy -1.31572 -0.38608)) (layer F.SilkS) (width 0.01))
  (fp_poly (pts (xy -1.16078 -0.23114) (xy -1.16078 -0.38608) (xy -1.00584 -0.38608) (xy -1.00584 -0.23114)
    (xy -1.16078 -0.23114)) (layer F.SilkS) (width 0.01))
  (fp_poly (pts (xy 0.38862 0.54356) (xy 0.07874 0.54356) (xy 0.07874 0.38862) (xy 0.38862 0.38862)
    (xy 0.38862 0.54356)) (layer F.SilkS) (width 0.01))
  (fp_poly (pts (xy -1.47066 0.38862) (xy -1.31572 0.38862) (xy -1.31572 0.23368) (xy -1.16078 0.23368)
    (xy -0.8509 0.23368) (xy -0.8509 0.07874) (xy -1.16078 0.07874) (xy -1.16078 0.23368)
    (xy -1.31572 0.23368) (xy -1.47066 0.23368) (xy -1.47066 0.07874) (xy -1.6256 0.07874)
    (xy -1.6256 -0.0762) (xy -1.31572 -0.0762) (xy -1.31572 0.07874) (xy -1.16078 0.07874)
    (xy -1.16078 -0.0762) (xy -1.00584 -0.0762) (xy -1.00584 -0.23114) (xy -0.69596 -0.23114)
    (xy -0.69596 -0.0762) (xy -0.54102 -0.0762) (xy -0.54102 0.07874) (xy -0.0762 0.07874)
    (xy -0.0762 0.38862) (xy -0.54102 0.38862) (xy -0.54102 0.23368) (xy -0.8509 0.23368)
    (xy -0.8509 0.38862) (xy -1.16078 0.38862) (xy -1.16078 0.85344) (xy -1.47066 0.85344)
    (xy -1.47066 1.00838) (xy -1.6256 1.00838) (xy -1.6256 0.85344) (xy -2.09042 0.85344)
    (xy -2.09042 0.6985) (xy -1.6256 0.6985) (xy -1.6256 0.85344) (xy -1.47066 0.85344)
    (xy -1.47066 0.6985) (xy -1.6256 0.6985) (xy -2.09042 0.6985) (xy -2.24536 0.6985)
    (xy -2.24536 0.38862) (xy -2.09042 0.38862) (xy -2.09042 0.54356) (xy -1.93548 0.54356)
    (xy -1.93548 0.38862) (xy -1.6256 0.38862) (xy -1.6256 0.54356) (xy -1.47066 0.54356)
    (xy -1.47066 0.6985) (xy -1.31572 0.6985) (xy -1.31572 0.54356) (xy -1.47066 0.54356)
    (xy -1.47066 0.38862)) (layer F.SilkS) (width 0.01))
  (fp_poly (pts (xy 0.38862 0.23368) (xy 0.23368 0.23368) (xy 0.23368 0.07874) (xy 0.38862 0.07874)
    (xy 0.38862 -0.0762) (xy 0.23368 -0.0762) (xy 0.23368 -0.23114) (xy 0.38862 -0.23114)
    (xy 0.38862 -0.38608) (xy 0.6985 -0.38608) (xy 0.6985 -0.23114) (xy 0.54356 -0.23114)
    (xy 0.54356 0.07874) (xy 0.6985 0.07874) (xy 0.6985 0.23368) (xy 0.54356 0.23368)
    (xy 0.54356 0.38862) (xy 0.38862 0.38862) (xy 0.38862 0.23368)) (layer F.SilkS) (width 0.01))
  (fp_poly (pts (xy -1.00584 1.16332) (xy -1.00584 1.00838) (xy -0.69596 1.00838) (xy -0.69596 1.16332)
    (xy -1.00584 1.16332)) (layer F.SilkS) (width 0.01))
  (fp_poly (pts (xy 1.78308 -1.31572) (xy 1.93802 -1.31572) (xy 1.93802 -1.16078) (xy 2.09296 -1.16078)
    (xy 2.09296 -1.31572) (xy 2.55778 -1.31572) (xy 2.55778 -1.16078) (xy 2.2479 -1.16078)
    (xy 2.2479 -1.00584) (xy 2.55778 -1.00584) (xy 2.55778 -0.69596) (xy 2.09296 -0.69596)
    (xy 2.09296 -0.8509) (xy 1.78308 -0.8509) (xy 1.78308 -1.31572)) (layer F.SilkS) (width 0.01))
  (fp_poly (pts (xy 1.93802 -0.38608) (xy 1.93802 -0.54102) (xy 2.09296 -0.54102) (xy 2.09296 -0.38608)
    (xy 1.93802 -0.38608)) (layer F.SilkS) (width 0.01))
  (fp_poly (pts (xy 1.62814 0.23368) (xy 1.78308 0.23368) (xy 1.78308 0.38862) (xy 1.62814 0.38862)
    (xy 1.62814 0.23368)) (layer F.SilkS) (width 0.01))
  (fp_poly (pts (xy 1.4732 0.54356) (xy 1.4732 0.38862) (xy 1.62814 0.38862) (xy 1.62814 0.54356)
    (xy 1.4732 0.54356)) (layer F.SilkS) (width 0.01))
  (fp_poly (pts (xy 1.93802 0.54356) (xy 1.78308 0.54356) (xy 1.78308 0.38862) (xy 1.93802 0.38862)
    (xy 1.93802 0.23368) (xy 2.09296 0.23368) (xy 2.09296 0.07874) (xy 2.2479 0.07874)
    (xy 2.2479 0.23368) (xy 2.40284 0.23368) (xy 2.40284 0.07874) (xy 2.55778 0.07874)
    (xy 2.55778 0.38862) (xy 2.2479 0.38862) (xy 2.2479 0.54356) (xy 2.09296 0.54356)
    (xy 2.09296 0.6985) (xy 1.93802 0.6985) (xy 1.93802 0.54356)) (layer F.SilkS) (width 0.01))
  (fp_poly (pts (xy 1.4732 2.55778) (xy 0.85344 2.55778) (xy 0.85344 2.40284) (xy 1.4732 2.40284)
    (xy 1.4732 2.55778)) (layer F.SilkS) (width 0.01))
  (fp_poly (pts (xy -1.00584 1.62814) (xy -0.8509 1.62814) (xy -0.8509 1.78308) (xy -1.00584 1.78308)
    (xy -1.00584 1.62814)) (layer F.SilkS) (width 0.01))
  (fp_poly (pts (xy 1.16332 -1.6256) (xy 1.31826 -1.6256) (xy 1.31826 -1.47066) (xy 1.16332 -1.47066)
    (xy 1.16332 -1.6256)) (layer F.SilkS) (width 0.01))
  (fp_poly (pts (xy 2.2479 -0.38608) (xy 2.2479 -0.0762) (xy 2.09296 -0.0762) (xy 2.09296 0.07874)
    (xy 1.93802 0.07874) (xy 1.93802 0.23368) (xy 1.78308 0.23368) (xy 1.78308 0.07874)
    (xy 1.62814 0.07874) (xy 1.62814 0.23368) (xy 1.4732 0.23368) (xy 1.4732 0.07874)
    (xy 1.00838 0.07874) (xy 1.00838 0.23368) (xy 1.31826 0.23368) (xy 1.31826 0.38862)
    (xy 1.00838 0.38862) (xy 1.00838 0.54356) (xy 0.85344 0.54356) (xy 0.85344 0.38862)
    (xy 0.6985 0.38862) (xy 0.6985 0.23368) (xy 0.85344 0.23368) (xy 0.85344 0.38862)
    (xy 1.00838 0.38862) (xy 1.00838 0.23368) (xy 0.85344 0.23368) (xy 0.85344 -0.0762)
    (xy 1.31826 -0.0762) (xy 1.31826 -0.23114) (xy 1.4732 -0.23114) (xy 1.4732 -0.0762)
    (xy 1.62814 -0.0762) (xy 1.62814 -0.23114) (xy 1.78308 -0.23114) (xy 1.78308 -0.0762)
    (xy 1.93802 -0.0762) (xy 1.93802 -0.23114) (xy 2.09296 -0.23114) (xy 2.09296 -0.38608)
    (xy 2.2479 -0.38608)) (layer F.SilkS) (width 0.01))
  (fp_poly (pts (xy 1.93802 0.85344) (xy 1.62814 0.85344) (xy 1.62814 0.54356) (xy 1.78308 0.54356)
    (xy 1.78308 0.6985) (xy 1.93802 0.6985) (xy 1.93802 0.85344)) (layer F.SilkS) (width 0.01))
  (fp_poly (pts (xy -0.54102 1.78308) (xy -0.69596 1.78308) (xy -0.69596 1.62814) (xy -0.54102 1.62814)
    (xy -0.54102 1.78308)) (layer F.SilkS) (width 0.01))
  (fp_poly (pts (xy 2.2479 1.31826) (xy 2.2479 1.62814) (xy 2.55778 1.62814) (xy 2.55778 1.78308)
    (xy 1.93802 1.78308) (xy 1.93802 1.93802) (xy 1.78308 1.93802) (xy 1.78308 2.09296)
    (xy 1.93802 2.09296) (xy 1.93802 2.2479) (xy 2.09296 2.2479) (xy 2.09296 2.09296)
    (xy 2.2479 2.09296) (xy 2.2479 1.93802) (xy 2.55778 1.93802) (xy 2.55778 2.40284)
    (xy 1.93802 2.40284) (xy 1.93802 2.55778) (xy 1.62814 2.55778) (xy 1.62814 2.40284)
    (xy 1.4732 2.40284) (xy 1.4732 2.2479) (xy 1.31826 2.2479) (xy 1.31826 2.09296)
    (xy 1.16332 2.09296) (xy 1.16332 2.2479) (xy 1.00838 2.2479) (xy 1.00838 2.09296)
    (xy 0.85344 2.09296) (xy 0.85344 2.2479) (xy 0.6985 2.2479) (xy 0.6985 2.09296)
    (xy 0.54356 2.09296) (xy 0.54356 2.40284) (xy 0.38862 2.40284) (xy 0.38862 1.93802)
    (xy 0.07874 1.93802) (xy 0.07874 1.78308) (xy 0.38862 1.78308) (xy 0.38862 1.62814)
    (xy 0.23368 1.62814) (xy 0.23368 1.31826) (xy 0.38862 1.31826) (xy 0.38862 1.4732)
    (xy 0.54356 1.4732) (xy 0.54356 1.78308) (xy 0.6985 1.78308) (xy 0.6985 2.09296)
    (xy 0.85344 2.09296) (xy 0.85344 1.93802) (xy 1.00838 1.93802) (xy 1.00838 2.09296)
    (xy 1.16332 2.09296) (xy 1.16332 1.93802) (xy 1.4732 1.93802) (xy 1.4732 2.2479)
    (xy 1.62814 2.2479) (xy 1.62814 1.93802) (xy 1.4732 1.93802) (xy 1.16332 1.93802)
    (xy 1.00838 1.93802) (xy 1.00838 1.78308) (xy 0.85344 1.78308) (xy 0.85344 1.31826)
    (xy 1.00838 1.31826) (xy 1.31826 1.31826) (xy 1.31826 1.78308) (xy 1.78308 1.78308)
    (xy 1.78308 1.31826) (xy 1.93802 1.31826) (xy 1.93802 1.62814) (xy 2.09296 1.62814)
    (xy 2.09296 1.31826) (xy 1.93802 1.31826) (xy 1.78308 1.31826) (xy 1.31826 1.31826)
    (xy 1.00838 1.31826) (xy 1.00838 1.00838) (xy 0.54356 1.00838) (xy 0.54356 1.16332)
    (xy 0.6985 1.16332) (xy 0.6985 1.31826) (xy 0.38862 1.31826) (xy 0.38862 1.00838)
    (xy 0.54356 1.00838) (xy 0.54356 0.85344) (xy 1.00838 0.85344) (xy 1.00838 0.6985)
    (xy 1.16332 0.6985) (xy 1.16332 1.00838) (xy 1.31826 1.00838) (xy 1.31826 1.16332)
    (xy 1.4732 1.16332) (xy 1.4732 0.85344) (xy 1.62814 0.85344) (xy 1.62814 1.16332)
    (xy 1.93802 1.16332) (xy 1.93802 1.00838) (xy 2.09296 1.00838) (xy 2.09296 0.85344)
    (xy 2.55778 0.85344) (xy 2.55778 1.31826) (xy 2.40284 1.31826) (xy 2.40284 1.00838)
    (xy 2.2479 1.00838) (xy 2.2479 1.16332) (xy 2.09296 1.16332) (xy 2.09296 1.31826)
    (xy 2.2479 1.31826)) (layer F.SilkS) (width 0.01))
  (fp_poly (pts (xy -0.23114 2.2479) (xy -0.0762 2.2479) (xy -0.0762 2.09296) (xy 0.07874 2.09296)
    (xy 0.07874 2.40284) (xy 0.23368 2.40284) (xy 0.23368 2.55778) (xy -0.0762 2.55778)
    (xy -0.0762 2.40284) (xy -0.38608 2.40284) (xy -0.38608 2.2479) (xy -0.69596 2.2479)
    (xy -0.69596 2.55778) (xy -1.00584 2.55778) (xy -1.00584 2.40284) (xy -0.8509 2.40284)
    (xy -0.8509 2.2479) (xy -1.00584 2.2479) (xy -1.00584 2.09296) (xy -0.8509 2.09296)
    (xy -0.8509 1.93802) (xy -0.69596 1.93802) (xy -0.69596 2.09296) (xy -0.38608 2.09296)
    (xy -0.38608 1.78308) (xy -0.23114 1.78308) (xy -0.23114 2.2479)) (layer F.SilkS) (width 0.01))
  (fp_poly (pts (xy 0.54356 -2.55524) (xy 0.6985 -2.55524) (xy 0.6985 -2.4003) (xy 0.54356 -2.4003)
    (xy 0.54356 -2.55524)) (layer F.SilkS) (width 0.01))
  (fp_poly (pts (xy -0.23114 1.4732) (xy -0.38608 1.4732) (xy -0.38608 1.62814) (xy -0.54102 1.62814)
    (xy -0.54102 1.4732) (xy -1.16078 1.4732) (xy -1.16078 1.78308) (xy -1.00584 1.78308)
    (xy -1.00584 1.93802) (xy -1.16078 1.93802) (xy -1.16078 2.09296) (xy -1.31572 2.09296)
    (xy -1.31572 1.31826) (xy -0.69596 1.31826) (xy -0.69596 1.16332) (xy -0.54102 1.16332)
    (xy -0.54102 1.00838) (xy -0.38608 1.00838) (xy -0.38608 1.31826) (xy -0.23114 1.31826)
    (xy -0.23114 1.16332) (xy -0.0762 1.16332) (xy -0.0762 1.00838) (xy -0.38608 1.00838)
    (xy -0.38608 0.85344) (xy -0.54102 0.85344) (xy -0.54102 0.6985) (xy -0.23114 0.6985)
    (xy -0.23114 0.85344) (xy -0.0762 0.85344) (xy 0.07874 0.85344) (xy 0.07874 1.00838)
    (xy 0.23368 1.00838) (xy 0.23368 0.85344) (xy 0.07874 0.85344) (xy -0.0762 0.85344)
    (xy -0.0762 0.6985) (xy 0.54356 0.6985) (xy 0.54356 0.85344) (xy 0.38862 0.85344)
    (xy 0.38862 1.00838) (xy 0.23368 1.00838) (xy 0.23368 1.16332) (xy 0.07874 1.16332)
    (xy 0.07874 1.62814) (xy -0.0762 1.62814) (xy -0.0762 1.78308) (xy -0.23114 1.78308)
    (xy -0.23114 1.4732)) (layer F.SilkS) (width 0.01))
  (fp_poly (pts (xy 0.23368 -1.47066) (xy 0.23368 -1.6256) (xy 0.38862 -1.6256) (xy 0.38862 -1.47066)
    (xy 0.23368 -1.47066)) (layer F.SilkS) (width 0.01))
  (fp_poly (pts (xy -0.38608 -1.93548) (xy -0.0762 -1.93548) (xy -0.0762 -1.78054) (xy -0.38608 -1.78054)
    (xy -0.38608 -1.93548)) (layer F.SilkS) (width 0.01))
  (fp_poly (pts (xy -0.54102 -2.24536) (xy -0.54102 -1.78054) (xy -0.38608 -1.78054) (xy -0.38608 -1.6256)
    (xy -0.23114 -1.6256) (xy -0.23114 -1.31572) (xy 0.23368 -1.31572) (xy 0.23368 -1.16078)
    (xy 0.38862 -1.16078) (xy 0.38862 -1.47066) (xy 0.54356 -1.47066) (xy 0.54356 -1.78054)
    (xy 0.23368 -1.78054) (xy 0.23368 -1.93548) (xy 0.54356 -1.93548) (xy 0.54356 -1.78054)
    (xy 0.6985 -1.78054) (xy 0.6985 -2.09042) (xy 0.54356 -2.09042) (xy 0.54356 -2.24536)
    (xy 0.38862 -2.24536) (xy 0.38862 -2.09042) (xy 0.23368 -2.09042) (xy 0.23368 -1.93548)
    (xy 0.07874 -1.93548) (xy 0.07874 -2.09042) (xy -0.23114 -2.09042) (xy -0.23114 -2.24536)
    (xy -0.0762 -2.24536) (xy 0.07874 -2.24536) (xy 0.07874 -2.09042) (xy 0.23368 -2.09042)
    (xy 0.23368 -2.24536) (xy 0.07874 -2.24536) (xy -0.0762 -2.24536) (xy -0.0762 -2.4003)
    (xy 0.07874 -2.4003) (xy 0.07874 -2.55524) (xy 0.38862 -2.55524) (xy 0.38862 -2.4003)
    (xy 0.54356 -2.4003) (xy 0.54356 -2.24536) (xy 1.00838 -2.24536) (xy 1.00838 -2.09042)
    (xy 0.85344 -2.09042) (xy 0.85344 -1.93548) (xy 1.00838 -1.93548) (xy 1.00838 -1.78054)
    (xy 1.16332 -1.78054) (xy 1.16332 -1.6256) (xy 1.00838 -1.6256) (xy 1.00838 -1.47066)
    (xy 1.16332 -1.47066) (xy 1.16332 -1.31572) (xy 0.85344 -1.31572) (xy 0.85344 -1.6256)
    (xy 0.6985 -1.6256) (xy 0.6985 -1.31572) (xy 0.54356 -1.31572) (xy 0.54356 -1.00584)
    (xy 0.85344 -1.00584) (xy 0.85344 -1.16078) (xy 1.16332 -1.16078) (xy 1.16332 -1.00584)
    (xy 1.4732 -1.00584) (xy 1.4732 -0.8509) (xy 1.78308 -0.8509) (xy 1.78308 -0.38608)
    (xy 1.62814 -0.38608) (xy 1.62814 -0.23114) (xy 1.4732 -0.23114) (xy 1.4732 -0.38608)
    (xy 1.31826 -0.38608) (xy 1.31826 -0.54102) (xy 1.4732 -0.54102) (xy 1.4732 -0.38608)
    (xy 1.62814 -0.38608) (xy 1.62814 -0.54102) (xy 1.4732 -0.54102) (xy 1.31826 -0.54102)
    (xy 1.16332 -0.54102) (xy 1.16332 -0.38608) (xy 1.00838 -0.38608) (xy 1.00838 -0.69596)
    (xy 0.85344 -0.69596) (xy 0.85344 -0.8509) (xy 1.00838 -0.8509) (xy 1.00838 -0.69596)
    (xy 1.16332 -0.69596) (xy 1.16332 -0.8509) (xy 1.31826 -0.8509) (xy 1.31826 -0.69596)
    (xy 1.4732 -0.69596) (xy 1.4732 -0.8509) (xy 1.31826 -0.8509) (xy 1.16332 -0.8509)
    (xy 1.00838 -0.8509) (xy 0.85344 -0.8509) (xy 0.54356 -0.8509) (xy 0.54356 -0.69596)
    (xy 0.6985 -0.69596) (xy 0.6985 -0.54102) (xy 0.38862 -0.54102) (xy 0.38862 -0.38608)
    (xy 0.23368 -0.38608) (xy 0.23368 -0.23114) (xy -0.0762 -0.23114) (xy -0.0762 -0.0762)
    (xy -0.23114 -0.0762) (xy -0.23114 -0.23114) (xy -0.38608 -0.23114) (xy -0.38608 -0.38608)
    (xy -0.54102 -0.38608) (xy -0.54102 -0.54102) (xy -0.38608 -0.54102) (xy -0.38608 -0.38608)
    (xy -0.23114 -0.38608) (xy -0.23114 -0.23114) (xy -0.0762 -0.23114) (xy -0.0762 -0.54102)
    (xy -0.38608 -0.54102) (xy -0.54102 -0.54102) (xy -0.69596 -0.54102) (xy -0.69596 -1.00584)
    (xy -0.54102 -1.00584) (xy -0.54102 -0.69596) (xy -0.38608 -0.69596) (xy -0.38608 -0.8509)
    (xy -0.23114 -0.8509) (xy -0.23114 -0.69596) (xy 0.07874 -0.69596) (xy 0.07874 -1.00584)
    (xy 0.23368 -1.00584) (xy 0.23368 -0.8509) (xy 0.54356 -0.8509) (xy 0.54356 -1.00584)
    (xy 0.23368 -1.00584) (xy 0.23368 -1.16078) (xy -0.0762 -1.16078) (xy -0.0762 -0.8509)
    (xy -0.23114 -0.8509) (xy -0.38608 -0.8509) (xy -0.38608 -1.31572) (xy -0.8509 -1.31572)
    (xy -0.8509 -1.16078) (xy -1.16078 -1.16078) (xy -1.16078 -1.00584) (xy -1.31572 -1.00584)
    (xy -1.31572 -0.54102) (xy -1.6256 -0.54102) (xy -1.6256 -0.38608) (xy -1.78054 -0.38608)
    (xy -1.78054 -0.23114) (xy -1.6256 -0.23114) (xy -1.6256 -0.0762) (xy -1.78054 -0.0762)
    (xy -1.78054 0.07874) (xy -1.93548 0.07874) (xy -1.93548 0.23368) (xy -2.09042 0.23368)
    (xy -2.09042 0.07874) (xy -2.24536 0.07874) (xy -2.24536 -0.0762) (xy -2.09042 -0.0762)
    (xy -2.09042 -0.23114) (xy -2.24536 -0.23114) (xy -2.24536 -0.54102) (xy -2.09042 -0.54102)
    (xy -2.09042 -0.38608) (xy -1.93548 -0.38608) (xy -1.93548 -0.69596) (xy -2.09042 -0.69596)
    (xy -2.09042 -0.8509) (xy -1.78054 -0.8509) (xy -1.78054 -0.69596) (xy -1.47066 -0.69596)
    (xy -1.47066 -0.8509) (xy -1.78054 -0.8509) (xy -1.78054 -1.16078) (xy -1.6256 -1.16078)
    (xy -1.6256 -1.00584) (xy -1.47066 -1.00584) (xy -1.47066 -1.16078) (xy -1.6256 -1.16078)
    (xy -1.78054 -1.16078) (xy -2.09042 -1.16078) (xy -2.09042 -1.31572) (xy -1.16078 -1.31572)
    (xy -1.00584 -1.31572) (xy -0.8509 -1.31572) (xy -0.8509 -1.47066) (xy -1.00584 -1.47066)
    (xy -1.00584 -1.31572) (xy -1.16078 -1.31572) (xy -1.16078 -1.47066) (xy -1.31572 -1.47066)
    (xy -1.31572 -1.6256) (xy -1.16078 -1.6256) (xy -1.16078 -1.47066) (xy -1.00584 -1.47066)
    (xy -1.00584 -1.6256) (xy -1.16078 -1.6256) (xy -1.16078 -1.78054) (xy -0.8509 -1.78054)
    (xy -0.8509 -1.47066) (xy -0.69596 -1.47066) (xy -0.69596 -1.6256) (xy -0.54102 -1.6256)
    (xy -0.54102 -1.47066) (xy -0.38608 -1.47066) (xy -0.38608 -1.6256) (xy -0.54102 -1.6256)
    (xy -0.69596 -1.6256) (xy -0.69596 -1.78054) (xy -0.8509 -1.78054) (xy -1.16078 -1.78054)
    (xy -1.31572 -1.78054) (xy -1.31572 -1.93548) (xy -1.00584 -1.93548) (xy -1.00584 -2.09042)
    (xy -1.31572 -2.09042) (xy -1.31572 -2.55524) (xy -1.00584 -2.55524) (xy -1.00584 -2.4003)
    (xy -1.16078 -2.4003) (xy -1.16078 -2.24536) (xy -0.8509 -2.24536) (xy -0.8509 -2.09042)
    (xy -0.69596 -2.09042) (xy -0.69596 -2.24536) (xy -0.8509 -2.24536) (xy -0.8509 -2.55524)
    (xy -0.54102 -2.55524) (xy -0.54102 -2.4003) (xy -0.69596 -2.4003) (xy -0.69596 -2.24536)
    (xy -0.54102 -2.24536)) (layer F.SilkS) (width 0.01))
  (fp_poly (pts (xy -1.47066 1.31826) (xy -1.78054 1.31826) (xy -1.78054 1.16332) (xy -1.47066 1.16332)
    (xy -1.47066 1.31826)) (layer F.SilkS) (width 0.01))
  (fp_poly (pts (xy -1.78054 1.16332) (xy -1.93548 1.16332) (xy -1.93548 1.31826) (xy -2.09042 1.31826)
    (xy -2.09042 1.00838) (xy -1.78054 1.00838) (xy -1.78054 1.16332)) (layer F.SilkS) (width 0.01))
  (fp_poly (pts (xy -1.16078 1.16332) (xy -1.31572 1.16332) (xy -1.31572 1.00838) (xy -1.16078 1.00838)
    (xy -1.16078 1.16332)) (layer F.SilkS) (width 0.01))
  (fp_poly (pts (xy -2.4003 -0.0762) (xy -2.55524 -0.0762) (xy -2.55524 -0.38608) (xy -2.4003 -0.38608)
    (xy -2.4003 -0.0762)) (layer F.SilkS) (width 0.01))
  (fp_poly (pts (xy 2.55778 -0.0762) (xy 2.40284 -0.0762) (xy 2.40284 -0.23114) (xy 2.55778 -0.23114)
    (xy 2.55778 -0.0762)) (layer F.SilkS) (width 0.01))
  (fp_poly (pts (xy 1.4732 -1.16078) (xy 1.31826 -1.16078) (xy 1.31826 -1.31572) (xy 1.4732 -1.31572)
    (xy 1.4732 -1.16078)) (layer F.SilkS) (width 0.01))
  (fp_poly (pts (xy -1.47066 -1.47066) (xy -2.55524 -1.47066) (xy -2.55524 -2.39014) (xy -2.39014 -2.39014)
    (xy -2.39014 -1.63576) (xy -1.63576 -1.63576) (xy -1.63576 -2.39014) (xy -2.39014 -2.39014)
    (xy -2.55524 -2.39014) (xy -2.55524 -2.55524) (xy -1.47066 -2.55524) (xy -1.47066 -1.47066)) (layer F.SilkS) (width 0.01))
  (fp_poly (pts (xy 0.07874 -1.47066) (xy -0.0762 -1.47066) (xy -0.0762 -1.6256) (xy 0.07874 -1.6256)
    (xy 0.07874 -1.47066)) (layer F.SilkS) (width 0.01))
  (fp_poly (pts (xy 2.55778 -1.47066) (xy 1.4732 -1.47066) (xy 1.4732 -2.39014) (xy 1.6383 -2.39014)
    (xy 1.6383 -1.63576) (xy 2.39268 -1.63576) (xy 2.39268 -2.39014) (xy 1.6383 -2.39014)
    (xy 1.4732 -2.39014) (xy 1.4732 -2.55524) (xy 2.55778 -2.55524) (xy 2.55778 -1.47066)) (layer F.SilkS) (width 0.01))
  (fp_poly (pts (xy 1.31826 -1.93548) (xy 1.16332 -1.93548) (xy 1.16332 -2.09042) (xy 1.31826 -2.09042)
    (xy 1.31826 -1.93548)) (layer F.SilkS) (width 0.01))
  (fp_poly (pts (xy 1.00838 -2.4003) (xy 0.85344 -2.4003) (xy 0.85344 -2.55524) (xy 1.00838 -2.55524)
    (xy 1.00838 -2.4003)) (layer F.SilkS) (width 0.01))
  (fp_poly (pts (xy -1.78054 2.2479) (xy -2.24536 2.2479) (xy -2.24536 1.78308) (xy -1.78054 1.78308)
    (xy -1.78054 2.2479)) (layer F.SilkS) (width 0.01))
  (fp_poly (pts (xy 1.62814 1.62814) (xy 1.4732 1.62814) (xy 1.4732 1.4732) (xy 1.62814 1.4732)
    (xy 1.62814 1.62814)) (layer F.SilkS) (width 0.01))
  (fp_poly (pts (xy -1.47066 0.38862) (xy -1.6256 0.38862) (xy -1.6256 0.23368) (xy -1.47066 0.23368)
    (xy -1.47066 0.38862)) (layer F.SilkS) (width 0.01))
  (fp_poly (pts (xy -1.16078 -0.0762) (xy -1.31572 -0.0762) (xy -1.31572 -0.23114) (xy -1.16078 -0.23114)
    (xy -1.16078 -0.0762)) (layer F.SilkS) (width 0.01))
  (fp_poly (pts (xy -1.47066 -0.23114) (xy -1.6256 -0.23114) (xy -1.6256 -0.38608) (xy -1.47066 -0.38608)
    (xy -1.47066 -0.23114)) (layer F.SilkS) (width 0.01))
  (fp_poly (pts (xy 1.00838 -0.38608) (xy 1.00838 -0.23114) (xy 0.85344 -0.23114) (xy 0.85344 -0.38608)
    (xy 1.00838 -0.38608)) (layer F.SilkS) (width 0.01))
  (fp_poly (pts (xy 0.6985 -0.38608) (xy 0.6985 -0.54102) (xy 0.85344 -0.54102) (xy 0.85344 -0.38608)
    (xy 0.6985 -0.38608)) (layer F.SilkS) (width 0.01))
  (fp_poly (pts (xy -1.78054 -1.78054) (xy -2.24536 -1.78054) (xy -2.24536 -2.24536) (xy -1.78054 -2.24536)
    (xy -1.78054 -1.78054)) (layer F.SilkS) (width 0.01))
  (fp_poly (pts (xy 2.2479 -1.78054) (xy 1.78308 -1.78054) (xy 1.78308 -2.24536) (xy 2.2479 -2.24536)
    (xy 2.2479 -1.78054)) (layer F.SilkS) (width 0.01))
)
