(module S3B-XH-SM4-TB (layer F.Cu) (tedit 0)
  (descr S3B-XH-SM4-TB)
  (tags Connector)
  (attr smd)
  (fp_text reference J** (at -0.467 6.019) (layer F.SilkS)
    (effects (font (size 1.27 1.27) (thickness 0.254)))
  )
  (fp_text value S3B-XH-SM4-TB (at -0.467 6.019) (layer F.SilkS) hide
    (effects (font (size 1.27 1.27) (thickness 0.254)))
  )
  (fp_text user %R (at -0.467 6.019) (layer F.Fab)
    (effects (font (size 1.27 1.27) (thickness 0.254)))
  )
  (fp_line (start -6.25 1.407) (end 6.25 1.407) (layer F.Fab) (width 0.2))
  (fp_line (start 6.25 1.407) (end 6.25 8.407) (layer F.Fab) (width 0.2))
  (fp_line (start 6.25 8.407) (end -6.25 8.407) (layer F.Fab) (width 0.2))
  (fp_line (start -6.25 8.407) (end -6.25 1.407) (layer F.Fab) (width 0.2))
  (fp_line (start -4.5 8.407) (end 4.5 8.407) (layer F.SilkS) (width 0.2))
  (fp_line (start -6.25 1.407) (end -6.25 4.6) (layer F.SilkS) (width 0.2))
  (fp_line (start -6.25 1.407) (end -3.388 1.407) (layer F.SilkS) (width 0.2))
  (fp_line (start 6.25 1.407) (end 3.391 1.407) (layer F.SilkS) (width 0.2))
  (fp_line (start 6.25 1.407) (end 6.25 4.6) (layer F.SilkS) (width 0.2))
  (pad 1 smd rect (at -2.5 0) (size 1.3 4.5) (layers F.Cu F.Paste F.Mask))
  (pad 2 smd rect (at 0 0) (size 1.3 4.5) (layers F.Cu F.Paste F.Mask))
  (pad 3 smd rect (at 2.5 0) (size 1.3 4.5) (layers F.Cu F.Paste F.Mask))
  (pad 4 smd rect (at -5.7 6.8) (size 1.8 3.9) (layers F.Cu F.Paste F.Mask))
  (pad 5 smd rect (at 5.7 6.8) (size 1.8 3.9) (layers F.Cu F.Paste F.Mask))
)
