(module MIC4606_TSSOP-16-1EP_4.4x5mm_P0.65mm (layer F.Cu) (tedit 5A02F25C)
  (descr "FE Package; 16-Lead Plastic TSSOP (4.4mm); Exposed Pad Variation BB; (see Linear Technology 1956f.pdf)")
  (tags "SSOP 0.65")
  (attr smd)
  (fp_text reference REF** (at 0 -3.55) (layer F.SilkS)
    (effects (font (size 1 1) (thickness 0.15)))
  )
  (fp_text value MIC4606_TSSOP-16-1EP_4.4x5mm_P0.65mm (at 0 3.55) (layer F.Fab)
    (effects (font (size 1 1) (thickness 0.15)))
  )
  (fp_line (start -1.2 -2.5) (end 2.2 -2.5) (layer F.Fab) (width 0.15))
  (fp_line (start 2.2 -2.5) (end 2.2 2.5) (layer F.Fab) (width 0.15))
  (fp_line (start 2.2 2.5) (end -2.2 2.5) (layer F.Fab) (width 0.15))
  (fp_line (start -2.2 2.5) (end -2.2 -1.5) (layer F.Fab) (width 0.15))
  (fp_line (start -2.2 -1.5) (end -1.2 -2.5) (layer F.Fab) (width 0.15))
  (fp_line (start -3.5 -2.9) (end -3.5 2.8) (layer F.CrtYd) (width 0.05))
  (fp_line (start 3.5 -2.9) (end 3.5 2.8) (layer F.CrtYd) (width 0.05))
  (fp_line (start -3.5 -2.9) (end 3.5 -2.9) (layer F.CrtYd) (width 0.05))
  (fp_line (start -3.5 2.8) (end 3.5 2.8) (layer F.CrtYd) (width 0.05))
  (fp_line (start -2.25 2.725) (end 2.25 2.725) (layer F.SilkS) (width 0.15))
  (fp_line (start -3.375 -2.825) (end 2.25 -2.825) (layer F.SilkS) (width 0.15))
  (fp_text user %R (at 0 0) (layer F.Fab)
    (effects (font (size 0.8 0.8) (thickness 0.15)))
  )
  (pad 1 smd rect (at -2.775 -2.275) (size 1.05 0.45) (layers F.Cu F.Paste F.Mask))
  (pad 2 smd rect (at -2.775 -1.625) (size 1.05 0.45) (layers F.Cu F.Paste F.Mask))
  (pad 3 smd rect (at -2.775 -0.975) (size 1.05 0.45) (layers F.Cu F.Paste F.Mask))
  (pad 4 smd rect (at -2.775 -0.325) (size 1.05 0.45) (layers F.Cu F.Paste F.Mask))
  (pad 5 smd rect (at -2.775 0.325) (size 1.05 0.45) (layers F.Cu F.Paste F.Mask))
  (pad 6 smd rect (at -2.775 0.975) (size 1.05 0.45) (layers F.Cu F.Paste F.Mask))
  (pad 7 smd rect (at -2.775 1.625) (size 1.05 0.45) (layers F.Cu F.Paste F.Mask))
  (pad 8 smd rect (at -2.775 2.275) (size 1.05 0.45) (layers F.Cu F.Paste F.Mask))
  (pad 9 smd rect (at 2.775 2.275) (size 1.05 0.45) (layers F.Cu F.Paste F.Mask))
  (pad 10 smd rect (at 2.775 1.625) (size 1.05 0.45) (layers F.Cu F.Paste F.Mask))
  (pad 11 smd rect (at 2.775 0.975) (size 1.05 0.45) (layers F.Cu F.Paste F.Mask))
  (pad 12 smd rect (at 2.775 0.325) (size 1.05 0.45) (layers F.Cu F.Paste F.Mask))
  (pad 13 smd rect (at 2.775 -0.325) (size 1.05 0.45) (layers F.Cu F.Paste F.Mask))
  (pad 14 smd rect (at 2.775 -0.975) (size 1.05 0.45) (layers F.Cu F.Paste F.Mask))
  (pad 15 smd rect (at 2.775 -1.625) (size 1.05 0.45) (layers F.Cu F.Paste F.Mask))
  (pad 16 smd rect (at 2.775 -2.275) (size 1.05 0.45) (layers F.Cu F.Paste F.Mask))
  (pad 17 smd rect (at 0.735 1.3425) (size 1.47 0.895) (layers F.Cu F.Paste F.Mask)
    (solder_paste_margin_ratio -0.2))
  (pad 17 smd rect (at 0.735 0.4475) (size 1.47 0.895) (layers F.Cu F.Paste F.Mask)
    (solder_paste_margin_ratio -0.2))
  (pad 17 smd rect (at 0.735 -0.4475) (size 1.47 0.895) (layers F.Cu F.Paste F.Mask)
    (solder_paste_margin_ratio -0.2))
  (pad 17 smd rect (at 0.735 -1.3425) (size 1.47 0.895) (layers F.Cu F.Paste F.Mask)
    (solder_paste_margin_ratio -0.2))
  (pad 17 smd rect (at -0.735 1.3425) (size 1.47 0.895) (layers F.Cu F.Paste F.Mask)
    (solder_paste_margin_ratio -0.2))
  (pad 17 smd rect (at -0.735 0.4475) (size 1.47 0.895) (layers F.Cu F.Paste F.Mask)
    (solder_paste_margin_ratio -0.2))
  (pad 17 smd rect (at -0.735 -0.4475) (size 1.47 0.895) (layers F.Cu F.Paste F.Mask)
    (solder_paste_margin_ratio -0.2))
  (pad 17 smd rect (at -0.735 -1.3425) (size 1.47 0.895) (layers F.Cu F.Paste F.Mask)
    (solder_paste_margin_ratio -0.2))
  (model ${KISYS3DMOD}/Package_SO.3dshapes/TSSOP-16-1EP_4.4x5mm_P0.65mm.wrl
    (at (xyz 0 0 0))
    (scale (xyz 1 1 1))
    (rotate (xyz 0 0 0))
  )
)
