(module MOLEX_Micro-Lock_Plus_P1.25mm (layer F.Cu) (tedit 5E923209)
  (fp_text reference REF** (at -3.221703 -1.408018) (layer F.SilkS)
    (effects (font (size 0.640736 0.640736) (thickness 0.015)))
  )
  (fp_text value MOLEX_Micro-Lock_Plus_P1.25mm (at 1.25416 4.60004) (layer F.Fab)
    (effects (font (size 0.640898 0.640898) (thickness 0.015)))
  )
  (fp_line (start -5.375 3.65) (end -3.75 3.65) (layer F.Fab) (width 0.127))
  (fp_line (start -3.75 3.65) (end -3.75 2.5) (layer F.Fab) (width 0.127))
  (fp_line (start -3.75 2.5) (end -2.5 2.5) (layer F.Fab) (width 0.127))
  (fp_line (start -2.5 2.5) (end -2.5 3.25) (layer F.Fab) (width 0.127))
  (fp_line (start -2.5 3.25) (end 2.5 3.25) (layer F.Fab) (width 0.127))
  (fp_line (start 2.5 3.25) (end 2.5 2.5) (layer F.Fab) (width 0.127))
  (fp_line (start 2.5 2.5) (end 3.75 2.5) (layer F.Fab) (width 0.127))
  (fp_line (start 3.75 2.5) (end 3.75 3.65) (layer F.Fab) (width 0.127))
  (fp_line (start 3.75 3.65) (end 5.375 3.65) (layer F.Fab) (width 0.127))
  (fp_line (start 5.375 3.65) (end 5.375 -0.2) (layer F.Fab) (width 0.127))
  (fp_line (start 5.375 -0.2) (end -5.375 -0.2) (layer F.Fab) (width 0.127))
  (fp_line (start -5.375 -0.2) (end -5.375 3.65) (layer F.Fab) (width 0.127))
  (fp_line (start -3.9 -0.2) (end -5.375 -0.2) (layer F.SilkS) (width 0.127))
  (fp_line (start -5.375 -0.2) (end -5.375 0.9) (layer F.SilkS) (width 0.127))
  (fp_line (start 3.925 -0.2) (end 5.375 -0.2) (layer F.SilkS) (width 0.127))
  (fp_line (start 5.375 -0.2) (end 5.375 0.9) (layer F.SilkS) (width 0.127))
  (fp_line (start -5.375 3.65) (end -3.75 3.65) (layer F.SilkS) (width 0.127))
  (fp_line (start -3.75 3.65) (end -3.75 2.5) (layer F.SilkS) (width 0.127))
  (fp_line (start -3.75 2.5) (end -2.5 2.5) (layer F.SilkS) (width 0.127))
  (fp_line (start -2.5 2.5) (end -2.5 3.25) (layer F.SilkS) (width 0.127))
  (fp_line (start -2.5 3.25) (end 2.5 3.25) (layer F.SilkS) (width 0.127))
  (fp_line (start 2.5 3.25) (end 2.5 2.5) (layer F.SilkS) (width 0.127))
  (fp_line (start 2.5 2.5) (end 3.75 2.5) (layer F.SilkS) (width 0.127))
  (fp_line (start 3.75 2.5) (end 3.75 3.65) (layer F.SilkS) (width 0.127))
  (fp_line (start 3.75 3.65) (end 5.375 3.65) (layer F.SilkS) (width 0.127))
  (fp_circle (center 3.125 -0.95) (end 3.225 -0.95) (layer F.SilkS) (width 0.2))
  (fp_line (start -5.625 -0.85) (end 5.625 -0.85) (layer F.CrtYd) (width 0.05))
  (fp_line (start 5.625 -0.85) (end 5.625 0.97) (layer F.CrtYd) (width 0.05))
  (fp_line (start 5.625 0.97) (end 5.925 0.97) (layer F.CrtYd) (width 0.05))
  (fp_line (start 5.925 0.97) (end 5.925 3.9) (layer F.CrtYd) (width 0.05))
  (fp_line (start 5.925 3.9) (end -5.925 3.9) (layer F.CrtYd) (width 0.05))
  (fp_line (start -5.925 3.9) (end -5.925 0.97) (layer F.CrtYd) (width 0.05))
  (fp_line (start -5.925 0.97) (end -5.625 0.97) (layer F.CrtYd) (width 0.05))
  (fp_line (start -5.625 0.97) (end -5.625 -0.85) (layer F.CrtYd) (width 0.05))
  (pad 4 smd rect (at -0.625 0) (size 0.8 1.2) (layers F.Cu F.Paste F.Mask))
  (pad 3 smd rect (at 0.625 0) (size 0.8 1.2) (layers F.Cu F.Paste F.Mask))
  (pad 2 smd rect (at 1.875 0) (size 0.8 1.2) (layers F.Cu F.Paste F.Mask))
  (pad 1 smd rect (at 3.125 0) (size 0.8 1.2) (layers F.Cu F.Paste F.Mask))
  (pad S1 smd rect (at -5.025 2.295) (size 1.3 2.15) (layers F.Cu F.Paste F.Mask))
  (pad S2 smd rect (at 5.025 2.295) (size 1.3 2.15) (layers F.Cu F.Paste F.Mask))
  (pad 5 smd rect (at -1.875 0) (size 0.8 1.2) (layers F.Cu F.Paste F.Mask))
  (pad 6 smd rect (at -3.125 0) (size 0.8 1.2) (layers F.Cu F.Paste F.Mask))
  (model ":Li-ion Thesis:5055680671.stp"
    (offset (xyz 4.8 1.7 7.5))
    (scale (xyz 1 1 1))
    (rotate (xyz -90 0 0))
  )
)
