G04 #@! TF.GenerationSoftware,KiCad,Pcbnew,(5.1.6)-1*
G04 #@! TF.CreationDate,2020-09-07T13:38:13+10:00*
G04 #@! TF.ProjectId,DaughterBoard,44617567-6874-4657-9242-6f6172642e6b,3*
G04 #@! TF.SameCoordinates,Original*
G04 #@! TF.FileFunction,Profile,NP*
%FSLAX46Y46*%
G04 Gerber Fmt 4.6, Leading zero omitted, Abs format (unit mm)*
G04 Created by KiCad (PCBNEW (5.1.6)-1) date 2020-09-07 13:38:13*
%MOMM*%
%LPD*%
G01*
G04 APERTURE LIST*
G04 #@! TA.AperFunction,Profile*
%ADD10C,0.100000*%
G04 #@! TD*
G04 APERTURE END LIST*
D10*
X184450000Y-108500000D02*
X107450000Y-108500000D01*
X107450000Y-73500000D02*
X184450000Y-73500000D01*
X191450000Y-101500000D02*
G75*
G02*
X184450000Y-108500000I-7000000J0D01*
G01*
X184450000Y-73500000D02*
G75*
G02*
X191450000Y-80500000I0J-7000000D01*
G01*
X191450000Y-80500000D02*
X191450000Y-101500000D01*
X107450000Y-108500000D02*
G75*
G02*
X100450000Y-101500000I0J7000000D01*
G01*
X100450000Y-80500000D02*
G75*
G02*
X107450000Y-73500000I7000000J0D01*
G01*
X100450000Y-101500000D02*
X100450000Y-80500000D01*
M02*
