(module QUT_Logo (layer F.Cu) (tedit 5E9676AF)
  (attr virtual)
  (fp_text reference G*** (at -0.0508 -3.175) (layer Eco2.User) hide
    (effects (font (size 0.5 0.5) (thickness 0.1)))
  )
  (fp_text value LOGO (at 0.1016 -2.1336) (layer Eco2.User) hide
    (effects (font (size 0.5 0.5) (thickness 0.1)))
  )
  (fp_poly (pts (xy 1.061462 1.08722) (xy 1.074102 1.090098) (xy 1.085597 1.094907) (xy 1.089769 1.09735)
    (xy 1.095344 1.101605) (xy 1.101203 1.107187) (xy 1.106595 1.113295) (xy 1.110769 1.119131)
    (xy 1.111627 1.120625) (xy 1.114425 1.125855) (xy 1.114779 1.109027) (xy 1.115133 1.0922)
    (xy 1.171025 1.0922) (xy 1.170644 1.212532) (xy 1.170579 1.232703) (xy 1.170518 1.250497)
    (xy 1.170457 1.266078) (xy 1.170392 1.279609) (xy 1.170319 1.291254) (xy 1.170234 1.301176)
    (xy 1.170132 1.309539) (xy 1.17001 1.316505) (xy 1.169864 1.322239) (xy 1.16969 1.326903)
    (xy 1.169483 1.330662) (xy 1.169239 1.333678) (xy 1.168955 1.336115) (xy 1.168627 1.338136)
    (xy 1.16825 1.339906) (xy 1.167821 1.341586) (xy 1.167423 1.343025) (xy 1.163593 1.354469)
    (xy 1.158868 1.364122) (xy 1.152856 1.372683) (xy 1.147448 1.378624) (xy 1.138048 1.38662)
    (xy 1.12714 1.393166) (xy 1.114523 1.398348) (xy 1.099992 1.402254) (xy 1.08671 1.404536)
    (xy 1.079784 1.405204) (xy 1.071306 1.405602) (xy 1.061984 1.405736) (xy 1.052529 1.405613)
    (xy 1.043653 1.40524) (xy 1.036065 1.404624) (xy 1.031664 1.404009) (xy 1.016063 1.400242)
    (xy 1.002093 1.394935) (xy 0.98991 1.388171) (xy 0.979671 1.380036) (xy 0.972769 1.372316)
    (xy 0.969009 1.366415) (xy 0.96568 1.359518) (xy 0.963114 1.352468) (xy 0.961641 1.346109)
    (xy 0.961416 1.343342) (xy 0.96139 1.33858) (xy 1.024693 1.33858) (xy 1.026212 1.343342)
    (xy 1.029459 1.349543) (xy 1.034683 1.354709) (xy 1.041378 1.358351) (xy 1.041939 1.358554)
    (xy 1.045746 1.359609) (xy 1.050347 1.360299) (xy 1.056305 1.360679) (xy 1.064186 1.360804)
    (xy 1.064921 1.360805) (xy 1.071746 1.360779) (xy 1.076658 1.360632) (xy 1.080286 1.360259)
    (xy 1.083256 1.359555) (xy 1.086196 1.358413) (xy 1.089734 1.35673) (xy 1.089997 1.356601)
    (xy 1.096478 1.352685) (xy 1.101714 1.347802) (xy 1.105797 1.341712) (xy 1.10882 1.334173)
    (xy 1.110875 1.324946) (xy 1.112055 1.313788) (xy 1.112452 1.300461) (xy 1.112449 1.298165)
    (xy 1.112378 1.283335) (xy 1.109591 1.287111) (xy 1.101414 1.297006) (xy 1.093008 1.304615)
    (xy 1.083975 1.310132) (xy 1.073919 1.313756) (xy 1.062444 1.315681) (xy 1.050925 1.316127)
    (xy 1.036257 1.315256) (xy 1.023263 1.312754) (xy 1.011544 1.308461) (xy 1.000705 1.302219)
    (xy 0.990347 1.293869) (xy 0.986738 1.290395) (xy 0.981335 1.284765) (xy 0.977285 1.279915)
    (xy 0.973977 1.27501) (xy 0.9708 1.269219) (xy 0.969917 1.26746) (xy 0.965487 1.257746)
    (xy 0.962119 1.248409) (xy 0.959676 1.238834) (xy 0.958024 1.228407) (xy 0.957028 1.216515)
    (xy 0.956652 1.207135) (xy 0.95661 1.20269) (xy 1.016978 1.20269) (xy 1.017593 1.217082)
    (xy 1.019747 1.229582) (xy 1.023491 1.240354) (xy 1.028875 1.249565) (xy 1.032499 1.253966)
    (xy 1.039826 1.260103) (xy 1.048485 1.264276) (xy 1.058121 1.266419) (xy 1.068374 1.266463)
    (xy 1.078889 1.264342) (xy 1.081936 1.263312) (xy 1.08908 1.259594) (xy 1.095881 1.254133)
    (xy 1.10147 1.247672) (xy 1.102982 1.245308) (xy 1.106802 1.23749) (xy 1.109474 1.229007)
    (xy 1.111106 1.219337) (xy 1.111809 1.207959) (xy 1.111856 1.203325) (xy 1.111655 1.193452)
    (xy 1.110979 1.185419) (xy 1.109686 1.178548) (xy 1.10763 1.172159) (xy 1.104668 1.165575)
    (xy 1.103305 1.162937) (xy 1.09697 1.153427) (xy 1.089151 1.145964) (xy 1.083036 1.142091)
    (xy 1.079735 1.140472) (xy 1.076763 1.139437) (xy 1.073393 1.138858) (xy 1.068896 1.138607)
    (xy 1.06299 1.138555) (xy 1.056619 1.138631) (xy 1.052101 1.13893) (xy 1.048752 1.139558)
    (xy 1.045887 1.140621) (xy 1.044204 1.141465) (xy 1.035726 1.147408) (xy 1.028814 1.15534)
    (xy 1.023476 1.165241) (xy 1.019721 1.177095) (xy 1.017556 1.190882) (xy 1.016978 1.20269)
    (xy 0.95661 1.20269) (xy 0.956525 1.19397) (xy 0.956963 1.18268) (xy 0.958043 1.172647)
    (xy 0.959842 1.163253) (xy 0.962437 1.15388) (xy 0.96382 1.149693) (xy 0.970005 1.1353)
    (xy 0.978077 1.122354) (xy 0.987863 1.111047) (xy 0.999189 1.10157) (xy 1.011884 1.094115)
    (xy 1.0156 1.092441) (xy 1.019874 1.09097) (xy 1.025668 1.089416) (xy 1.031984 1.088036)
    (xy 1.034529 1.087574) (xy 1.048121 1.086352) (xy 1.061462 1.08722)) (layer F.SilkS) (width 0.01))
  (fp_poly (pts (xy 1.400344 1.092226) (xy 1.408097 1.092314) (xy 1.413782 1.092476) (xy 1.417634 1.092724)
    (xy 1.419889 1.09307) (xy 1.420782 1.093527) (xy 1.420796 1.093787) (xy 1.420301 1.095184)
    (xy 1.419026 1.098816) (xy 1.417027 1.104521) (xy 1.414362 1.112134) (xy 1.411087 1.121495)
    (xy 1.40726 1.132439) (xy 1.402937 1.144805) (xy 1.398176 1.158428) (xy 1.393032 1.173147)
    (xy 1.387564 1.188798) (xy 1.381828 1.205219) (xy 1.378054 1.216025) (xy 1.370598 1.23737)
    (xy 1.363927 1.256458) (xy 1.35799 1.273433) (xy 1.352733 1.288436) (xy 1.348106 1.301608)
    (xy 1.344057 1.313093) (xy 1.340533 1.323031) (xy 1.337483 1.331566) (xy 1.334855 1.338838)
    (xy 1.332597 1.344991) (xy 1.330658 1.350165) (xy 1.328985 1.354504) (xy 1.327527 1.358149)
    (xy 1.326231 1.361242) (xy 1.325047 1.363925) (xy 1.323921 1.366341) (xy 1.322803 1.368631)
    (xy 1.321641 1.370937) (xy 1.321181 1.371838) (xy 1.316383 1.380505) (xy 1.311515 1.387549)
    (xy 1.306258 1.393126) (xy 1.300291 1.397394) (xy 1.293296 1.400508) (xy 1.284953 1.402626)
    (xy 1.274941 1.403905) (xy 1.262943 1.404502) (xy 1.254442 1.404597) (xy 1.2319 1.40462)
    (xy 1.231897 1.380807) (xy 1.231894 1.356995) (xy 1.242682 1.357405) (xy 1.252962 1.357158)
    (xy 1.261318 1.355433) (xy 1.267978 1.352049) (xy 1.27317 1.346824) (xy 1.277124 1.339577)
    (xy 1.280067 1.330124) (xy 1.280723 1.32715) (xy 1.280453 1.325426) (xy 1.279373 1.321524)
    (xy 1.277476 1.315423) (xy 1.274755 1.3071) (xy 1.271201 1.296531) (xy 1.266807 1.283694)
    (xy 1.261564 1.268565) (xy 1.255466 1.251123) (xy 1.248505 1.231344) (xy 1.240672 1.209206)
    (xy 1.240388 1.208405) (xy 1.199401 1.092835) (xy 1.231754 1.092495) (xy 1.243259 1.092424)
    (xy 1.252275 1.092481) (xy 1.25885 1.092667) (xy 1.263032 1.092984) (xy 1.264869 1.093432)
    (xy 1.264946 1.093512) (xy 1.265435 1.094936) (xy 1.266569 1.098593) (xy 1.268287 1.10428)
    (xy 1.270528 1.11179) (xy 1.273231 1.120918) (xy 1.276335 1.131458) (xy 1.27978 1.143204)
    (xy 1.283504 1.155951) (xy 1.287448 1.169493) (xy 1.289161 1.175389) (xy 1.293166 1.189133)
    (xy 1.296977 1.202111) (xy 1.300534 1.214124) (xy 1.303777 1.224974) (xy 1.306645 1.234463)
    (xy 1.309079 1.242393) (xy 1.311018 1.248565) (xy 1.312403 1.252782) (xy 1.313172 1.254844)
    (xy 1.313302 1.255017) (xy 1.313764 1.253669) (xy 1.314842 1.250079) (xy 1.316477 1.244454)
    (xy 1.318609 1.236999) (xy 1.321182 1.227923) (xy 1.324136 1.21743) (xy 1.327413 1.205729)
    (xy 1.330954 1.193025) (xy 1.334702 1.179526) (xy 1.336024 1.17475) (xy 1.339829 1.161003)
    (xy 1.343443 1.147963) (xy 1.346807 1.135839) (xy 1.349865 1.124839) (xy 1.352556 1.115172)
    (xy 1.354824 1.107047) (xy 1.35661 1.100674) (xy 1.357856 1.096261) (xy 1.358503 1.094017)
    (xy 1.358576 1.093787) (xy 1.359389 1.093263) (xy 1.361542 1.092859) (xy 1.365267 1.092562)
    (xy 1.370794 1.092361) (xy 1.378355 1.092244) (xy 1.388181 1.092201) (xy 1.390286 1.0922)
    (xy 1.400344 1.092226)) (layer F.SilkS) (width 0.01))
  (fp_poly (pts (xy -1.293665 1.087016) (xy -1.279944 1.088969) (xy -1.271824 1.090868) (xy -1.25608 1.096458)
    (xy -1.241929 1.103995) (xy -1.229437 1.113397) (xy -1.218667 1.124584) (xy -1.209685 1.137472)
    (xy -1.202555 1.151982) (xy -1.197342 1.168032) (xy -1.19411 1.185539) (xy -1.193705 1.189237)
    (xy -1.193021 1.207192) (xy -1.194436 1.224826) (xy -1.197881 1.241725) (xy -1.203288 1.257474)
    (xy -1.205816 1.263015) (xy -1.213903 1.276686) (xy -1.223905 1.288752) (xy -1.235687 1.299102)
    (xy -1.249111 1.307626) (xy -1.264041 1.314216) (xy -1.273175 1.317064) (xy -1.281209 1.318679)
    (xy -1.290966 1.319798) (xy -1.301676 1.320405) (xy -1.312566 1.320483) (xy -1.322866 1.320015)
    (xy -1.331805 1.318984) (xy -1.334803 1.318415) (xy -1.350363 1.314053) (xy -1.364188 1.308066)
    (xy -1.37664 1.300259) (xy -1.388085 1.290436) (xy -1.38938 1.28914) (xy -1.399013 1.278257)
    (xy -1.406504 1.267161) (xy -1.412217 1.255215) (xy -1.416515 1.241782) (xy -1.416646 1.241271)
    (xy -1.419592 1.22587) (xy -1.420951 1.209622) (xy -1.420877 1.20396) (xy -1.360126 1.20396)
    (xy -1.35931 1.219222) (xy -1.356862 1.232556) (xy -1.352786 1.243952) (xy -1.347081 1.253406)
    (xy -1.343258 1.257769) (xy -1.336466 1.263518) (xy -1.329129 1.267512) (xy -1.320774 1.269912)
    (xy -1.310924 1.270876) (xy -1.304278 1.270838) (xy -1.297694 1.270463) (xy -1.29269 1.26975)
    (xy -1.288308 1.268509) (xy -1.284295 1.266868) (xy -1.275638 1.26162) (xy -1.268301 1.254336)
    (xy -1.262366 1.245195) (xy -1.25791 1.234377) (xy -1.255013 1.222061) (xy -1.253755 1.208427)
    (xy -1.253896 1.198107) (xy -1.255539 1.183312) (xy -1.25874 1.170511) (xy -1.263496 1.159708)
    (xy -1.269806 1.150907) (xy -1.277667 1.144113) (xy -1.283691 1.140736) (xy -1.287825 1.139044)
    (xy -1.291945 1.137945) (xy -1.29689 1.137281) (xy -1.3035 1.136888) (xy -1.303808 1.136876)
    (xy -1.315981 1.137193) (xy -1.326386 1.139238) (xy -1.335204 1.143111) (xy -1.342618 1.148913)
    (xy -1.348812 1.156747) (xy -1.352761 1.164006) (xy -1.356426 1.173627) (xy -1.358796 1.184261)
    (xy -1.359963 1.196417) (xy -1.360126 1.20396) (xy -1.420877 1.20396) (xy -1.420736 1.193209)
    (xy -1.418965 1.177314) (xy -1.415655 1.162618) (xy -1.414701 1.159551) (xy -1.408412 1.144184)
    (xy -1.400242 1.130499) (xy -1.390256 1.118547) (xy -1.378518 1.108377) (xy -1.365093 1.10004)
    (xy -1.350044 1.093585) (xy -1.333437 1.089062) (xy -1.320897 1.087069) (xy -1.30771 1.086353)
    (xy -1.293665 1.087016)) (layer F.SilkS) (width 0.01))
  (fp_poly (pts (xy -0.539172 1.086938) (xy -0.523796 1.089302) (xy -0.509483 1.093471) (xy -0.502285 1.096502)
    (xy -0.489486 1.103821) (xy -0.478485 1.112825) (xy -0.469107 1.123686) (xy -0.461178 1.136573)
    (xy -0.461138 1.13665) (xy -0.455111 1.150202) (xy -0.450738 1.164612) (xy -0.447936 1.180261)
    (xy -0.446624 1.19753) (xy -0.446501 1.20396) (xy -0.446405 1.219835) (xy -0.522462 1.220162)
    (xy -0.598518 1.22049) (xy -0.597683 1.227782) (xy -0.595261 1.239897) (xy -0.591026 1.250288)
    (xy -0.585071 1.258873) (xy -0.577491 1.265572) (xy -0.568381 1.270305) (xy -0.557835 1.272989)
    (xy -0.545948 1.273545) (xy -0.544195 1.273449) (xy -0.533575 1.271789) (xy -0.524646 1.268355)
    (xy -0.517491 1.263193) (xy -0.512192 1.256349) (xy -0.511775 1.255589) (xy -0.50864 1.24968)
    (xy -0.448139 1.24968) (xy -0.448965 1.252537) (xy -0.449834 1.2548) (xy -0.451561 1.258756)
    (xy -0.453883 1.263819) (xy -0.456167 1.268633) (xy -0.459447 1.275142) (xy -0.462438 1.280164)
    (xy -0.465768 1.284578) (xy -0.470065 1.289268) (xy -0.472912 1.292128) (xy -0.483554 1.301507)
    (xy -0.494543 1.308755) (xy -0.506464 1.314178) (xy -0.519905 1.318085) (xy -0.524305 1.319003)
    (xy -0.531325 1.319941) (xy -0.540049 1.320481) (xy -0.549674 1.320628) (xy -0.559397 1.320384)
    (xy -0.568413 1.319753) (xy -0.575649 1.318788) (xy -0.591141 1.314817) (xy -0.605252 1.308805)
    (xy -0.617857 1.300851) (xy -0.628835 1.291053) (xy -0.638063 1.27951) (xy -0.645418 1.266319)
    (xy -0.647652 1.261011) (xy -0.651313 1.250375) (xy -0.65399 1.239709) (xy -0.655781 1.228395)
    (xy -0.656785 1.215817) (xy -0.6571 1.202055) (xy -0.656945 1.190389) (xy -0.656389 1.1811)
    (xy -0.597124 1.1811) (xy -0.551927 1.1811) (xy -0.539597 1.181083) (xy -0.529596 1.181027)
    (xy -0.521714 1.180925) (xy -0.515742 1.180768) (xy -0.511467 1.18055) (xy -0.508681 1.180262)
    (xy -0.507172 1.179898) (xy -0.50673 1.179461) (xy -0.507035 1.177406) (xy -0.507822 1.173791)
    (xy -0.508629 1.170533) (xy -0.512506 1.15955) (xy -0.517873 1.150607) (xy -0.52471 1.143721)
    (xy -0.532999 1.138909) (xy -0.542719 1.136189) (xy -0.547826 1.135635) (xy -0.559252 1.13585)
    (xy -0.569065 1.138005) (xy -0.577361 1.142158) (xy -0.584232 1.148369) (xy -0.589775 1.156698)
    (xy -0.592916 1.163821) (xy -0.594532 1.168757) (xy -0.595845 1.173786) (xy -0.596225 1.175702)
    (xy -0.597124 1.1811) (xy -0.656389 1.1811) (xy -0.656356 1.180556) (xy -0.655226 1.17187)
    (xy -0.653448 1.163644) (xy -0.650913 1.155192) (xy -0.648845 1.14935) (xy -0.64233 1.135165)
    (xy -0.633932 1.122524) (xy -0.623815 1.111582) (xy -0.612145 1.102494) (xy -0.599087 1.095415)
    (xy -0.586679 1.090998) (xy -0.571114 1.087753) (xy -0.555111 1.086411) (xy -0.539172 1.086938)) (layer F.SilkS) (width 0.01))
  (fp_poly (pts (xy -0.301866 1.086894) (xy -0.286265 1.089483) (xy -0.276648 1.092137) (xy -0.262151 1.097981)
    (xy -0.249475 1.105586) (xy -0.238665 1.1149) (xy -0.229766 1.125869) (xy -0.222821 1.13844)
    (xy -0.217875 1.15256) (xy -0.215304 1.165542) (xy -0.214392 1.17221) (xy -0.274073 1.17221)
    (xy -0.276735 1.163637) (xy -0.280764 1.153976) (xy -0.286195 1.146406) (xy -0.293009 1.140951)
    (xy -0.29478 1.139993) (xy -0.298662 1.138261) (xy -0.302294 1.137253) (xy -0.306613 1.136793)
    (xy -0.312352 1.136705) (xy -0.318057 1.136937) (xy -0.323406 1.137501) (xy -0.327421 1.138286)
    (xy -0.328044 1.138483) (xy -0.336617 1.142865) (xy -0.343949 1.149455) (xy -0.350044 1.158258)
    (xy -0.354905 1.169278) (xy -0.355295 1.170417) (xy -0.356495 1.174152) (xy -0.357371 1.177459)
    (xy -0.357973 1.180844) (xy -0.358353 1.184812) (xy -0.358561 1.189871) (xy -0.358647 1.196526)
    (xy -0.358664 1.20396) (xy -0.358597 1.213683) (xy -0.35837 1.221328) (xy -0.357954 1.227353)
    (xy -0.357316 1.232218) (xy -0.356515 1.236038) (xy -0.35274 1.247426) (xy -0.347658 1.256647)
    (xy -0.34124 1.263727) (xy -0.33346 1.268695) (xy -0.324289 1.271576) (xy -0.319313 1.272232)
    (xy -0.308836 1.271961) (xy -0.299468 1.269447) (xy -0.291333 1.264791) (xy -0.284554 1.25809)
    (xy -0.279252 1.249443) (xy -0.27555 1.238948) (xy -0.275014 1.236639) (xy -0.27426 1.233123)
    (xy -0.244763 1.233464) (xy -0.215265 1.233805) (xy -0.215634 1.23825) (xy -0.216771 1.244844)
    (xy -0.219084 1.252848) (xy -0.222335 1.261561) (xy -0.226287 1.270284) (xy -0.227077 1.271846)
    (xy -0.234868 1.284256) (xy -0.24456 1.295098) (xy -0.255943 1.304217) (xy -0.268807 1.311457)
    (xy -0.282942 1.316661) (xy -0.289694 1.318304) (xy -0.298124 1.319595) (xy -0.307964 1.320389)
    (xy -0.318386 1.320677) (xy -0.328559 1.320451) (xy -0.337655 1.319701) (xy -0.3429 1.318867)
    (xy -0.355805 1.315551) (xy -0.366934 1.311123) (xy -0.376936 1.305241) (xy -0.386455 1.29756)
    (xy -0.390677 1.293503) (xy -0.39608 1.287818) (xy -0.400149 1.282792) (xy -0.403546 1.277513)
    (xy -0.406882 1.271174) (xy -0.413267 1.255623) (xy -0.417581 1.239044) (xy -0.419846 1.221289)
    (xy -0.420082 1.202213) (xy -0.418965 1.187182) (xy -0.416248 1.169469) (xy -0.412069 1.153688)
    (xy -0.406335 1.139631) (xy -0.398952 1.127089) (xy -0.389826 1.115855) (xy -0.384659 1.110736)
    (xy -0.373803 1.10236) (xy -0.361328 1.095669) (xy -0.347566 1.09072) (xy -0.332848 1.08757)
    (xy -0.317504 1.086276) (xy -0.301866 1.086894)) (layer F.SilkS) (width 0.01))
  (fp_poly (pts (xy 0.46454 1.0888) (xy 0.481344 1.093512) (xy 0.493395 1.098582) (xy 0.507211 1.106413)
    (xy 0.518957 1.115553) (xy 0.528855 1.126221) (xy 0.537131 1.13864) (xy 0.540409 1.144905)
    (xy 0.544235 1.15333) (xy 0.547123 1.161135) (xy 0.549214 1.168955) (xy 0.550645 1.177425)
    (xy 0.551555 1.187182) (xy 0.552066 1.198245) (xy 0.552227 1.210656) (xy 0.55181 1.221232)
    (xy 0.550726 1.230629) (xy 0.548886 1.239505) (xy 0.546203 1.248515) (xy 0.544788 1.25254)
    (xy 0.538241 1.266873) (xy 0.529646 1.27985) (xy 0.519187 1.291323) (xy 0.507051 1.301144)
    (xy 0.493422 1.309164) (xy 0.478488 1.315236) (xy 0.462434 1.31921) (xy 0.46101 1.319449)
    (xy 0.452833 1.320329) (xy 0.443145 1.320689) (xy 0.432864 1.320549) (xy 0.42291 1.319929)
    (xy 0.4142 1.318851) (xy 0.41148 1.31834) (xy 0.396647 1.314356) (xy 0.383526 1.308913)
    (xy 0.371571 1.301718) (xy 0.360236 1.292475) (xy 0.356037 1.288424) (xy 0.350775 1.283)
    (xy 0.346867 1.278519) (xy 0.34377 1.274233) (xy 0.340942 1.269395) (xy 0.337974 1.263532)
    (xy 0.333939 1.254771) (xy 0.330872 1.246816) (xy 0.328653 1.239079) (xy 0.327164 1.230968)
    (xy 0.326287 1.221894) (xy 0.325902 1.211267) (xy 0.325862 1.203709) (xy 0.386102 1.203709)
    (xy 0.386805 1.218816) (xy 0.388985 1.2319) (xy 0.392679 1.243031) (xy 0.397923 1.252278)
    (xy 0.404754 1.259711) (xy 0.413208 1.2654) (xy 0.420216 1.268418) (xy 0.428644 1.270442)
    (xy 0.438076 1.271185) (xy 0.447622 1.270675) (xy 0.456391 1.26894) (xy 0.46127 1.267159)
    (xy 0.470478 1.261706) (xy 0.477954 1.254523) (xy 0.483783 1.245502) (xy 0.488048 1.234536)
    (xy 0.48883 1.231677) (xy 0.49141 1.218175) (xy 0.492365 1.204758) (xy 0.491766 1.191747)
    (xy 0.489686 1.179461) (xy 0.486197 1.168222) (xy 0.48137 1.158348) (xy 0.475279 1.150161)
    (xy 0.469284 1.144855) (xy 0.462276 1.140745) (xy 0.454657 1.138139) (xy 0.445776 1.136857)
    (xy 0.439323 1.13665) (xy 0.428504 1.137292) (xy 0.419429 1.139327) (xy 0.411619 1.142912)
    (xy 0.404597 1.148207) (xy 0.404595 1.148208) (xy 0.398086 1.15538) (xy 0.393073 1.163746)
    (xy 0.389472 1.173553) (xy 0.387202 1.185049) (xy 0.38618 1.198483) (xy 0.386102 1.203709)
    (xy 0.325862 1.203709) (xy 0.325859 1.203325) (xy 0.325913 1.194588) (xy 0.326051 1.187842)
    (xy 0.326325 1.18254) (xy 0.326785 1.178134) (xy 0.327484 1.174074) (xy 0.328473 1.169812)
    (xy 0.3293 1.166658) (xy 0.334847 1.150484) (xy 0.342311 1.135957) (xy 0.351622 1.123145)
    (xy 0.362711 1.112113) (xy 0.375506 1.102927) (xy 0.389937 1.095655) (xy 0.405935 1.090361)
    (xy 0.41148 1.089074) (xy 0.429378 1.086555) (xy 0.447141 1.086472) (xy 0.46454 1.0888)) (layer F.SilkS) (width 0.01))
  (fp_poly (pts (xy 0.823572 1.087094) (xy 0.833081 1.087987) (xy 0.838755 1.088952) (xy 0.855329 1.093706)
    (xy 0.870342 1.100431) (xy 0.883721 1.109058) (xy 0.895392 1.119518) (xy 0.905283 1.13174)
    (xy 0.913318 1.145655) (xy 0.919425 1.161195) (xy 0.920913 1.166324) (xy 0.924056 1.182039)
    (xy 0.925396 1.198472) (xy 0.924979 1.215106) (xy 0.922854 1.231428) (xy 0.919069 1.246919)
    (xy 0.913671 1.261066) (xy 0.911804 1.264857) (xy 0.903338 1.278417) (xy 0.892999 1.290305)
    (xy 0.880898 1.300433) (xy 0.867147 1.308714) (xy 0.851856 1.315061) (xy 0.845185 1.31708)
    (xy 0.8383 1.318476) (xy 0.829626 1.319524) (xy 0.819892 1.320199) (xy 0.809825 1.320481)
    (xy 0.800157 1.320346) (xy 0.791615 1.319773) (xy 0.785663 1.3189) (xy 0.768879 1.314275)
    (xy 0.753717 1.30773) (xy 0.740234 1.299343) (xy 0.72849 1.289194) (xy 0.718539 1.277362)
    (xy 0.710441 1.263927) (xy 0.704252 1.248968) (xy 0.700029 1.232564) (xy 0.69783 1.214796)
    (xy 0.697773 1.208921) (xy 0.758179 1.208921) (xy 0.75956 1.222164) (xy 0.7624 1.234499)
    (xy 0.766629 1.245444) (xy 0.77026 1.251845) (xy 0.776745 1.259489) (xy 0.784763 1.265168)
    (xy 0.794356 1.2689) (xy 0.805565 1.270702) (xy 0.814212 1.270832) (xy 0.820551 1.270493)
    (xy 0.825278 1.269871) (xy 0.82932 1.268771) (xy 0.833603 1.266999) (xy 0.834532 1.266565)
    (xy 0.842878 1.261646) (xy 0.849551 1.255403) (xy 0.85503 1.247347) (xy 0.856879 1.243751)
    (xy 0.861404 1.23154) (xy 0.863976 1.217829) (xy 0.864607 1.20255) (xy 0.864451 1.198245)
    (xy 0.862981 1.183768) (xy 0.86013 1.171359) (xy 0.855853 1.160927) (xy 0.850101 1.152376)
    (xy 0.842828 1.145616) (xy 0.83595 1.141465) (xy 0.832298 1.139722) (xy 0.829289 1.138546)
    (xy 0.826273 1.137826) (xy 0.822601 1.13745) (xy 0.81762 1.137307) (xy 0.81153 1.137285)
    (xy 0.804825 1.137315) (xy 0.800011 1.137478) (xy 0.796438 1.137886) (xy 0.793458 1.138648)
    (xy 0.79042 1.139876) (xy 0.787192 1.141424) (xy 0.778336 1.147114) (xy 0.771111 1.154679)
    (xy 0.765487 1.164164) (xy 0.761434 1.175613) (xy 0.760074 1.181635) (xy 0.758327 1.19525)
    (xy 0.758179 1.208921) (xy 0.697773 1.208921) (xy 0.697657 1.196975) (xy 0.699476 1.178678)
    (xy 0.703328 1.1618) (xy 0.709155 1.146411) (xy 0.716902 1.132584) (xy 0.726511 1.12039)
    (xy 0.737925 1.109899) (xy 0.751086 1.101184) (xy 0.765937 1.094315) (xy 0.782421 1.089364)
    (xy 0.784225 1.088963) (xy 0.792524 1.08768) (xy 0.802427 1.086941) (xy 0.813065 1.086746)
    (xy 0.823572 1.087094)) (layer F.SilkS) (width 0.01))
  (fp_poly (pts (xy -1.068566 1.011205) (xy -1.047115 1.011555) (xy -1.047115 1.058545) (xy -1.061085 1.059203)
    (xy -1.068772 1.059729) (xy -1.074327 1.060547) (xy -1.078153 1.061775) (xy -1.080652 1.063531)
    (xy -1.081915 1.065296) (xy -1.082527 1.067495) (xy -1.083176 1.071546) (xy -1.083763 1.076763)
    (xy -1.084024 1.079872) (xy -1.084929 1.0922) (xy -1.04648 1.0922) (xy -1.04648 1.134042)
    (xy -1.065213 1.134393) (xy -1.083945 1.134745) (xy -1.084271 1.225232) (xy -1.084597 1.31572)
    (xy -1.143 1.31572) (xy -1.143 1.13411) (xy -1.17475 1.13411) (xy -1.17475 1.0922)
    (xy -1.143 1.0922) (xy -1.142993 1.079182) (xy -1.142603 1.066605) (xy -1.141362 1.056058)
    (xy -1.139144 1.04714) (xy -1.135819 1.039444) (xy -1.13126 1.032568) (xy -1.126566 1.027313)
    (xy -1.121094 1.022313) (xy -1.115512 1.018387) (xy -1.109441 1.015428) (xy -1.1025 1.013331)
    (xy -1.09431 1.011991) (xy -1.08449 1.011301) (xy -1.07266 1.011157) (xy -1.068566 1.011205)) (layer F.SilkS) (width 0.01))
  (fp_poly (pts (xy -0.6731 1.06807) (xy -0.76327 1.06807) (xy -0.76327 1.31572) (xy -0.82677 1.31572)
    (xy -0.82677 1.068102) (xy -0.872173 1.067768) (xy -0.917575 1.067435) (xy -0.917919 1.041082)
    (xy -0.918262 1.01473) (xy -0.6731 1.01473) (xy -0.6731 1.06807)) (layer F.SilkS) (width 0.01))
  (fp_poly (pts (xy -0.115514 1.068387) (xy -0.115458 1.122045) (xy -0.112986 1.117364) (xy -0.108994 1.111605)
    (xy -0.103258 1.105687) (xy -0.096453 1.100215) (xy -0.089256 1.095796) (xy -0.088378 1.095356)
    (xy -0.0783 1.091032) (xy -0.068662 1.088305) (xy -0.058462 1.086953) (xy -0.04953 1.086708)
    (xy -0.034543 1.087746) (xy -0.021182 1.090671) (xy -0.009327 1.095523) (xy 0.001141 1.102345)
    (xy 0.004965 1.105632) (xy 0.012601 1.113697) (xy 0.018408 1.122292) (xy 0.022942 1.132282)
    (xy 0.023933 1.13507) (xy 0.027272 1.144905) (xy 0.027672 1.230336) (xy 0.028071 1.315767)
    (xy -0.031115 1.315085) (xy -0.03175 1.237615) (xy -0.031883 1.221247) (xy -0.032005 1.207218)
    (xy -0.032134 1.195325) (xy -0.032289 1.185366) (xy -0.03249 1.17714) (xy -0.032753 1.170445)
    (xy -0.033099 1.165079) (xy -0.033546 1.16084) (xy -0.034112 1.157526) (xy -0.034816 1.154936)
    (xy -0.035676 1.152867) (xy -0.036711 1.151119) (xy -0.037941 1.149489) (xy -0.039383 1.147775)
    (xy -0.040118 1.146907) (xy -0.043938 1.142993) (xy -0.048076 1.140255) (xy -0.053066 1.138511)
    (xy -0.059443 1.137582) (xy -0.067741 1.137286) (xy -0.06858 1.137285) (xy -0.075103 1.137335)
    (xy -0.079772 1.13756) (xy -0.083272 1.138071) (xy -0.08629 1.138979) (xy -0.089511 1.140395)
    (xy -0.090374 1.140815) (xy -0.098731 1.146295) (xy -0.105485 1.153674) (xy -0.110533 1.162802)
    (xy -0.113775 1.173529) (xy -0.114224 1.17602) (xy -0.114525 1.179214) (xy -0.114794 1.184752)
    (xy -0.115029 1.192437) (xy -0.115225 1.202071) (xy -0.11538 1.213457) (xy -0.115489 1.226399)
    (xy -0.11555 1.240701) (xy -0.115561 1.249997) (xy -0.11557 1.31572) (xy -0.17399 1.31572)
    (xy -0.17399 1.01473) (xy -0.11557 1.01473) (xy -0.115514 1.068387)) (layer F.SilkS) (width 0.01))
  (fp_poly (pts (xy 0.21857 1.087235) (xy 0.226477 1.088355) (xy 0.2286 1.088839) (xy 0.240872 1.093007)
    (xy 0.251999 1.098822) (xy 0.261451 1.105993) (xy 0.263525 1.107999) (xy 0.270525 1.116108)
    (xy 0.275654 1.12451) (xy 0.279414 1.134098) (xy 0.280697 1.138663) (xy 0.281199 1.140731)
    (xy 0.281629 1.142854) (xy 0.281993 1.145235) (xy 0.282297 1.148078) (xy 0.282545 1.151586)
    (xy 0.282745 1.155962) (xy 0.2829 1.161408) (xy 0.283016 1.168128) (xy 0.283099 1.176325)
    (xy 0.283155 1.186202) (xy 0.283188 1.197962) (xy 0.283204 1.211807) (xy 0.283209 1.227942)
    (xy 0.28321 1.232103) (xy 0.28321 1.31572) (xy 0.224918 1.31572) (xy 0.224497 1.239202)
    (xy 0.224406 1.223252) (xy 0.224314 1.209637) (xy 0.224216 1.198154) (xy 0.224105 1.188598)
    (xy 0.223974 1.180765) (xy 0.223816 1.17445) (xy 0.223623 1.16945) (xy 0.22339 1.16556)
    (xy 0.223109 1.162575) (xy 0.222774 1.160292) (xy 0.222377 1.158506) (xy 0.221912 1.157013)
    (xy 0.221712 1.156471) (xy 0.217837 1.14944) (xy 0.212257 1.143557) (xy 0.205586 1.139432)
    (xy 0.203789 1.138736) (xy 0.196612 1.137151) (xy 0.18817 1.13661) (xy 0.179506 1.137093)
    (xy 0.171662 1.138582) (xy 0.169275 1.139347) (xy 0.162029 1.143151) (xy 0.155133 1.148847)
    (xy 0.149217 1.155803) (xy 0.144911 1.163388) (xy 0.144639 1.164044) (xy 0.141605 1.171575)
    (xy 0.141238 1.243647) (xy 0.140871 1.31572) (xy 0.111922 1.31572) (xy 0.103591 1.315684)
    (xy 0.096125 1.315584) (xy 0.089891 1.31543) (xy 0.085262 1.315234) (xy 0.082607 1.315004)
    (xy 0.082126 1.314873) (xy 0.082 1.313505) (xy 0.081879 1.30978) (xy 0.081766 1.303884)
    (xy 0.08166 1.295998) (xy 0.081565 1.286308) (xy 0.081481 1.274997) (xy 0.08141 1.262249)
    (xy 0.081353 1.248247) (xy 0.081311 1.233175) (xy 0.081286 1.217218) (xy 0.08128 1.203113)
    (xy 0.08128 1.0922) (xy 0.138354 1.0922) (xy 0.138709 1.108234) (xy 0.139065 1.124269)
    (xy 0.14402 1.117068) (xy 0.152482 1.106972) (xy 0.162642 1.098651) (xy 0.1742 1.092318)
    (xy 0.184293 1.088814) (xy 0.191439 1.087509) (xy 0.200141 1.086811) (xy 0.209488 1.08672)
    (xy 0.21857 1.087235)) (layer F.SilkS) (width 0.01))
  (fp_poly (pts (xy 0.65405 1.31572) (xy 0.59563 1.31572) (xy 0.59563 1.01473) (xy 0.65405 1.01473)
    (xy 0.65405 1.31572)) (layer F.SilkS) (width 0.01))
  (fp_poly (pts (xy 0.866023 0.753427) (xy 0.870034 0.767236) (xy 0.873852 0.780343) (xy 0.877417 0.792542)
    (xy 0.880668 0.803625) (xy 0.883544 0.813387) (xy 0.885983 0.82162) (xy 0.887924 0.828117)
    (xy 0.889308 0.832671) (xy 0.890072 0.835076) (xy 0.890191 0.835392) (xy 0.890668 0.834484)
    (xy 0.89176 0.831321) (xy 0.893409 0.826098) (xy 0.895558 0.819012) (xy 0.898149 0.810257)
    (xy 0.901124 0.800028) (xy 0.904427 0.78852) (xy 0.908 0.775929) (xy 0.911785 0.762449)
    (xy 0.913843 0.755065) (xy 0.936625 0.6731) (xy 0.967422 0.6731) (xy 0.97756 0.67315)
    (xy 0.985869 0.673295) (xy 0.992182 0.673529) (xy 0.996331 0.673845) (xy 0.998149 0.674237)
    (xy 0.99822 0.67434) (xy 0.99781 0.675666) (xy 0.996628 0.679198) (xy 0.994739 0.684742)
    (xy 0.99221 0.692107) (xy 0.989109 0.701101) (xy 0.985502 0.711532) (xy 0.981457 0.723207)
    (xy 0.977039 0.735935) (xy 0.972317 0.749524) (xy 0.967357 0.763781) (xy 0.962226 0.778515)
    (xy 0.95699 0.793534) (xy 0.951718 0.808645) (xy 0.946476 0.823656) (xy 0.94133 0.838376)
    (xy 0.936348 0.852612) (xy 0.931597 0.866173) (xy 0.927143 0.878866) (xy 0.923054 0.8905)
    (xy 0.919396 0.900881) (xy 0.916237 0.909819) (xy 0.913643 0.917121) (xy 0.911682 0.922595)
    (xy 0.91166 0.922655) (xy 0.906019 0.937306) (xy 0.900499 0.949592) (xy 0.894993 0.959676)
    (xy 0.889394 0.967725) (xy 0.883595 0.973901) (xy 0.877491 0.978369) (xy 0.874537 0.979903)
    (xy 0.869893 0.981812) (xy 0.865113 0.983254) (xy 0.859749 0.984285) (xy 0.853353 0.984966)
    (xy 0.845476 0.985355) (xy 0.835671 0.98551) (xy 0.831676 0.98552) (xy 0.80899 0.98552)
    (xy 0.80899 0.93853) (xy 0.820737 0.938522) (xy 0.826563 0.93838) (xy 0.831967 0.938005)
    (xy 0.836059 0.937469) (xy 0.837079 0.937239) (xy 0.844295 0.934083) (xy 0.850021 0.928993)
    (xy 0.854324 0.921887) (xy 0.857272 0.912678) (xy 0.857452 0.911846) (xy 0.858916 0.904847)
    (xy 0.818518 0.790561) (xy 0.812735 0.774201) (xy 0.807187 0.758508) (xy 0.801934 0.74365)
    (xy 0.797036 0.729795) (xy 0.79255 0.717108) (xy 0.788536 0.705757) (xy 0.785054 0.69591)
    (xy 0.782162 0.687733) (xy 0.779919 0.681394) (xy 0.778385 0.677059) (xy 0.777618 0.674896)
    (xy 0.777543 0.674687) (xy 0.777882 0.674186) (xy 0.779457 0.673795) (xy 0.7825 0.673503)
    (xy 0.78724 0.673299) (xy 0.793907 0.673172) (xy 0.802732 0.67311) (xy 0.809846 0.6731)
    (xy 0.842724 0.6731) (xy 0.866023 0.753427)) (layer F.SilkS) (width 0.01))
  (fp_poly (pts (xy -0.91948 0.696483) (xy -0.919477 0.715986) (xy -0.919459 0.733125) (xy -0.919418 0.748078)
    (xy -0.919343 0.761021) (xy -0.919224 0.77213) (xy -0.919051 0.781583) (xy -0.918815 0.789555)
    (xy -0.918506 0.796224) (xy -0.918114 0.801767) (xy -0.917628 0.806359) (xy -0.917039 0.810178)
    (xy -0.916337 0.8134) (xy -0.915513 0.816202) (xy -0.914555 0.81876) (xy -0.913455 0.821251)
    (xy -0.912355 0.82354) (xy -0.908306 0.829958) (xy -0.902765 0.836255) (xy -0.896477 0.8417)
    (xy -0.89019 0.845567) (xy -0.88946 0.845895) (xy -0.879922 0.848846) (xy -0.869042 0.850303)
    (xy -0.857527 0.85027) (xy -0.846088 0.848752) (xy -0.835432 0.845753) (xy -0.834951 0.845571)
    (xy -0.825994 0.840826) (xy -0.818464 0.834095) (xy -0.812523 0.825593) (xy -0.808334 0.815539)
    (xy -0.806535 0.80772) (xy -0.806265 0.804707) (xy -0.806023 0.799228) (xy -0.80581 0.791356)
    (xy -0.805627 0.781166) (xy -0.805474 0.768731) (xy -0.805353 0.754124) (xy -0.805265 0.737419)
    (xy -0.80521 0.718691) (xy -0.80519 0.698012) (xy -0.80519 0.697547) (xy -0.80518 0.59563)
    (xy -0.74041 0.59563) (xy -0.740433 0.695642) (xy -0.740452 0.712159) (xy -0.740501 0.728056)
    (xy -0.740579 0.743119) (xy -0.740681 0.757136) (xy -0.740806 0.769895) (xy -0.740951 0.781182)
    (xy -0.741115 0.790786) (xy -0.741294 0.798493) (xy -0.741486 0.804092) (xy -0.741689 0.80737)
    (xy -0.741695 0.807428) (xy -0.743226 0.818848) (xy -0.745357 0.828715) (xy -0.748355 0.837991)
    (xy -0.752483 0.847641) (xy -0.753127 0.848995) (xy -0.760457 0.861682) (xy -0.769455 0.872626)
    (xy -0.780204 0.881886) (xy -0.792789 0.889523) (xy -0.807294 0.895597) (xy -0.823802 0.900168)
    (xy -0.824952 0.900416) (xy -0.833578 0.901844) (xy -0.8438 0.902901) (xy -0.854882 0.903563)
    (xy -0.866089 0.90381) (xy -0.876688 0.903618) (xy -0.885942 0.902965) (xy -0.89027 0.902389)
    (xy -0.906963 0.898664) (xy -0.922577 0.893241) (xy -0.93674 0.886278) (xy -0.949082 0.877932)
    (xy -0.950338 0.876915) (xy -0.959924 0.867736) (xy -0.967751 0.857377) (xy -0.973918 0.845623)
    (xy -0.978521 0.832258) (xy -0.981662 0.817069) (xy -0.982988 0.805856) (xy -0.983188 0.802324)
    (xy -0.983378 0.796484) (xy -0.983556 0.788568) (xy -0.983719 0.778808) (xy -0.983864 0.767437)
    (xy -0.98399 0.754685) (xy -0.984093 0.740786) (xy -0.98417 0.725971) (xy -0.98422 0.710473)
    (xy -0.98424 0.694523) (xy -0.98424 0.693737) (xy -0.98425 0.59563) (xy -0.91948 0.59563)
    (xy -0.91948 0.696483)) (layer F.SilkS) (width 0.01))
  (fp_poly (pts (xy 0.02278 0.667907) (xy 0.037684 0.670052) (xy 0.042545 0.671177) (xy 0.050423 0.673787)
    (xy 0.05919 0.677657) (xy 0.067883 0.682304) (xy 0.075543 0.687244) (xy 0.077717 0.688885)
    (xy 0.087465 0.698193) (xy 0.095876 0.709525) (xy 0.102884 0.722706) (xy 0.108423 0.73756)
    (xy 0.112426 0.753913) (xy 0.114828 0.77159) (xy 0.115566 0.788987) (xy 0.11557 0.80137)
    (xy -0.03683 0.80137) (xy -0.036812 0.804862) (xy -0.035958 0.812443) (xy -0.033686 0.820729)
    (xy -0.030319 0.828976) (xy -0.026177 0.836439) (xy -0.021584 0.842376) (xy -0.019875 0.844001)
    (xy -0.013855 0.848349) (xy -0.007294 0.851342) (xy 0.000368 0.853148) (xy 0.009692 0.853936)
    (xy 0.013335 0.854002) (xy 0.019708 0.85398) (xy 0.024258 0.853759) (xy 0.027701 0.85322)
    (xy 0.030752 0.852248) (xy 0.034127 0.850723) (xy 0.03452 0.850531) (xy 0.041054 0.846481)
    (xy 0.046487 0.841486) (xy 0.050228 0.83613) (xy 0.051059 0.834191) (xy 0.052318 0.83058)
    (xy 0.082674 0.83058) (xy 0.091151 0.830604) (xy 0.098716 0.830672) (xy 0.105021 0.830776)
    (xy 0.109718 0.830911) (xy 0.11246 0.831069) (xy 0.11303 0.831186) (xy 0.112614 0.832586)
    (xy 0.111518 0.835712) (xy 0.109971 0.839917) (xy 0.109798 0.840377) (xy 0.103297 0.854135)
    (xy 0.094751 0.866484) (xy 0.084316 0.877282) (xy 0.072147 0.886388) (xy 0.058401 0.893659)
    (xy 0.046355 0.898065) (xy 0.040547 0.899328) (xy 0.032859 0.900307) (xy 0.023936 0.900984)
    (xy 0.014423 0.901339) (xy 0.004966 0.901352) (xy -0.003791 0.901004) (xy -0.0112 0.900274)
    (xy -0.013537 0.899891) (xy -0.029547 0.895787) (xy -0.043811 0.889857) (xy -0.056344 0.882084)
    (xy -0.06716 0.872451) (xy -0.076276 0.860944) (xy -0.083706 0.847545) (xy -0.089465 0.832239)
    (xy -0.093552 0.815104) (xy -0.094661 0.806958) (xy -0.095388 0.797335) (xy -0.095735 0.78691)
    (xy -0.095703 0.77636) (xy -0.095293 0.766359) (xy -0.094816 0.761047) (xy -0.035542 0.761047)
    (xy -0.034324 0.761267) (xy -0.030851 0.761469) (xy -0.025409 0.761647) (xy -0.018282 0.761795)
    (xy -0.009756 0.761907) (xy -0.000117 0.761977) (xy 0.009525 0.762) (xy 0.021434 0.761993)
    (xy 0.031047 0.761964) (xy 0.038609 0.761902) (xy 0.044362 0.761795) (xy 0.04855 0.76163)
    (xy 0.051418 0.761395) (xy 0.053209 0.761078) (xy 0.054168 0.760667) (xy 0.054538 0.760151)
    (xy 0.054578 0.759777) (xy 0.053945 0.754951) (xy 0.052353 0.748951) (xy 0.050105 0.742806)
    (xy 0.048743 0.739828) (xy 0.04314 0.731239) (xy 0.035826 0.724193) (xy 0.029845 0.72039)
    (xy 0.023306 0.718015) (xy 0.015309 0.716639) (xy 0.006754 0.716323) (xy -0.001458 0.717127)
    (xy -0.005378 0.718032) (xy -0.012271 0.721117) (xy -0.019008 0.726039) (xy -0.02485 0.732163)
    (xy -0.028655 0.738026) (xy -0.030294 0.741858) (xy -0.032057 0.746897) (xy -0.033687 0.752286)
    (xy -0.034928 0.757165) (xy -0.035524 0.760678) (xy -0.035542 0.761047) (xy -0.094816 0.761047)
    (xy -0.094505 0.757585) (xy -0.093471 0.751282) (xy -0.088824 0.734901) (xy -0.082515 0.72002)
    (xy -0.074653 0.706803) (xy -0.065346 0.695416) (xy -0.0547 0.686024) (xy -0.048098 0.681641)
    (xy -0.036105 0.675829) (xy -0.022511 0.671491) (xy -0.007827 0.668685) (xy 0.00744 0.667471)
    (xy 0.02278 0.667907)) (layer F.SilkS) (width 0.01))
  (fp_poly (pts (xy 0.410534 0.667896) (xy 0.426499 0.669901) (xy 0.440404 0.673053) (xy 0.4525 0.677445)
    (xy 0.463038 0.683171) (xy 0.472267 0.690322) (xy 0.472974 0.690975) (xy 0.480977 0.700123)
    (xy 0.487346 0.710868) (xy 0.491828 0.722674) (xy 0.49417 0.735007) (xy 0.494254 0.735965)
    (xy 0.494665 0.741045) (xy 0.437515 0.741719) (xy 0.435189 0.733784) (xy 0.432178 0.726479)
    (xy 0.427803 0.720827) (xy 0.42187 0.71672) (xy 0.414181 0.714045) (xy 0.40454 0.712693)
    (xy 0.39751 0.71247) (xy 0.386377 0.713123) (xy 0.377288 0.715066) (xy 0.37029 0.718277)
    (xy 0.36543 0.722733) (xy 0.362757 0.728409) (xy 0.362539 0.729409) (xy 0.362185 0.73419)
    (xy 0.363174 0.738325) (xy 0.365689 0.741935) (xy 0.369911 0.745141) (xy 0.376024 0.748062)
    (xy 0.384209 0.75082) (xy 0.394648 0.753534) (xy 0.40132 0.755031) (xy 0.415937 0.758241)
    (xy 0.42834 0.761122) (xy 0.438818 0.763769) (xy 0.44766 0.766275) (xy 0.455157 0.768734)
    (xy 0.461598 0.77124) (xy 0.467273 0.773886) (xy 0.472473 0.776765) (xy 0.476554 0.779347)
    (xy 0.486067 0.787007) (xy 0.493326 0.795834) (xy 0.498327 0.805818) (xy 0.501066 0.816947)
    (xy 0.501538 0.829211) (xy 0.49974 0.842598) (xy 0.499731 0.842645) (xy 0.495881 0.855099)
    (xy 0.489904 0.866218) (xy 0.481863 0.875948) (xy 0.471825 0.884236) (xy 0.459854 0.891025)
    (xy 0.446016 0.896263) (xy 0.430962 0.899794) (xy 0.423603 0.900711) (xy 0.414498 0.901289)
    (xy 0.404417 0.901528) (xy 0.394132 0.901429) (xy 0.384413 0.900992) (xy 0.376032 0.900216)
    (xy 0.373035 0.89978) (xy 0.356779 0.896112) (xy 0.3423 0.890911) (xy 0.329672 0.884246)
    (xy 0.318973 0.876187) (xy 0.31028 0.866804) (xy 0.303669 0.856167) (xy 0.299216 0.844345)
    (xy 0.296999 0.831407) (xy 0.296938 0.83058) (xy 0.296545 0.824865) (xy 0.326448 0.824525)
    (xy 0.356352 0.824185) (xy 0.357987 0.8321) (xy 0.360744 0.839758) (xy 0.365602 0.846072)
    (xy 0.372617 0.8511) (xy 0.377825 0.853501) (xy 0.381269 0.854731) (xy 0.384603 0.855576)
    (xy 0.388428 0.85611) (xy 0.393348 0.856403) (xy 0.399964 0.856528) (xy 0.403225 0.856547)
    (xy 0.410337 0.856551) (xy 0.415479 0.856446) (xy 0.419221 0.856145) (xy 0.422134 0.855567)
    (xy 0.424786 0.854627) (xy 0.427749 0.85324) (xy 0.428625 0.852805) (xy 0.435241 0.848669)
    (xy 0.43952 0.843942) (xy 0.441644 0.83838) (xy 0.44196 0.83471) (xy 0.441587 0.830578)
    (xy 0.440086 0.827465) (xy 0.437832 0.82494) (xy 0.434938 0.822509) (xy 0.431243 0.820325)
    (xy 0.42643 0.818278) (xy 0.420182 0.816256) (xy 0.412183 0.814151) (xy 0.402115 0.811851)
    (xy 0.397287 0.81082) (xy 0.380224 0.807019) (xy 0.365496 0.80324) (xy 0.352902 0.799382)
    (xy 0.342241 0.795342) (xy 0.333311 0.791018) (xy 0.32591 0.786307) (xy 0.319837 0.781106)
    (xy 0.314892 0.775314) (xy 0.310871 0.768827) (xy 0.309567 0.76621) (xy 0.307597 0.761707)
    (xy 0.306331 0.757763) (xy 0.30558 0.753483) (xy 0.305154 0.74797) (xy 0.305015 0.744778)
    (xy 0.305586 0.73082) (xy 0.30834 0.718052) (xy 0.31318 0.706546) (xy 0.320009 0.696371)
    (xy 0.32873 0.687599) (xy 0.339246 0.680299) (xy 0.35146 0.674544) (xy 0.365276 0.670402)
    (xy 0.380595 0.667946) (xy 0.397322 0.667245) (xy 0.410534 0.667896)) (layer F.SilkS) (width 0.01))
  (fp_poly (pts (xy 0.72644 0.6731) (xy 0.76327 0.6731) (xy 0.76327 0.71501) (xy 0.726373 0.71501)
    (xy 0.727075 0.84702) (xy 0.729964 0.849912) (xy 0.731415 0.851156) (xy 0.733173 0.852007)
    (xy 0.735748 0.852561) (xy 0.739653 0.852911) (xy 0.745399 0.85315) (xy 0.748061 0.853228)
    (xy 0.76327 0.853652) (xy 0.76327 0.897517) (xy 0.753553 0.898338) (xy 0.74519 0.898816)
    (xy 0.735737 0.898987) (xy 0.726107 0.898862) (xy 0.717211 0.898452) (xy 0.710174 0.897797)
    (xy 0.698399 0.895532) (xy 0.688744 0.892015) (xy 0.681068 0.887145) (xy 0.675227 0.880823)
    (xy 0.671079 0.872948) (xy 0.669913 0.869514) (xy 0.669503 0.867786) (xy 0.669154 0.865451)
    (xy 0.668863 0.86231) (xy 0.668623 0.858165) (xy 0.668432 0.852817) (xy 0.668283 0.846067)
    (xy 0.668172 0.837717) (xy 0.668096 0.827569) (xy 0.668048 0.815422) (xy 0.668024 0.80108)
    (xy 0.66802 0.789074) (xy 0.66802 0.71501) (xy 0.63754 0.71501) (xy 0.63754 0.6731)
    (xy 0.66802 0.6731) (xy 0.66802 0.61214) (xy 0.72644 0.61214) (xy 0.72644 0.6731)) (layer F.SilkS) (width 0.01))
  (fp_poly (pts (xy -0.547715 0.668144) (xy -0.53986 0.669183) (xy -0.53721 0.669762) (xy -0.524025 0.674275)
    (xy -0.512419 0.680663) (xy -0.502519 0.688803) (xy -0.494453 0.698568) (xy -0.488346 0.709836)
    (xy -0.484568 0.721427) (xy -0.484173 0.723436) (xy -0.483833 0.725988) (xy -0.483545 0.729274)
    (xy -0.483305 0.733484) (xy -0.483109 0.73881) (xy -0.482953 0.745441) (xy -0.482832 0.75357)
    (xy -0.482742 0.763386) (xy -0.48268 0.775082) (xy -0.482642 0.788847) (xy -0.482623 0.804873)
    (xy -0.482619 0.813117) (xy -0.4826 0.89662) (xy -0.540876 0.89662) (xy -0.541302 0.820102)
    (xy -0.541397 0.804028) (xy -0.541495 0.790296) (xy -0.541601 0.778705) (xy -0.541723 0.769057)
    (xy -0.541865 0.761153) (xy -0.542035 0.754793) (xy -0.542238 0.749779) (xy -0.54248 0.745911)
    (xy -0.542768 0.742991) (xy -0.543108 0.740819) (xy -0.543506 0.739196) (xy -0.543841 0.738234)
    (xy -0.547366 0.731215) (xy -0.551938 0.72595) (xy -0.557998 0.721797) (xy -0.561086 0.720189)
    (xy -0.56384 0.719144) (xy -0.566943 0.718542) (xy -0.571075 0.718263) (xy -0.576916 0.718186)
    (xy -0.578485 0.718185) (xy -0.584959 0.718249) (xy -0.589614 0.718519) (xy -0.593169 0.719109)
    (xy -0.596343 0.720131) (xy -0.59944 0.721503) (xy -0.60685 0.726051) (xy -0.613354 0.73199)
    (xy -0.618184 0.738602) (xy -0.618621 0.739418) (xy -0.619916 0.742032) (xy -0.621019 0.744568)
    (xy -0.621943 0.747249) (xy -0.622705 0.750295) (xy -0.623321 0.753928) (xy -0.623805 0.758369)
    (xy -0.624175 0.76384) (xy -0.624444 0.77056) (xy -0.624629 0.778753) (xy -0.624746 0.788639)
    (xy -0.62481 0.80044) (xy -0.624836 0.814376) (xy -0.62484 0.827671) (xy -0.62484 0.89662)
    (xy -0.68453 0.89662) (xy -0.68453 0.6731) (xy -0.627456 0.6731) (xy -0.627101 0.689269)
    (xy -0.626745 0.705438) (xy -0.622496 0.69881) (xy -0.615033 0.689416) (xy -0.605673 0.681298)
    (xy -0.594874 0.674779) (xy -0.583094 0.670182) (xy -0.581311 0.669689) (xy -0.57438 0.668445)
    (xy -0.565873 0.667774) (xy -0.556686 0.667674) (xy -0.547715 0.668144)) (layer F.SilkS) (width 0.01))
  (fp_poly (pts (xy -0.367341 0.784542) (xy -0.367665 0.895985) (xy -0.397193 0.896325) (xy -0.42672 0.896666)
    (xy -0.42672 0.6731) (xy -0.367017 0.6731) (xy -0.367341 0.784542)) (layer F.SilkS) (width 0.01))
  (fp_poly (pts (xy -0.112226 0.675957) (xy -0.112759 0.677549) (xy -0.114093 0.681356) (xy -0.116166 0.687205)
    (xy -0.118917 0.694921) (xy -0.122283 0.704331) (xy -0.126202 0.715261) (xy -0.130611 0.727539)
    (xy -0.135449 0.740989) (xy -0.140652 0.75544) (xy -0.14616 0.770716) (xy -0.151909 0.786645)
    (xy -0.152182 0.7874) (xy -0.191396 0.895985) (xy -0.222381 0.896311) (xy -0.253365 0.896637)
    (xy -0.293074 0.785821) (xy -0.298831 0.769745) (xy -0.304336 0.754348) (xy -0.309532 0.739799)
    (xy -0.314356 0.726265) (xy -0.318751 0.713915) (xy -0.322657 0.702917) (xy -0.326013 0.69344)
    (xy -0.328759 0.68565) (xy -0.330838 0.679717) (xy -0.332187 0.675809) (xy -0.332749 0.674093)
    (xy -0.332761 0.674031) (xy -0.331542 0.67378) (xy -0.328118 0.67358) (xy -0.322827 0.673436)
    (xy -0.316004 0.673354) (xy -0.307984 0.673343) (xy -0.300155 0.673396) (xy -0.267569 0.673735)
    (xy -0.244645 0.755479) (xy -0.239626 0.77331) (xy -0.235238 0.788746) (xy -0.231465 0.801848)
    (xy -0.228288 0.812677) (xy -0.225688 0.821293) (xy -0.223647 0.827756) (xy -0.222148 0.832129)
    (xy -0.221171 0.834471) (xy -0.220703 0.834854) (xy -0.220176 0.833234) (xy -0.219013 0.829392)
    (xy -0.217279 0.82355) (xy -0.215039 0.815927) (xy -0.212356 0.806746) (xy -0.209295 0.796226)
    (xy -0.205921 0.784587) (xy -0.202298 0.772051) (xy -0.19867 0.75946) (xy -0.19483 0.746118)
    (xy -0.191153 0.73334) (xy -0.187706 0.721363) (xy -0.184558 0.710426) (xy -0.181778 0.700766)
    (xy -0.179433 0.692621) (xy -0.177593 0.686228) (xy -0.176325 0.681826) (xy -0.175732 0.679767)
    (xy -0.17381 0.6731) (xy -0.111485 0.6731) (xy -0.112226 0.675957)) (layer F.SilkS) (width 0.01))
  (fp_poly (pts (xy 0.276617 0.667359) (xy 0.277177 0.667428) (xy 0.28321 0.668258) (xy 0.28321 0.727519)
    (xy 0.269369 0.727457) (xy 0.256407 0.728046) (xy 0.245445 0.730007) (xy 0.236284 0.733442)
    (xy 0.228727 0.73845) (xy 0.222573 0.745133) (xy 0.217625 0.753591) (xy 0.217553 0.753745)
    (xy 0.213995 0.761365) (xy 0.212725 0.895985) (xy 0.183197 0.896325) (xy 0.15367 0.896666)
    (xy 0.15367 0.6731) (xy 0.21082 0.6731) (xy 0.21082 0.711781) (xy 0.216394 0.702283)
    (xy 0.2241 0.690801) (xy 0.232335 0.681688) (xy 0.241048 0.674993) (xy 0.249071 0.671141)
    (xy 0.255755 0.669266) (xy 0.263253 0.667921) (xy 0.270547 0.667241) (xy 0.276617 0.667359)) (layer F.SilkS) (width 0.01))
  (fp_poly (pts (xy 0.60452 0.89662) (xy 0.5461 0.89662) (xy 0.5461 0.6731) (xy 0.60452 0.6731)
    (xy 0.60452 0.89662)) (layer F.SilkS) (width 0.01))
  (fp_poly (pts (xy -0.397193 0.592114) (xy -0.367665 0.592455) (xy -0.367323 0.619442) (xy -0.36698 0.64643)
    (xy -0.42672 0.64643) (xy -0.42672 0.591773) (xy -0.397193 0.592114)) (layer F.SilkS) (width 0.01))
  (fp_poly (pts (xy 0.60452 0.64643) (xy 0.5461 0.64643) (xy 0.5461 0.59182) (xy 0.60452 0.59182)
    (xy 0.60452 0.64643)) (layer F.SilkS) (width 0.01))
  (fp_poly (pts (xy -1.020351 0.16965) (xy -1.001577 0.172919) (xy -0.983934 0.178277) (xy -0.967553 0.185651)
    (xy -0.952559 0.194968) (xy -0.939082 0.206154) (xy -0.927249 0.219136) (xy -0.917189 0.233841)
    (xy -0.913123 0.2413) (xy -0.906755 0.256159) (xy -0.901826 0.27239) (xy -0.89832 0.289647)
    (xy -0.896219 0.307587) (xy -0.895505 0.325865) (xy -0.89616 0.344138) (xy -0.898168 0.362061)
    (xy -0.901511 0.37929) (xy -0.906172 0.395481) (xy -0.912133 0.410289) (xy -0.919376 0.423372)
    (xy -0.922588 0.42799) (xy -0.92684 0.433705) (xy -0.893884 0.465455) (xy -0.91081 0.482197)
    (xy -0.927735 0.49894) (xy -0.945408 0.482109) (xy -0.963081 0.465277) (xy -0.971443 0.469512)
    (xy -0.979237 0.472993) (xy -0.988616 0.476457) (xy -0.998641 0.479592) (xy -1.008374 0.482091)
    (xy -1.011555 0.48276) (xy -1.018449 0.483706) (xy -1.027133 0.484289) (xy -1.036886 0.484517)
    (xy -1.046987 0.484397) (xy -1.056712 0.483939) (xy -1.065341 0.483149) (xy -1.071829 0.482107)
    (xy -1.091109 0.476832) (xy -1.108648 0.469729) (xy -1.124427 0.460814) (xy -1.138427 0.450104)
    (xy -1.150628 0.437615) (xy -1.161011 0.423364) (xy -1.169557 0.407365) (xy -1.173994 0.396381)
    (xy -1.178912 0.379715) (xy -1.18237 0.361479) (xy -1.184341 0.342198) (xy -1.18453 0.333922)
    (xy -1.121225 0.333922) (xy -1.120541 0.347182) (xy -1.118911 0.359076) (xy -1.116243 0.370133)
    (xy -1.112446 0.380881) (xy -1.109082 0.388477) (xy -1.102124 0.400269) (xy -1.093415 0.410385)
    (xy -1.083219 0.418695) (xy -1.071802 0.425067) (xy -1.059427 0.429373) (xy -1.046359 0.431481)
    (xy -1.032862 0.431261) (xy -1.024809 0.429988) (xy -1.019555 0.428707) (xy -1.014497 0.427201)
    (xy -1.011474 0.426094) (xy -1.006475 0.423967) (xy -1.021638 0.40963) (xy -1.036801 0.395292)
    (xy -1.021077 0.378938) (xy -1.015963 0.373651) (xy -1.011437 0.369031) (xy -1.007798 0.365379)
    (xy -1.005347 0.362997) (xy -1.004407 0.362188) (xy -1.003209 0.362878) (xy -1.000505 0.36504)
    (xy -0.996624 0.36839) (xy -0.991898 0.372648) (xy -0.988459 0.375834) (xy -0.983359 0.380564)
    (xy -0.978905 0.384616) (xy -0.975424 0.387697) (xy -0.973243 0.389515) (xy -0.972676 0.389883)
    (xy -0.971666 0.388777) (xy -0.97012 0.385835) (xy -0.968278 0.381641) (xy -0.966383 0.376777)
    (xy -0.964676 0.371825) (xy -0.963471 0.367665) (xy -0.960788 0.353798) (xy -0.959284 0.338674)
    (xy -0.95895 0.323009) (xy -0.959776 0.307517) (xy -0.961752 0.292914) (xy -0.964639 0.28067)
    (xy -0.967677 0.272385) (xy -0.971829 0.263643) (xy -0.976563 0.255469) (xy -0.980826 0.249512)
    (xy -0.990422 0.239591) (xy -1.001172 0.23192) (xy -1.01311 0.226483) (xy -1.026271 0.223266)
    (xy -1.04013 0.22225) (xy -1.054579 0.223392) (xy -1.067875 0.226784) (xy -1.079929 0.232367)
    (xy -1.090652 0.240086) (xy -1.099954 0.249885) (xy -1.107745 0.261707) (xy -1.110095 0.266304)
    (xy -1.114627 0.27757) (xy -1.117908 0.289918) (xy -1.120029 0.303773) (xy -1.121051 0.31877)
    (xy -1.121225 0.333922) (xy -1.18453 0.333922) (xy -1.184795 0.322402) (xy -1.183705 0.302618)
    (xy -1.181041 0.283372) (xy -1.180307 0.279585) (xy -1.176552 0.26517) (xy -1.171275 0.250739)
    (xy -1.1648 0.237022) (xy -1.157449 0.224754) (xy -1.153984 0.219955) (xy -1.142522 0.207113)
    (xy -1.12928 0.195963) (xy -1.11445 0.186589) (xy -1.098219 0.179077) (xy -1.080778 0.173512)
    (xy -1.062316 0.169981) (xy -1.043022 0.168568) (xy -1.04013 0.168545) (xy -1.020351 0.16965)) (layer F.SilkS) (width 0.01))
  (fp_poly (pts (xy -0.791185 0.323532) (xy -0.791158 0.337089) (xy -0.791088 0.350057) (xy -0.790979 0.362173)
    (xy -0.790837 0.373173) (xy -0.790666 0.382795) (xy -0.790468 0.390776) (xy -0.79025 0.396851)
    (xy -0.790016 0.400759) (xy -0.789914 0.401681) (xy -0.787543 0.411698) (xy -0.783587 0.41975)
    (xy -0.77801 0.425867) (xy -0.770776 0.430077) (xy -0.761846 0.432408) (xy -0.751185 0.432888)
    (xy -0.749495 0.432806) (xy -0.738811 0.431048) (xy -0.729499 0.427195) (xy -0.721685 0.421361)
    (xy -0.715494 0.413663) (xy -0.711049 0.404217) (xy -0.708731 0.39486) (xy -0.708435 0.391708)
    (xy -0.708168 0.386213) (xy -0.707936 0.378572) (xy -0.70774 0.368981) (xy -0.707586 0.357638)
    (xy -0.707476 0.34474) (xy -0.707413 0.330483) (xy -0.7074 0.320357) (xy -0.70739 0.254)
    (xy -0.64897 0.254) (xy -0.64897 0.47752) (xy -0.704775 0.47752) (xy -0.705485 0.445438)
    (xy -0.709648 0.451867) (xy -0.716349 0.460174) (xy -0.724965 0.467696) (xy -0.7349 0.474026)
    (xy -0.745559 0.47876) (xy -0.751971 0.480647) (xy -0.759081 0.481802) (xy -0.767686 0.48241)
    (xy -0.776919 0.482479) (xy -0.785912 0.482018) (xy -0.793798 0.481034) (xy -0.797595 0.480208)
    (xy -0.810174 0.475628) (xy -0.821088 0.46913) (xy -0.830334 0.460716) (xy -0.837911 0.450388)
    (xy -0.843818 0.438148) (xy -0.845999 0.43179) (xy -0.846574 0.429863) (xy -0.847068 0.427999)
    (xy -0.847489 0.425998) (xy -0.847844 0.423658) (xy -0.84814 0.42078) (xy -0.848385 0.417161)
    (xy -0.848584 0.412602) (xy -0.848746 0.406902) (xy -0.848877 0.399859) (xy -0.848985 0.391273)
    (xy -0.849077 0.380943) (xy -0.84916 0.368668) (xy -0.849241 0.354248) (xy -0.849323 0.338137)
    (xy -0.849748 0.254) (xy -0.79121 0.254) (xy -0.791185 0.323532)) (layer F.SilkS) (width 0.01))
  (fp_poly (pts (xy -0.488496 0.249551) (xy -0.473168 0.25227) (xy -0.45932 0.2569) (xy -0.446793 0.263497)
    (xy -0.435428 0.272118) (xy -0.432379 0.274955) (xy -0.423087 0.285417) (xy -0.415463 0.297212)
    (xy -0.409449 0.310497) (xy -0.404987 0.325432) (xy -0.402019 0.342176) (xy -0.400487 0.360886)
    (xy -0.400432 0.362267) (xy -0.39969 0.38227) (xy -0.55245 0.38227) (xy -0.55245 0.385241)
    (xy -0.552029 0.388901) (xy -0.550918 0.394107) (xy -0.549344 0.400038) (xy -0.547536 0.405873)
    (xy -0.545721 0.410789) (xy -0.54481 0.41279) (xy -0.540169 0.4196) (xy -0.533821 0.425772)
    (xy -0.526595 0.430559) (xy -0.523521 0.431967) (xy -0.517199 0.433741) (xy -0.50956 0.4348)
    (xy -0.501389 0.43514) (xy -0.493469 0.434755) (xy -0.486584 0.433638) (xy -0.482445 0.43226)
    (xy -0.476538 0.428852) (xy -0.471149 0.424528) (xy -0.466923 0.419883) (xy -0.464608 0.415815)
    (xy -0.46304 0.41148) (xy -0.402315 0.41148) (xy -0.403184 0.414972) (xy -0.404118 0.417714)
    (xy -0.405845 0.421963) (xy -0.408046 0.426945) (xy -0.408824 0.428625) (xy -0.416341 0.441703)
    (xy -0.425826 0.453283) (xy -0.437094 0.463206) (xy -0.449957 0.471316) (xy -0.464227 0.477455)
    (xy -0.468665 0.478862) (xy -0.47506 0.480238) (xy -0.48331 0.481279) (xy -0.492753 0.481967)
    (xy -0.502723 0.482282) (xy -0.512558 0.482205) (xy -0.521592 0.481717) (xy -0.529161 0.480797)
    (xy -0.529929 0.480659) (xy -0.545653 0.476588) (xy -0.559712 0.4706) (xy -0.572102 0.462701)
    (xy -0.582817 0.452897) (xy -0.591856 0.441191) (xy -0.599212 0.42759) (xy -0.604883 0.412099)
    (xy -0.608865 0.394722) (xy -0.61092 0.378437) (xy -0.611545 0.35983) (xy -0.610303 0.3429)
    (xy -0.551117 0.3429) (xy -0.460665 0.3429) (xy -0.461424 0.337362) (xy -0.463938 0.32728)
    (xy -0.468443 0.317926) (xy -0.474617 0.309784) (xy -0.482135 0.303336) (xy -0.485639 0.301237)
    (xy -0.488771 0.299702) (xy -0.491642 0.298708) (xy -0.494938 0.298139) (xy -0.499347 0.297879)
    (xy -0.505558 0.297815) (xy -0.506095 0.297815) (xy -0.512469 0.29787) (xy -0.516989 0.298113)
    (xy -0.520344 0.298656) (xy -0.523218 0.299616) (xy -0.526299 0.301105) (xy -0.526496 0.301208)
    (xy -0.534763 0.306977) (xy -0.541415 0.314704) (xy -0.546453 0.324392) (xy -0.549877 0.336041)
    (xy -0.550397 0.338772) (xy -0.551117 0.3429) (xy -0.610303 0.3429) (xy -0.610241 0.342066)
    (xy -0.607065 0.325352) (xy -0.602076 0.309894) (xy -0.595332 0.295899) (xy -0.58689 0.283574)
    (xy -0.582968 0.279068) (xy -0.572375 0.269179) (xy -0.560886 0.261335) (xy -0.548281 0.255453)
    (xy -0.534343 0.251446) (xy -0.518853 0.249228) (xy -0.50546 0.248684) (xy -0.488496 0.249551)) (layer F.SilkS) (width 0.01))
  (fp_poly (pts (xy -0.2555 0.249464) (xy -0.241414 0.252069) (xy -0.234383 0.254122) (xy -0.224101 0.258012)
    (xy -0.215516 0.262362) (xy -0.207783 0.267662) (xy -0.201017 0.273499) (xy -0.19111 0.284285)
    (xy -0.182977 0.296498) (xy -0.176577 0.310248) (xy -0.17187 0.325645) (xy -0.168815 0.342802)
    (xy -0.167372 0.361829) (xy -0.167275 0.36576) (xy -0.167005 0.381635) (xy -0.243442 0.381962)
    (xy -0.319878 0.382289) (xy -0.319209 0.387042) (xy -0.316569 0.399989) (xy -0.312554 0.410825)
    (xy -0.307105 0.419608) (xy -0.300164 0.4264) (xy -0.291674 0.43126) (xy -0.281574 0.434248)
    (xy -0.272298 0.435331) (xy -0.265124 0.435502) (xy -0.259552 0.435101) (xy -0.254695 0.434055)
    (xy -0.253833 0.433793) (xy -0.245853 0.430353) (xy -0.239056 0.425595) (xy -0.233993 0.419947)
    (xy -0.232463 0.417302) (xy -0.229644 0.41148) (xy -0.199912 0.41148) (xy -0.190047 0.411458)
    (xy -0.182481 0.411484) (xy -0.176976 0.411691) (xy -0.173292 0.412211) (xy -0.171189 0.413179)
    (xy -0.17043 0.414729) (xy -0.170774 0.416993) (xy -0.171983 0.420107) (xy -0.173818 0.424202)
    (xy -0.174476 0.425692) (xy -0.181784 0.439475) (xy -0.190871 0.45145) (xy -0.201705 0.461595)
    (xy -0.214254 0.469882) (xy -0.228485 0.476287) (xy -0.244241 0.480758) (xy -0.24871 0.4814)
    (xy -0.255024 0.481906) (xy -0.262487 0.482261) (xy -0.270407 0.48245) (xy -0.278091 0.482459)
    (xy -0.284845 0.482271) (xy -0.289975 0.481873) (xy -0.29083 0.481754) (xy -0.307448 0.478067)
    (xy -0.322349 0.472514) (xy -0.33552 0.465115) (xy -0.346948 0.455887) (xy -0.35662 0.44485)
    (xy -0.364523 0.432021) (xy -0.370644 0.417419) (xy -0.374969 0.401062) (xy -0.377487 0.38297)
    (xy -0.378184 0.363159) (xy -0.378078 0.35814) (xy -0.377171 0.343649) (xy -0.377063 0.3429)
    (xy -0.317789 0.3429) (xy -0.227394 0.3429) (xy -0.228113 0.338772) (xy -0.231158 0.326915)
    (xy -0.235797 0.31697) (xy -0.241978 0.308986) (xy -0.249646 0.303014) (xy -0.258748 0.299103)
    (xy -0.269229 0.297302) (xy -0.27305 0.29718) (xy -0.283931 0.298278) (xy -0.293488 0.30151)
    (xy -0.301615 0.306779) (xy -0.308207 0.313988) (xy -0.313157 0.323043) (xy -0.31636 0.333846)
    (xy -0.316892 0.336917) (xy -0.317789 0.3429) (xy -0.377063 0.3429) (xy -0.375329 0.330922)
    (xy -0.372404 0.319306) (xy -0.368245 0.308149) (xy -0.365207 0.301625) (xy -0.357845 0.288807)
    (xy -0.349426 0.27807) (xy -0.339609 0.269055) (xy -0.32805 0.261406) (xy -0.325063 0.259778)
    (xy -0.313123 0.254719) (xy -0.299639 0.251124) (xy -0.285169 0.249027) (xy -0.27027 0.248462)
    (xy -0.2555 0.249464)) (layer F.SilkS) (width 0.01))
  (fp_poly (pts (xy 0.221989 0.248503) (xy 0.236788 0.24983) (xy 0.251012 0.252445) (xy 0.264199 0.25635)
    (xy 0.27305 0.260089) (xy 0.282343 0.265755) (xy 0.290948 0.273113) (xy 0.29823 0.281541)
    (xy 0.303177 0.289627) (xy 0.306148 0.296642) (xy 0.308629 0.304289) (xy 0.31037 0.311659)
    (xy 0.311119 0.317845) (xy 0.311131 0.318452) (xy 0.31115 0.32258) (xy 0.254301 0.32258)
    (xy 0.252893 0.317182) (xy 0.25027 0.309659) (xy 0.246629 0.304036) (xy 0.241535 0.299737)
    (xy 0.238125 0.297815) (xy 0.234922 0.296273) (xy 0.232174 0.295216) (xy 0.229291 0.294551)
    (xy 0.225681 0.294188) (xy 0.220754 0.294036) (xy 0.213918 0.294005) (xy 0.21336 0.294005)
    (xy 0.206289 0.29404) (xy 0.201193 0.294196) (xy 0.197506 0.294552) (xy 0.194665 0.295185)
    (xy 0.192104 0.296171) (xy 0.190003 0.297201) (xy 0.184483 0.301116) (xy 0.1808 0.305973)
    (xy 0.179071 0.311326) (xy 0.179414 0.316728) (xy 0.181946 0.321733) (xy 0.183197 0.323139)
    (xy 0.185844 0.3254) (xy 0.189158 0.327437) (xy 0.193446 0.329355) (xy 0.199017 0.331258)
    (xy 0.206178 0.333254) (xy 0.215238 0.335446) (xy 0.226211 0.337879) (xy 0.238658 0.340614)
    (xy 0.248988 0.343023) (xy 0.257587 0.345221) (xy 0.264841 0.347321) (xy 0.271134 0.349437)
    (xy 0.276852 0.351684) (xy 0.282381 0.354174) (xy 0.283998 0.354956) (xy 0.294433 0.361056)
    (xy 0.303151 0.36821) (xy 0.309848 0.376141) (xy 0.312965 0.381562) (xy 0.316687 0.39228)
    (xy 0.318303 0.403812) (xy 0.317912 0.415705) (xy 0.315609 0.427509) (xy 0.311492 0.438772)
    (xy 0.30566 0.449042) (xy 0.298208 0.457868) (xy 0.296093 0.459805) (xy 0.29042 0.463971)
    (xy 0.283014 0.468318) (xy 0.274622 0.47248) (xy 0.26599 0.476088) (xy 0.257867 0.478775)
    (xy 0.257175 0.478962) (xy 0.251147 0.480135) (xy 0.243198 0.481072) (xy 0.233934 0.481754)
    (xy 0.223965 0.482167) (xy 0.213899 0.482294) (xy 0.204343 0.482117) (xy 0.195907 0.481622)
    (xy 0.18923 0.480796) (xy 0.173216 0.477047) (xy 0.158899 0.471822) (xy 0.146378 0.465211)
    (xy 0.135751 0.457302) (xy 0.127116 0.448182) (xy 0.120571 0.437941) (xy 0.116215 0.426666)
    (xy 0.114146 0.414446) (xy 0.114079 0.413385) (xy 0.113665 0.405765) (xy 0.173284 0.405765)
    (xy 0.174212 0.4112) (xy 0.176813 0.419349) (xy 0.181517 0.426191) (xy 0.188155 0.431555)
    (xy 0.196559 0.43527) (xy 0.198479 0.43581) (xy 0.202805 0.436553) (xy 0.208989 0.437115)
    (xy 0.216349 0.437446) (xy 0.221615 0.437515) (xy 0.228514 0.43748) (xy 0.233482 0.437316)
    (xy 0.237128 0.436931) (xy 0.240061 0.436234) (xy 0.242891 0.435132) (xy 0.245396 0.433944)
    (xy 0.251924 0.429881) (xy 0.256191 0.42509) (xy 0.258439 0.419265) (xy 0.258768 0.417174)
    (xy 0.258433 0.411622) (xy 0.255961 0.406972) (xy 0.251207 0.403018) (xy 0.247301 0.40094)
    (xy 0.24446 0.399695) (xy 0.241414 0.398545) (xy 0.237825 0.397401) (xy 0.233354 0.396172)
    (xy 0.227662 0.394772) (xy 0.22041 0.39311) (xy 0.211261 0.391098) (xy 0.202996 0.389317)
    (xy 0.188303 0.385947) (xy 0.175844 0.382581) (xy 0.165316 0.379092) (xy 0.156415 0.375353)
    (xy 0.148838 0.371237) (xy 0.142283 0.36662) (xy 0.136798 0.361725) (xy 0.129498 0.352822)
    (xy 0.124493 0.342848) (xy 0.121779 0.331791) (xy 0.121352 0.319636) (xy 0.121961 0.313387)
    (xy 0.124966 0.299859) (xy 0.13005 0.287647) (xy 0.137123 0.276891) (xy 0.146094 0.267731)
    (xy 0.155582 0.261047) (xy 0.16631 0.255994) (xy 0.178777 0.252209) (xy 0.192521 0.249696)
    (xy 0.207079 0.24846) (xy 0.221989 0.248503)) (layer F.SilkS) (width 0.01))
  (fp_poly (pts (xy 0.582322 0.248863) (xy 0.582781 0.248906) (xy 0.599336 0.251324) (xy 0.613916 0.255265)
    (xy 0.6265 0.260718) (xy 0.637071 0.267673) (xy 0.64561 0.27612) (xy 0.652098 0.286049)
    (xy 0.65245 0.286749) (xy 0.657225 0.296405) (xy 0.657947 0.37331) (xy 0.658135 0.390932)
    (xy 0.658348 0.406562) (xy 0.658584 0.42012) (xy 0.658842 0.431528) (xy 0.659118 0.440707)
    (xy 0.659411 0.447578) (xy 0.659719 0.452061) (xy 0.66002 0.454025) (xy 0.662209 0.459555)
    (xy 0.66433 0.463234) (xy 0.6668 0.465703) (xy 0.6682 0.466629) (xy 0.670834 0.468676)
    (xy 0.671655 0.471155) (xy 0.671584 0.472871) (xy 0.671195 0.476885) (xy 0.63924 0.477224)
    (xy 0.607286 0.477563) (xy 0.605143 0.467699) (xy 0.60404 0.462579) (xy 0.60309 0.458086)
    (xy 0.602474 0.455078) (xy 0.602418 0.454789) (xy 0.601996 0.453072) (xy 0.60127 0.452694)
    (xy 0.599708 0.453795) (xy 0.597146 0.456166) (xy 0.58599 0.465558) (xy 0.574695 0.472711)
    (xy 0.562778 0.4779) (xy 0.555286 0.480146) (xy 0.548205 0.481457) (xy 0.539725 0.48226)
    (xy 0.530665 0.482547) (xy 0.521845 0.482308) (xy 0.514083 0.481535) (xy 0.509536 0.480624)
    (xy 0.497245 0.476125) (xy 0.486633 0.469771) (xy 0.477801 0.461699) (xy 0.470855 0.452048)
    (xy 0.465898 0.440957) (xy 0.463034 0.428563) (xy 0.46232 0.41783) (xy 0.462566 0.414722)
    (xy 0.521652 0.414722) (xy 0.522725 0.422857) (xy 0.525805 0.429629) (xy 0.530681 0.434916)
    (xy 0.537145 0.438595) (xy 0.544987 0.440545) (xy 0.553998 0.440642) (xy 0.563245 0.438963)
    (xy 0.573384 0.435312) (xy 0.58235 0.430211) (xy 0.589649 0.423981) (xy 0.593046 0.419797)
    (xy 0.596236 0.414301) (xy 0.598479 0.408226) (xy 0.599891 0.401051) (xy 0.600587 0.392258)
    (xy 0.60071 0.385214) (xy 0.600597 0.377809) (xy 0.600242 0.37281) (xy 0.599616 0.37009)
    (xy 0.598694 0.369525) (xy 0.597596 0.370741) (xy 0.595738 0.372009) (xy 0.591744 0.373587)
    (xy 0.585983 0.375368) (xy 0.578823 0.377245) (xy 0.570634 0.379109) (xy 0.564639 0.38032)
    (xy 0.555284 0.382201) (xy 0.54801 0.383902) (xy 0.54238 0.385579) (xy 0.537958 0.387389)
    (xy 0.534307 0.389487) (xy 0.530991 0.392028) (xy 0.530414 0.392528) (xy 0.526065 0.397133)
    (xy 0.52334 0.402164) (xy 0.521965 0.408317) (xy 0.521652 0.414722) (xy 0.462566 0.414722)
    (xy 0.463428 0.403842) (xy 0.466696 0.391118) (xy 0.472053 0.379756) (xy 0.479432 0.369855)
    (xy 0.488762 0.361513) (xy 0.499974 0.354831) (xy 0.509116 0.351122) (xy 0.512988 0.350056)
    (xy 0.518951 0.348728) (xy 0.526583 0.347221) (xy 0.535456 0.345616) (xy 0.545148 0.343992)
    (xy 0.551842 0.342942) (xy 0.561025 0.341502) (xy 0.569566 0.340085) (xy 0.577086 0.338761)
    (xy 0.583205 0.3376) (xy 0.587547 0.336669) (xy 0.58967 0.336065) (xy 0.595359 0.332465)
    (xy 0.598949 0.327498) (xy 0.60037 0.321326) (xy 0.59955 0.31411) (xy 0.599448 0.31372)
    (xy 0.596686 0.30735) (xy 0.592166 0.302445) (xy 0.585789 0.298957) (xy 0.577452 0.296841)
    (xy 0.567054 0.296048) (xy 0.561502 0.296118) (xy 0.555026 0.29643) (xy 0.550403 0.296913)
    (xy 0.546944 0.297698) (xy 0.543964 0.298914) (xy 0.542403 0.299745) (xy 0.535466 0.304996)
    (xy 0.530518 0.311826) (xy 0.527905 0.31877) (xy 0.526126 0.325755) (xy 0.498013 0.326096)
    (xy 0.4699 0.326438) (xy 0.469908 0.322921) (xy 0.470377 0.318388) (xy 0.471623 0.312291)
    (xy 0.473432 0.305404) (xy 0.47559 0.298501) (xy 0.477884 0.292356) (xy 0.479098 0.289639)
    (xy 0.485345 0.279574) (xy 0.493664 0.270571) (xy 0.503717 0.262883) (xy 0.51517 0.256766)
    (xy 0.527685 0.252472) (xy 0.528642 0.252235) (xy 0.53793 0.250478) (xy 0.548832 0.249209)
    (xy 0.560458 0.24848) (xy 0.571918 0.248346) (xy 0.582322 0.248863)) (layer F.SilkS) (width 0.01))
  (fp_poly (pts (xy 1.170627 0.326707) (xy 1.170305 0.476885) (xy 1.141412 0.477226) (xy 1.11252 0.477567)
    (xy 1.112453 0.463256) (xy 1.112405 0.457116) (xy 1.112288 0.453183) (xy 1.112038 0.451123)
    (xy 1.11159 0.450601) (xy 1.110879 0.451284) (xy 1.11031 0.45212) (xy 1.108466 0.454464)
    (xy 1.105363 0.457944) (xy 1.101568 0.461931) (xy 1.100208 0.463303) (xy 1.091327 0.470742)
    (xy 1.081269 0.476363) (xy 1.06953 0.480442) (xy 1.068755 0.480646) (xy 1.062961 0.481653)
    (xy 1.055474 0.482263) (xy 1.047112 0.482473) (xy 1.038692 0.482283) (xy 1.031029 0.481694)
    (xy 1.024941 0.480704) (xy 1.024783 0.480666) (xy 1.011216 0.476116) (xy 0.998905 0.469388)
    (xy 0.987901 0.460542) (xy 0.978254 0.449634) (xy 0.970013 0.436723) (xy 0.963228 0.421867)
    (xy 0.957948 0.405123) (xy 0.957189 0.40203) (xy 0.956246 0.397692) (xy 0.955544 0.393474)
    (xy 0.955048 0.388891) (xy 0.954724 0.383456) (xy 0.954538 0.376684) (xy 0.954472 0.369896)
    (xy 1.014408 0.369896) (xy 1.015019 0.380404) (xy 1.016382 0.389713) (xy 1.017064 0.392625)
    (xy 1.021297 0.404961) (xy 1.026891 0.415271) (xy 1.033799 0.423497) (xy 1.041973 0.429581)
    (xy 1.05029 0.433152) (xy 1.054831 0.433933) (xy 1.060891 0.434177) (xy 1.06751 0.433909)
    (xy 1.073729 0.433153) (xy 1.076804 0.432492) (xy 1.086368 0.428694) (xy 1.094611 0.422821)
    (xy 1.101462 0.415008) (xy 1.106851 0.40539) (xy 1.110709 0.394103) (xy 1.112965 0.381281)
    (xy 1.113549 0.36706) (xy 1.113355 0.36195) (xy 1.111706 0.346833) (xy 1.108594 0.333793)
    (xy 1.104019 0.322829) (xy 1.097981 0.313941) (xy 1.090481 0.30713) (xy 1.081517 0.302393)
    (xy 1.08134 0.302326) (xy 1.077122 0.300917) (xy 1.073167 0.300119) (xy 1.068578 0.299824)
    (xy 1.062458 0.299922) (xy 1.061677 0.299952) (xy 1.055257 0.30033) (xy 1.050491 0.300998)
    (xy 1.046496 0.30214) (xy 1.042423 0.303919) (xy 1.034503 0.309018) (xy 1.0279 0.315984)
    (xy 1.022512 0.32496) (xy 1.018241 0.336088) (xy 1.017084 0.340164) (xy 1.015441 0.348877)
    (xy 1.014549 0.359087) (xy 1.014408 0.369896) (xy 0.954472 0.369896) (xy 0.954454 0.368089)
    (xy 0.954441 0.36322) (xy 0.954452 0.353881) (xy 0.954539 0.346611) (xy 0.954736 0.340937)
    (xy 0.95508 0.336389) (xy 0.955606 0.332495) (xy 0.95635 0.328784) (xy 0.957348 0.324784)
    (xy 0.95736 0.324739) (xy 0.962812 0.308046) (xy 0.96981 0.293321) (xy 0.978334 0.280586)
    (xy 0.988364 0.269866) (xy 0.99988 0.261182) (xy 1.012864 0.254558) (xy 1.019175 0.252257)
    (xy 1.030854 0.249517) (xy 1.043227 0.24847) (xy 1.055731 0.249051) (xy 1.067804 0.251197)
    (xy 1.078884 0.254844) (xy 1.08841 0.259929) (xy 1.088735 0.26015) (xy 1.093405 0.263816)
    (xy 1.098617 0.268603) (xy 1.103608 0.273749) (xy 1.107615 0.278495) (xy 1.108812 0.280172)
    (xy 1.109401 0.281018) (xy 1.109886 0.281459) (xy 1.110277 0.281285) (xy 1.110584 0.280286)
    (xy 1.110818 0.278252) (xy 1.110987 0.274974) (xy 1.111104 0.270241) (xy 1.111177 0.263843)
    (xy 1.111218 0.25557) (xy 1.111235 0.245213) (xy 1.111241 0.232561) (xy 1.111241 0.230187)
    (xy 1.11125 0.17653) (xy 1.17095 0.17653) (xy 1.170627 0.326707)) (layer F.SilkS) (width 0.01))
  (fp_poly (pts (xy 0.013858 0.249858) (xy 0.026756 0.253313) (xy 0.038517 0.258624) (xy 0.04891 0.26568)
    (xy 0.057706 0.274367) (xy 0.064673 0.284574) (xy 0.066666 0.288548) (xy 0.067992 0.291513)
    (xy 0.069139 0.294333) (xy 0.070118 0.297212) (xy 0.070943 0.300351) (xy 0.071627 0.303954)
    (xy 0.072184 0.308222) (xy 0.072626 0.313359) (xy 0.072968 0.319567) (xy 0.073221 0.327048)
    (xy 0.073401 0.336006) (xy 0.073518 0.346642) (xy 0.073588 0.35916) (xy 0.073623 0.373761)
    (xy 0.073636 0.390649) (xy 0.073637 0.395287) (xy 0.07366 0.47752) (xy 0.015417 0.47752)
    (xy 0.014978 0.401637) (xy 0.014884 0.385858) (xy 0.014797 0.372411) (xy 0.014706 0.361088)
    (xy 0.014605 0.351683) (xy 0.014484 0.343987) (xy 0.014336 0.337792) (xy 0.014152 0.332892)
    (xy 0.013925 0.329078) (xy 0.013646 0.326142) (xy 0.013307 0.323878) (xy 0.0129 0.322077)
    (xy 0.012417 0.320532) (xy 0.011849 0.319035) (xy 0.011717 0.318704) (xy 0.0072 0.310709)
    (xy 0.000748 0.304335) (xy -0.00381 0.301449) (xy -0.006456 0.300331) (xy -0.00973 0.299615)
    (xy -0.014223 0.299226) (xy -0.020527 0.299089) (xy -0.022246 0.299085) (xy -0.028547 0.299131)
    (xy -0.033055 0.299363) (xy -0.036516 0.299918) (xy -0.039674 0.300935) (xy -0.043276 0.302554)
    (xy -0.044716 0.303256) (xy -0.051322 0.307156) (xy -0.056579 0.311911) (xy -0.061036 0.318116)
    (xy -0.064473 0.324693) (xy -0.067945 0.332105) (xy -0.069215 0.476885) (xy -0.098743 0.477225)
    (xy -0.12827 0.477566) (xy -0.12827 0.253951) (xy -0.100013 0.254293) (xy -0.071755 0.254635)
    (xy -0.071041 0.285921) (xy -0.065574 0.278533) (xy -0.056756 0.268241) (xy -0.047137 0.26027)
    (xy -0.036426 0.254451) (xy -0.024335 0.250617) (xy -0.014427 0.24897) (xy 0.000054 0.248373)
    (xy 0.013858 0.249858)) (layer F.SilkS) (width 0.01))
  (fp_poly (pts (xy 0.42164 0.47752) (xy 0.392641 0.47752) (xy 0.384304 0.477484) (xy 0.376829 0.477384)
    (xy 0.370588 0.477231) (xy 0.36595 0.477034) (xy 0.363284 0.476805) (xy 0.362796 0.476673)
    (xy 0.362687 0.475318) (xy 0.362582 0.471582) (xy 0.362482 0.465621) (xy 0.362388 0.457593)
    (xy 0.3623 0.447657) (xy 0.362221 0.435969) (xy 0.362149 0.422689) (xy 0.362088 0.407973)
    (xy 0.362036 0.39198) (xy 0.361996 0.374868) (xy 0.361967 0.356793) (xy 0.361952 0.337915)
    (xy 0.36195 0.326178) (xy 0.36195 0.17653) (xy 0.42164 0.17653) (xy 0.42164 0.47752)) (layer F.SilkS) (width 0.01))
  (fp_poly (pts (xy 0.850022 0.249763) (xy 0.863676 0.252843) (xy 0.875874 0.257831) (xy 0.886505 0.264647)
    (xy 0.895456 0.273212) (xy 0.902616 0.283445) (xy 0.907873 0.295266) (xy 0.909892 0.302327)
    (xy 0.910287 0.304336) (xy 0.910627 0.306888) (xy 0.910915 0.310174) (xy 0.911155 0.314384)
    (xy 0.911351 0.31971) (xy 0.911507 0.326341) (xy 0.911628 0.33447) (xy 0.911718 0.344286)
    (xy 0.91178 0.355982) (xy 0.911818 0.369747) (xy 0.911837 0.385773) (xy 0.911841 0.394017)
    (xy 0.91186 0.47752) (xy 0.85344 0.47752) (xy 0.85343 0.406717) (xy 0.853403 0.390672)
    (xy 0.853327 0.376047) (xy 0.853206 0.363004) (xy 0.853043 0.351711) (xy 0.852839 0.342333)
    (xy 0.852599 0.335034) (xy 0.852324 0.329981) (xy 0.852087 0.327698) (xy 0.849512 0.318086)
    (xy 0.845213 0.310326) (xy 0.839203 0.304434) (xy 0.831498 0.300427) (xy 0.828686 0.299549)
    (xy 0.822744 0.298655) (xy 0.815404 0.298574) (xy 0.807648 0.29923) (xy 0.800458 0.300542)
    (xy 0.795311 0.302208) (xy 0.788785 0.306158) (xy 0.782493 0.311926) (xy 0.777075 0.318821)
    (xy 0.773202 0.326076) (xy 0.772574 0.327662) (xy 0.772042 0.329206) (xy 0.771596 0.330923)
    (xy 0.771227 0.333027) (xy 0.770925 0.335732) (xy 0.770683 0.339254) (xy 0.770491 0.343805)
    (xy 0.77034 0.349602) (xy 0.770222 0.356857) (xy 0.770127 0.365786) (xy 0.770046 0.376602)
    (xy 0.76997 0.389521) (xy 0.769891 0.404757) (xy 0.769888 0.405447) (xy 0.769521 0.47752)
    (xy 0.70993 0.47752) (xy 0.70993 0.254) (xy 0.767004 0.254) (xy 0.767359 0.270034)
    (xy 0.767715 0.286069) (xy 0.77267 0.278868) (xy 0.781064 0.268659) (xy 0.79075 0.260581)
    (xy 0.801792 0.254607) (xy 0.814248 0.250706) (xy 0.828179 0.248849) (xy 0.835025 0.248672)
    (xy 0.850022 0.249763)) (layer F.SilkS) (width 0.01))
  (fp_poly (pts (xy 0.70485 0.00889) (xy -0.71374 0.00889) (xy -0.71374 -1.005046) (xy -0.660325 -1.005046)
    (xy -0.659119 -0.981528) (xy -0.655343 -0.955671) (xy -0.64917 -0.930424) (xy -0.640692 -0.905955)
    (xy -0.630002 -0.882429) (xy -0.617195 -0.860016) (xy -0.602363 -0.838882) (xy -0.585601 -0.819194)
    (xy -0.567002 -0.80112) (xy -0.550867 -0.787938) (xy -0.53038 -0.774013) (xy -0.508551 -0.762064)
    (xy -0.485674 -0.752203) (xy -0.462045 -0.744538) (xy -0.437959 -0.739182) (xy -0.413711 -0.736243)
    (xy -0.412115 -0.736137) (xy -0.404364 -0.735896) (xy -0.39484 -0.735984) (xy -0.384282 -0.736362)
    (xy -0.37343 -0.736994) (xy -0.363026 -0.737843) (xy -0.353808 -0.738871) (xy -0.351568 -0.739182)
    (xy -0.33258 -0.742563) (xy -0.314874 -0.746931) (xy -0.298791 -0.752183) (xy -0.284672 -0.758214)
    (xy -0.27899 -0.761188) (xy -0.274676 -0.763641) (xy -0.272245 -0.765256) (xy -0.271362 -0.766436)
    (xy -0.271691 -0.767582) (xy -0.272636 -0.768782) (xy -0.275186 -0.771701) (xy -0.279348 -0.776329)
    (xy -0.284995 -0.782528) (xy -0.291996 -0.790156) (xy -0.300225 -0.799075) (xy -0.309551 -0.809145)
    (xy -0.319847 -0.820227) (xy -0.330983 -0.83218) (xy -0.335798 -0.837339) (xy -0.369979 -0.873943)
    (xy -0.376442 -0.872899) (xy -0.381888 -0.872338) (xy -0.389035 -0.872047) (xy -0.397103 -0.872012)
    (xy -0.40531 -0.87222) (xy -0.412877 -0.872658) (xy -0.419022 -0.873313) (xy -0.421005 -0.873652)
    (xy -0.4393 -0.878576) (xy -0.456492 -0.885663) (xy -0.472411 -0.89478) (xy -0.486885 -0.905798)
    (xy -0.49974 -0.918584) (xy -0.510806 -0.933007) (xy -0.51991 -0.948936) (xy -0.520141 -0.949416)
    (xy -0.525891 -0.963005) (xy -0.529828 -0.976332) (xy -0.532178 -0.990313) (xy -0.533025 -1.001529)
    (xy -0.532747 -1.020896) (xy -0.530172 -1.039193) (xy -0.525279 -1.056477) (xy -0.518045 -1.072806)
    (xy -0.508451 -1.088235) (xy -0.496475 -1.102823) (xy -0.494784 -1.104616) (xy -0.480853 -1.11758)
    (xy -0.466151 -1.128133) (xy -0.450612 -1.136303) (xy -0.434172 -1.142118) (xy -0.416764 -1.145608)
    (xy -0.398323 -1.1468) (xy -0.397994 -1.146801) (xy -0.379229 -1.145571) (xy -0.361018 -1.141901)
    (xy -0.343539 -1.135861) (xy -0.326966 -1.127522) (xy -0.311477 -1.116955) (xy -0.300657 -1.107591)
    (xy -0.288374 -1.094495) (xy -0.278385 -1.080756) (xy -0.270462 -1.066033) (xy -0.266612 -1.056604)
    (xy -0.26356 -1.047704) (xy -0.261375 -1.039823) (xy -0.25993 -1.032184) (xy -0.259099 -1.024008)
    (xy -0.258754 -1.014518) (xy -0.258726 -1.00838) (xy -0.258984 -0.997223) (xy -0.259754 -0.987877)
    (xy -0.261146 -0.979648) (xy -0.263269 -0.971841) (xy -0.265379 -0.965911) (xy -0.266821 -0.962177)
    (xy -0.286154 -0.981479) (xy -0.305487 -1.000782) (xy -0.377624 -1.000454) (xy -0.449761 -1.000125)
    (xy -0.327529 -0.872808) (xy -0.205296 -0.74549) (xy -0.130588 -0.74549) (xy -0.117077 -0.745506)
    (xy -0.104354 -0.745551) (xy -0.09264 -0.745623) (xy -0.082158 -0.745719) (xy -0.073127 -0.745836)
    (xy -0.06577 -0.745972) (xy -0.060308 -0.746122) (xy -0.056962 -0.746285) (xy -0.055944 -0.746443)
    (xy -0.056823 -0.747492) (xy -0.059337 -0.750189) (xy -0.063332 -0.754377) (xy -0.068656 -0.7599)
    (xy -0.075156 -0.7666) (xy -0.08268 -0.774319) (xy -0.091076 -0.782901) (xy -0.100191 -0.792189)
    (xy -0.109872 -0.802025) (xy -0.111105 -0.803275) (xy -0.166202 -0.859155) (xy -0.163657 -0.862965)
    (xy -0.159126 -0.870546) (xy -0.154253 -0.880097) (xy -0.149237 -0.891106) (xy -0.144279 -0.903064)
    (xy -0.139578 -0.915457) (xy -0.135336 -0.927776) (xy -0.13175 -0.939508) (xy -0.129023 -0.950143)
    (xy -0.128383 -0.953135) (xy -0.124667 -0.977921) (xy -0.123424 -1.002965) (xy -0.124624 -1.028079)
    (xy -0.12824 -1.053073) (xy -0.134245 -1.07776) (xy -0.142608 -1.101952) (xy -0.153304 -1.125459)
    (xy -0.154498 -1.12776) (xy -0.16772 -1.150284) (xy -0.182837 -1.171195) (xy -0.19972 -1.190401)
    (xy -0.21824 -1.207812) (xy -0.238265 -1.223336) (xy -0.259666 -1.236882) (xy -0.282314 -1.248357)
    (xy -0.306079 -1.257672) (xy -0.33083 -1.264733) (xy -0.352334 -1.26873) (xy -0.09906 -1.26873)
    (xy -0.09906 -1.079592) (xy -0.099052 -1.049424) (xy -0.099024 -1.02178) (xy -0.098979 -0.996647)
    (xy -0.098916 -0.97401) (xy -0.098834 -0.953853) (xy -0.098734 -0.936163) (xy -0.098615 -0.920924)
    (xy -0.098477 -0.908121) (xy -0.098321 -0.89774) (xy -0.098146 -0.889767) (xy -0.097951 -0.884185)
    (xy -0.097738 -0.880982) (xy -0.097701 -0.880677) (xy -0.094835 -0.867026) (xy -0.090054 -0.852651)
    (xy -0.083613 -0.83814) (xy -0.075771 -0.824083) (xy -0.067872 -0.812497) (xy -0.054861 -0.797259)
    (xy -0.039957 -0.783628) (xy -0.02329 -0.77167) (xy -0.004988 -0.761455) (xy 0.014821 -0.753049)
    (xy 0.036008 -0.746521) (xy 0.058443 -0.741938) (xy 0.06858 -0.740566) (xy 0.076107 -0.739941)
    (xy 0.085501 -0.73953) (xy 0.09611 -0.739328) (xy 0.107283 -0.739332) (xy 0.118368 -0.739536)
    (xy 0.128715 -0.739935) (xy 0.137672 -0.740526) (xy 0.143127 -0.741097) (xy 0.166191 -0.745161)
    (xy 0.187704 -0.751105) (xy 0.207608 -0.758882) (xy 0.225847 -0.768447) (xy 0.242362 -0.779753)
    (xy 0.257096 -0.792755) (xy 0.269991 -0.807406) (xy 0.28099 -0.823661) (xy 0.290034 -0.841474)
    (xy 0.297067 -0.860798) (xy 0.298235 -0.86487) (xy 0.301547 -0.876935) (xy 0.301966 -0.990699)
    (xy 0.302384 -1.104463) (xy 0.237636 -1.172281) (xy 0.227119 -1.183284) (xy 0.217096 -1.193745)
    (xy 0.207708 -1.203519) (xy 0.199095 -1.212461) (xy 0.191396 -1.220427) (xy 0.184752 -1.227273)
    (xy 0.179303 -1.232853) (xy 0.175189 -1.237023) (xy 0.17255 -1.239637) (xy 0.171533 -1.240551)
    (xy 0.171322 -1.239697) (xy 0.171131 -1.236953) (xy 0.170958 -1.232264) (xy 0.170803 -1.225575)
    (xy 0.170667 -1.216834) (xy 0.170548 -1.205985) (xy 0.170445 -1.192974) (xy 0.17036 -1.177747)
    (xy 0.170291 -1.16025) (xy 0.170237 -1.140428) (xy 0.170199 -1.118228) (xy 0.170176 -1.093595)
    (xy 0.170167 -1.067224) (xy 0.170155 -0.893445) (xy 0.167175 -0.887047) (xy 0.162199 -0.879336)
    (xy 0.155104 -0.872973) (xy 0.145936 -0.867974) (xy 0.134737 -0.864355) (xy 0.121552 -0.862133)
    (xy 0.106427 -0.861323) (xy 0.097155 -0.861491) (xy 0.089845 -0.861913) (xy 0.082661 -0.86254)
    (xy 0.076375 -0.863293) (xy 0.07176 -0.86409) (xy 0.071343 -0.864187) (xy 0.059901 -0.867902)
    (xy 0.050399 -0.872931) (xy 0.042956 -0.879193) (xy 0.037691 -0.886609) (xy 0.037422 -0.887138)
    (xy 0.037083 -0.887869) (xy 0.036776 -0.888712) (xy 0.036499 -0.889791) (xy 0.03625 -0.891228)
    (xy 0.036027 -0.893148) (xy 0.035829 -0.895674) (xy 0.035654 -0.89893) (xy 0.035499 -0.90304)
    (xy 0.035364 -0.908127) (xy 0.035246 -0.914315) (xy 0.035144 -0.921728) (xy 0.035055 -0.930489)
    (xy 0.034978 -0.940722) (xy 0.034911 -0.952552) (xy 0.034853 -0.9661) (xy 0.0348 -0.981492)
    (xy 0.034753 -0.99885) (xy 0.034708 -1.018299) (xy 0.034665 -1.039962) (xy 0.03462 -1.063963)
    (xy 0.034591 -1.080453) (xy 0.034257 -1.26873) (xy 0.183911 -1.26873) (xy 0.193873 -1.25799)
    (xy 0.196605 -1.255082) (xy 0.200907 -1.250551) (xy 0.206583 -1.244602) (xy 0.213438 -1.237439)
    (xy 0.221275 -1.229266) (xy 0.2299 -1.220287) (xy 0.239116 -1.210707) (xy 0.248728 -1.200728)
    (xy 0.255905 -1.193287) (xy 0.307975 -1.139325) (xy 0.352742 -1.139258) (xy 0.39751 -1.13919)
    (xy 0.39751 -0.74676) (xy 0.5334 -0.74676) (xy 0.5334 -1.139162) (xy 0.585787 -1.139494)
    (xy 0.638175 -1.139825) (xy 0.638833 -1.268731) (xy 0.411372 -1.26873) (xy 0.183911 -1.26873)
    (xy 0.034257 -1.26873) (xy -0.09906 -1.26873) (xy -0.352334 -1.26873) (xy -0.3556 -1.269337)
    (xy -0.365996 -1.270414) (xy -0.378075 -1.271078) (xy -0.391035 -1.271326) (xy -0.404073 -1.271161)
    (xy -0.416386 -1.270582) (xy -0.427171 -1.269589) (xy -0.429247 -1.269317) (xy -0.454701 -1.264512)
    (xy -0.479445 -1.257361) (xy -0.503298 -1.247957) (xy -0.526079 -1.23639) (xy -0.547607 -1.222755)
    (xy -0.567701 -1.207143) (xy -0.58618 -1.189648) (xy -0.586989 -1.188798) (xy -0.603813 -1.169262)
    (xy -0.618569 -1.148404) (xy -0.631195 -1.126395) (xy -0.641634 -1.103404) (xy -0.649826 -1.079603)
    (xy -0.655712 -1.055163) (xy -0.659231 -1.030254) (xy -0.660325 -1.005046) (xy -0.71374 -1.005046)
    (xy -0.71374 -1.40589) (xy 0.70485 -1.40589) (xy 0.70485 0.00889)) (layer F.SilkS) (width 0.01))
)
